{
  "folder": "NJZvWdbv8A8K3VB8",
  "name": "4 Círculo",
  "sorting": "a",
  "type": "Item",
  "_id": "dsLi9u9ytNSYWd13",
  "sort": 0,
  "flags": {},
  "_stats": {
    "systemId": null,
    "systemVersion": null,
    "coreVersion": null,
    "createdTime": null,
    "modifiedTime": null,
    "lastModifiedBy": null
  },
  "_key": "!folders!dsLi9u9ytNSYWd13"
}
