{
  "folder": "2G9nqjSzgxMa2POf",
  "name": "A3 Ilusão",
  "sorting": "a",
  "type": "Item",
  "_id": "KG0i7Ko46Nmq1cyT",
  "sort": 0,
  "flags": {},
  "_stats": {
    "systemId": null,
    "systemVersion": null,
    "coreVersion": null,
    "createdTime": null,
    "modifiedTime": null,
    "lastModifiedBy": null
  },
  "_key": "!folders!KG0i7Ko46Nmq1cyT"
}
