{
  "folder": "3vLGG9iTfdcoZaTn",
  "name": "A4 Convocação",
  "sorting": "a",
  "type": "Item",
  "_id": "SwSkQekDGTtZV4gB",
  "sort": 0,
  "flags": {},
  "_stats": {
    "systemId": null,
    "systemVersion": null,
    "coreVersion": null,
    "createdTime": null,
    "modifiedTime": null,
    "lastModifiedBy": null
  },
  "_key": "!folders!SwSkQekDGTtZV4gB"
}
