{
  "_id": "t7gd203PbRh3HfgS",
  "name": "Alterar Memória",
  "type": "magia",
  "img": "systems/tormenta20/icons/magias/alterar-memoria.webp",
  "effects": [
    {
      "_id": "43Xr7frcuZwDiOmD",
      "flags": {
        "onuse": true,
        "t20": null,
        "tormenta20": {
          "self": true,
          "attack": false,
          "skill": false,
          "ability": false,
          "power": false,
          "spell": false,
          "consumable": false,
          "aumenta": false,
          "custo": "2",
          "durationScene": false,
          "onuse": true,
          "items": "",
          "equipment": false
        }
      },
      "changes": [
        {
          "key": "alcance",
          "mode": 5,
          "value": "pessoal",
          "priority": 0
        },
        {
          "key": "area",
          "mode": 5,
          "value": "cone de 4,5m",
          "priority": 0
        }
      ],
      "disabled": true,
      "duration": {
        "startTime": null,
        "seconds": null,
        "combat": null,
        "rounds": null,
        "turns": null,
        "startRound": null,
        "startTurn": null
      },
      "icon": "icons/svg/aura.svg",
      "label": "muda o alcance para pessoal e o alvo para área cone de 4,5m.",
      "origin": "Item.x0FfeLySj5HBFbQ2",
      "tint": null,
      "transfer": false,
      "_key": "!items.effects!t7gd203PbRh3HfgS.43Xr7frcuZwDiOmD"
    },
    {
      "_id": "hfNuICnLPw71APCO",
      "flags": {
        "onuse": true,
        "t20": null,
        "tormenta20": {
          "self": true,
          "attack": false,
          "skill": false,
          "ability": false,
          "power": false,
          "spell": false,
          "consumable": false,
          "aumenta": false,
          "custo": "5",
          "durationScene": false,
          "onuse": true
        }
      },
      "changes": [],
      "disabled": true,
      "duration": {
        "startTime": null,
        "seconds": null,
        "combat": null,
        "rounds": null,
        "turns": null,
        "startRound": null,
        "startTurn": null
      },
      "icon": "icons/svg/aura.svg",
      "label": "você pode alterar ou apagar as memórias das últimas 24 horas.",
      "origin": "Item.x0FfeLySj5HBFbQ2",
      "tint": null,
      "transfer": false,
      "_key": "!items.effects!t7gd203PbRh3HfgS.hfNuICnLPw71APCO"
    },
    {
      "label": "Alterar Memória",
      "icon": "systems/tormenta20/icons/magias/alterar-memoria.webp",
      "origin": "Item.t7gd203PbRh3HfgS",
      "tint": "#FFFFFF",
      "flags": {
        "tormenta20": {
          "onuse": false,
          "durationScene": true
        }
      },
      "duration": {
        "rounds": 1,
        "startTime": null,
        "seconds": null,
        "combat": null,
        "turns": null,
        "startRound": null,
        "startTurn": null
      },
      "disabled": false,
      "_id": "9wvyYKww1DmeZ1Hv",
      "changes": [],
      "transfer": false,
      "_key": "!items.effects!t7gd203PbRh3HfgS.9wvyYKww1DmeZ1Hv"
    }
  ],
  "folder": "PABI38J6SHGUIktW",
  "sort": 0,
  "flags": {
    "core": {
      "sourceId": "Item.l5nCVIKKdhuUAbz5"
    }
  },
  "system": {
    "description": {
      "value": "<p style=\"text-align:justify;\">Voc&ecirc; invade a mente do alvo e altera ou apaga suas mem&oacute;rias da &uacute;ltima hora.</p>",
      "chat": "",
      "unidentified": ""
    },
    "source": "T20, pg. 179 (JdA)",
    "ativacao": {
      "execucao": "action",
      "custo": 10,
      "qtd": "",
      "condicao": "",
      "special": ""
    },
    "duracao": {
      "value": 0,
      "units": "inst",
      "special": ""
    },
    "target": {
      "value": null,
      "width": null,
      "units": "",
      "type": ""
    },
    "range": {
      "value": null,
      "units": ""
    },
    "consume": {
      "type": "",
      "target": "",
      "amount": null,
      "mpMultiplier": false
    },
    "efeito": "",
    "alcance": "touch",
    "alvo": "1 criatura",
    "area": "",
    "resistencia": {
      "pericia": "",
      "atributo": "int",
      "bonus": 0,
      "txt": "Vontade anula"
    },
    "rolls": [],
    "tipo": "arc",
    "circulo": "4",
    "preparada": false,
    "escola": "enc",
    "chatFlavor": "",
    "origin": "",
    "tags": [],
    "chatGif": ""
  },
  "ownership": {
    "default": 0
  },
  "_stats": {
    "systemId": "tormenta20",
    "systemVersion": "1.4.116",
    "coreVersion": "11.298",
    "createdTime": 1664310462824,
    "modifiedTime": 1684622830660,
    "lastModifiedBy": "ZWR5Tn3AhSIFqwp6"
  },
  "_key": "!items!t7gd203PbRh3HfgS"
}
