{
  "_id": "1Yf9b8BviLCLISMc",
  "name": "Animar Objetos",
  "type": "magia",
  "img": "systems/tormenta20/icons/magias/animar-objetos.webp",
  "effects": [
    {
      "_id": "nvRCsxCslDKhoyVy",
      "flags": {
        "t20": null,
        "tormenta20": {
          "onuse": true,
          "self": true,
          "custo": "5",
          "attack": false,
          "skill": false,
          "ability": false,
          "power": false,
          "spell": false,
          "consumable": false,
          "aumenta": false,
          "durationScene": false
        }
      },
      "changes": [
        {
          "key": "duracao",
          "value": "permanente",
          "mode": 5,
          "priority": null
        }
      ],
      "disabled": true,
      "duration": {
        "startTime": null,
        "seconds": null,
        "combat": null,
        "rounds": null,
        "turns": null,
        "startRound": null,
        "startTurn": null
      },
      "icon": "icons/svg/upgrade.svg",
      "label": "muda a duração para permanente e adiciona componente material (prataria no valor de T$ 1.000). Você pode ter um máximo de objetos animados igual à metade do seu nível.",
      "origin": "Item.XKoBewFS6ExI3ACX",
      "tint": null,
      "transfer": false,
      "_key": "!items.effects!1Yf9b8BviLCLISMc.nvRCsxCslDKhoyVy"
    },
    {
      "_id": "LVWr9OeGA8h0V5e0",
      "changes": [
        {
          "key": "dano",
          "mode": 2,
          "value": "1d6",
          "priority": 0
        }
      ],
      "disabled": false,
      "duration": {
        "rounds": 1,
        "startTime": null,
        "seconds": null,
        "combat": null,
        "turns": null,
        "startRound": null,
        "startTurn": null
      },
      "icon": "systems/tormenta20/icons/magias/animar-objetos.webp",
      "label": "Assassino Iniciante",
      "origin": "Item.jGRtWpsdNPtWdjfl",
      "transfer": false,
      "flags": {
        "tormenta20": {
          "onuse": true,
          "durationScene": true,
          "self": false,
          "attack": true,
          "skill": false,
          "ability": false,
          "power": false,
          "equipment": false,
          "spell": false,
          "consumable": false,
          "items": "",
          "aumenta": false,
          "custo": "0"
        }
      },
      "tint": null,
      "_key": "!items.effects!1Yf9b8BviLCLISMc.LVWr9OeGA8h0V5e0"
    },
    {
      "_id": "EDkq7Fox5zvNJAF7",
      "changes": [
        {
          "key": "ataque",
          "mode": 2,
          "value": "1",
          "priority": 0
        }
      ],
      "disabled": false,
      "duration": {
        "rounds": 1,
        "startTime": null,
        "seconds": null,
        "combat": null,
        "turns": null,
        "startRound": null,
        "startTurn": null
      },
      "icon": "systems/tormenta20/icons/magias/animar-objetos.webp",
      "label": "Combatente Iniciante",
      "origin": "Item.jGRtWpsdNPtWdjfl",
      "transfer": false,
      "flags": {
        "tormenta20": {
          "onuse": true,
          "durationScene": true,
          "self": false,
          "attack": true,
          "skill": false,
          "ability": false,
          "power": false,
          "equipment": false,
          "spell": false,
          "consumable": false,
          "items": "",
          "aumenta": false,
          "custo": "0"
        }
      },
      "tint": null,
      "_key": "!items.effects!1Yf9b8BviLCLISMc.EDkq7Fox5zvNJAF7"
    },
    {
      "_id": "SRhyjfOAY7qFcZUR",
      "changes": [
        {
          "key": "system.attributes.defesa.bonus",
          "mode": 2,
          "value": "2",
          "priority": null
        }
      ],
      "disabled": false,
      "duration": {
        "rounds": 1,
        "startTime": null,
        "seconds": null,
        "combat": null,
        "turns": null,
        "startRound": null,
        "startTurn": null
      },
      "icon": "systems/tormenta20/icons/magias/animar-objetos.webp",
      "label": "Guardião Iniciante",
      "origin": "Item.jGRtWpsdNPtWdjfl",
      "transfer": false,
      "flags": {
        "tormenta20": {
          "onuse": false,
          "durationScene": true
        }
      },
      "tint": null,
      "_key": "!items.effects!1Yf9b8BviLCLISMc.SRhyjfOAY7qFcZUR"
    },
    {
      "_id": "w19yGST3w1x59WvG",
      "changes": [
        {
          "key": "ataque",
          "mode": 2,
          "value": "2",
          "priority": 0
        }
      ],
      "disabled": false,
      "duration": {
        "rounds": 1,
        "startTime": null,
        "seconds": null,
        "combat": null,
        "turns": null,
        "startRound": null,
        "startTurn": null
      },
      "icon": "systems/tormenta20/icons/magias/animar-objetos.webp",
      "label": "Combatente Veterano",
      "origin": "Item.jGRtWpsdNPtWdjfl",
      "transfer": false,
      "flags": {
        "tormenta20": {
          "onuse": true,
          "durationScene": true,
          "self": false,
          "attack": true,
          "skill": false,
          "ability": false,
          "power": false,
          "equipment": false,
          "spell": false,
          "consumable": false,
          "items": "",
          "aumenta": false,
          "custo": "0"
        }
      },
      "tint": null,
      "_key": "!items.effects!1Yf9b8BviLCLISMc.w19yGST3w1x59WvG"
    },
    {
      "_id": "aMocXzYNa7G9gtgI",
      "changes": [
        {
          "key": "dano",
          "mode": 2,
          "value": "1d12",
          "priority": 0
        }
      ],
      "disabled": false,
      "duration": {
        "rounds": 1,
        "startTime": null,
        "seconds": null,
        "combat": null,
        "turns": null,
        "startRound": null,
        "startTurn": null
      },
      "icon": "systems/tormenta20/icons/magias/animar-objetos.webp",
      "label": "Fortão Veterano",
      "origin": "Item.jGRtWpsdNPtWdjfl",
      "transfer": false,
      "flags": {
        "tormenta20": {
          "onuse": true,
          "durationScene": true,
          "self": false,
          "attack": true,
          "skill": false,
          "ability": false,
          "power": false,
          "equipment": false,
          "spell": false,
          "consumable": false,
          "items": "",
          "aumenta": false,
          "custo": "0"
        }
      },
      "tint": null,
      "_key": "!items.effects!1Yf9b8BviLCLISMc.aMocXzYNa7G9gtgI"
    },
    {
      "_id": "2iXzddxfOPshryt4",
      "changes": [
        {
          "key": "system.attributes.defesa.bonus",
          "mode": 2,
          "value": "3",
          "priority": null
        }
      ],
      "disabled": false,
      "duration": {
        "rounds": 1,
        "startTime": null,
        "seconds": null,
        "combat": null,
        "turns": null,
        "startRound": null,
        "startTurn": null
      },
      "icon": "systems/tormenta20/icons/magias/animar-objetos.webp",
      "label": "Guardião Veterano",
      "origin": "Item.jGRtWpsdNPtWdjfl",
      "transfer": false,
      "flags": {
        "tormenta20": {
          "onuse": false,
          "durationScene": true
        }
      },
      "tint": null,
      "_key": "!items.effects!1Yf9b8BviLCLISMc.2iXzddxfOPshryt4"
    },
    {
      "_id": "uhkiNFv0IbTaQdxC",
      "changes": [
        {
          "key": "system.attibutes.movement.walk",
          "mode": 5,
          "value": "15",
          "priority": null
        },
        {
          "key": "system.modificadores.ataque.cac",
          "mode": 2,
          "value": "2",
          "priority": null
        },
        {
          "key": "system.modificadores.ataque.ad",
          "mode": 2,
          "value": "2",
          "priority": null
        }
      ],
      "disabled": false,
      "duration": {
        "rounds": 1,
        "startTime": null,
        "seconds": null,
        "combat": null,
        "turns": null,
        "startRound": null,
        "startTurn": null
      },
      "icon": "systems/tormenta20/icons/magias/animar-objetos.webp",
      "label": "Montaria (Cavalo) Veterana",
      "origin": "Item.jGRtWpsdNPtWdjfl",
      "transfer": false,
      "flags": {
        "tormenta20": {
          "onuse": false,
          "durationScene": true
        }
      },
      "tint": null,
      "_key": "!items.effects!1Yf9b8BviLCLISMc.uhkiNFv0IbTaQdxC"
    },
    {
      "_id": "tUeZTBdHGqgnRFVD",
      "changes": [
        {
          "key": "dano",
          "mode": 2,
          "value": "3d6",
          "priority": 0
        }
      ],
      "disabled": false,
      "duration": {
        "rounds": 1,
        "startTime": null,
        "seconds": null,
        "combat": null,
        "turns": null,
        "startRound": null,
        "startTurn": null
      },
      "icon": "systems/tormenta20/icons/magias/animar-objetos.webp",
      "label": "Fortão Mestre",
      "origin": "Item.jGRtWpsdNPtWdjfl",
      "transfer": false,
      "flags": {
        "tormenta20": {
          "onuse": true,
          "durationScene": true,
          "self": false,
          "attack": true,
          "skill": false,
          "ability": false,
          "power": false,
          "equipment": false,
          "spell": false,
          "consumable": false,
          "items": "",
          "aumenta": false,
          "custo": "0"
        }
      },
      "tint": null,
      "_key": "!items.effects!1Yf9b8BviLCLISMc.tUeZTBdHGqgnRFVD"
    },
    {
      "_id": "c1i3PINi3DqPYjaT",
      "changes": [
        {
          "key": "system.attributes.defesa.bonus",
          "mode": 2,
          "value": "4",
          "priority": null
        },
        {
          "key": "system.pericias.refl.bonus",
          "mode": 2,
          "value": "2",
          "priority": null
        },
        {
          "key": "system.pericias.fort.bonus",
          "mode": 2,
          "value": "2",
          "priority": null
        },
        {
          "key": "system.pericias.vont.bonus",
          "mode": 2,
          "value": "2",
          "priority": null
        }
      ],
      "disabled": false,
      "duration": {
        "rounds": 1,
        "startTime": null,
        "seconds": null,
        "combat": null,
        "turns": null,
        "startRound": null,
        "startTurn": null
      },
      "icon": "systems/tormenta20/icons/magias/animar-objetos.webp",
      "label": "Guardião Mestre",
      "origin": "Item.jGRtWpsdNPtWdjfl",
      "transfer": false,
      "flags": {
        "tormenta20": {
          "onuse": false,
          "durationScene": true
        }
      },
      "tint": null,
      "_key": "!items.effects!1Yf9b8BviLCLISMc.c1i3PINi3DqPYjaT"
    },
    {
      "_id": "pYJA0nFOkvHfjPub",
      "changes": [
        {
          "key": "system.modificadores.ataque.cac",
          "mode": 2,
          "value": "2",
          "priority": null
        },
        {
          "key": "system.modificadores.ataque.ad",
          "mode": 2,
          "value": "2",
          "priority": null
        },
        {
          "key": "system.attributes.movement.walk",
          "mode": 5,
          "value": "15",
          "priority": null
        }
      ],
      "disabled": false,
      "duration": {
        "rounds": 1,
        "startTime": null,
        "seconds": null,
        "combat": null,
        "turns": null,
        "startRound": null,
        "startTurn": null
      },
      "icon": "systems/tormenta20/icons/magias/animar-objetos.webp",
      "label": "Montaria (Cavalo) Mestre",
      "origin": "Item.jGRtWpsdNPtWdjfl",
      "transfer": false,
      "flags": {
        "tormenta20": {
          "onuse": false,
          "durationScene": true
        }
      },
      "tint": null,
      "_key": "!items.effects!1Yf9b8BviLCLISMc.pYJA0nFOkvHfjPub"
    }
  ],
  "folder": "911fHy1VvyYmffKK",
  "sort": 0,
  "flags": {
    "core": {
      "sourceId": "Item.22IUPyd488nX1Xrh"
    }
  },
  "system": {
    "description": {
      "value": "<p style=\"text-align: justify;\">Voc&ecirc; concede vida a objetos inanimados. Cada objeto se torna um parceiro sob seu controle. O tipo dele &eacute; escolhido da lista de tamanho e ele n&atilde;o conta em seu limite de parceiros. Com uma a&ccedil;&atilde;o de movimento, voc&ecirc; pode comandar mentalmente qualquer objeto animado dentro do alcance para que auxilie voc&ecirc; ou outra criatura. Outros usos criativos para os objetos ficam a cargo do mestre. Objetos animados s&atilde;o construtos com valores de For&ccedil;a, Destreza e&nbsp; PV de acordo com seu tamanho. Todos os outros atributos nulos, eles n&atilde;o t&ecirc;m valor de Defesa ou testes de resist&ecirc;ncia e falham automaticamente em qualquer teste oposto. Diferente de parceiros comuns, um objeto pode ser alvo de um ataque direto. Esta magia n&atilde;o afeta itens m&aacute;gicos, nem objetos que estejam sendo carregados por outra criatura.</p>\n<p style=\"text-align: justify;\">Esta magia n&atilde;o afeta itens m&aacute;gicos, nem objetos que estejam sendo carregados por outra criatura.</p>\n<p style=\"text-align: justify;\">&nbsp;</p>\n<p style=\"text-align: justify;\">Estat&iacute;sticas de objetos animados</p>\n<p style=\"text-align: justify;\">Min&uacute;sculo: For -3, Des 4, 5 PV; Assassino ou Combatente Iniciante.</p>\n<p style=\"text-align: justify;\">Pequeno: For -2, Des 2, 10 PV; Combatente ou Guardi&atilde;o Iniciante.</p>\n<p style=\"text-align: justify;\">M&eacute;dio: For 0, Des 1, 20 PV; Combatente ou Guardi&atilde;o Veterano.</p>\n<p style=\"text-align: justify;\">Grande: For 2, Des 0, 40 PV; Fort&atilde;o, Guardi&atilde;o ou Montaria (cavalo) Veterano.</p>\n<p style=\"text-align: justify;\">Enorme: For 4, Des -2, 60 PV; Fort&atilde;o, Guardi&atilde;o ou Montaria (cavalo) Mestre.</p>",
      "chat": "",
      "unidentified": ""
    },
    "source": "T20, pg. 179 (JdA)",
    "ativacao": {
      "execucao": "action",
      "custo": 10,
      "qtd": "",
      "condicao": "",
      "special": ""
    },
    "duracao": {
      "value": 0,
      "units": "scene",
      "special": ""
    },
    "target": {
      "value": null,
      "width": null,
      "units": "",
      "type": ""
    },
    "range": {
      "value": null,
      "units": ""
    },
    "consume": {
      "type": "",
      "target": "",
      "amount": null,
      "mpMultiplier": false
    },
    "efeito": "",
    "alcance": "medium",
    "alvo": "Até 8 objetos Minúsculos ou Pequenos, 4 objetos Médios, 2 objetos Grandes ou 1 objeto Enorme",
    "area": "",
    "resistencia": {
      "pericia": "",
      "atributo": "int",
      "bonus": 0,
      "txt": ""
    },
    "rolls": [],
    "tipo": "arc",
    "circulo": "4",
    "preparada": false,
    "escola": "tra",
    "chatFlavor": "",
    "origin": "",
    "tags": [],
    "chatGif": ""
  },
  "ownership": {
    "default": 0
  },
  "_stats": {
    "systemId": "tormenta20",
    "systemVersion": "1.4.116",
    "coreVersion": "11.298",
    "createdTime": 1664310461756,
    "modifiedTime": 1684622830660,
    "lastModifiedBy": "ZWR5Tn3AhSIFqwp6"
  },
  "_key": "!items!1Yf9b8BviLCLISMc"
}
