{
  "_id": "8byp1gCfdXtmae6D",
  "name": "Comunhão com a Natureza",
  "type": "magia",
  "img": "systems/tormenta20/icons/magias/comunhao-com-a-natureza.webp",
  "effects": [
    {
      "_id": "4WCDUTaoZD23KHzj",
      "flags": {
        "t20": null,
        "tormenta20": {
          "onuse": true,
          "self": true,
          "custo": "1",
          "aumenta": false
        }
      },
      "changes": [
        {
          "key": "execucao",
          "value": "1 minuto",
          "mode": 5,
          "priority": null
        },
        {
          "key": "duracao",
          "value": "instantânea",
          "mode": 5,
          "priority": null
        },
        {
          "key": "dano",
          "value": "1d4",
          "mode": 0,
          "priority": null
        }
      ],
      "disabled": true,
      "duration": {
        "startTime": null,
        "seconds": null,
        "combat": null,
        "rounds": null,
        "turns": null,
        "startRound": null,
        "startTurn": null
      },
      "icon": "icons/svg/upgrade.svg",
      "label": "muda a execução para 1 minuto e a duração para instantânea. Em vez do normal, você descobre 1d4+1 informações sobre os seguintes temas: terreno, animais, vegetais, minerais, cursos d’água e presença de criaturas antinaturais numa região natural em que você esteja. Você pode, por exemplo, descobrir a quantidade de cavernas (terreno), se uma planta rara existe (vegetais) e se há mortos-vivos (criaturas antinaturais) na região.",
      "origin": "Compendium.tormenta20.magias.8byp1gCfdXtmae6D",
      "transfer": false,
      "tint": null,
      "_key": "!items.effects!8byp1gCfdXtmae6D.4WCDUTaoZD23KHzj"
    },
    {
      "_id": "QdGEs2v2ZUPp6ma1",
      "flags": {
        "t20": null,
        "tormenta20": {
          "onuse": true,
          "self": true,
          "custo": "3",
          "aumenta": true
        }
      },
      "changes": [],
      "disabled": true,
      "duration": {
        "startTime": null,
        "seconds": null,
        "combat": null,
        "rounds": null,
        "turns": null,
        "startRound": null,
        "startTurn": null
      },
      "icon": "icons/svg/upgrade.svg",
      "label": "aumenta o número de dados de auxílio em +2.",
      "origin": "Compendium.tormenta20.magias.8byp1gCfdXtmae6D",
      "transfer": false,
      "tint": null,
      "_key": "!items.effects!8byp1gCfdXtmae6D.QdGEs2v2ZUPp6ma1"
    },
    {
      "_id": "SbfX8iA2no5Q3jnD",
      "flags": {
        "t20": null,
        "tormenta20": {
          "onuse": true,
          "self": true,
          "custo": "4",
          "aumenta": false
        }
      },
      "changes": [],
      "disabled": true,
      "duration": {
        "startTime": null,
        "seconds": null,
        "combat": null,
        "rounds": null,
        "turns": null,
        "startRound": null,
        "startTurn": null
      },
      "icon": "icons/svg/upgrade.svg",
      "label": "muda o tipo dos dados de auxílio para d6.",
      "origin": "Compendium.tormenta20.magias.8byp1gCfdXtmae6D",
      "transfer": false,
      "tint": null,
      "_key": "!items.effects!8byp1gCfdXtmae6D.SbfX8iA2no5Q3jnD"
    },
    {
      "_id": "WAYprkRwWxfMkj3B",
      "flags": {
        "t20": null,
        "tormenta20": {
          "onuse": true,
          "self": true,
          "custo": "8",
          "aumenta": false
        }
      },
      "changes": [],
      "disabled": true,
      "duration": {
        "startTime": null,
        "seconds": null,
        "combat": null,
        "rounds": null,
        "turns": null,
        "startRound": null,
        "startTurn": null
      },
      "icon": "icons/svg/upgrade.svg",
      "label": "muda o tipo dos dados de auxílio para d8.",
      "origin": "Compendium.tormenta20.magias.8byp1gCfdXtmae6D",
      "transfer": false,
      "tint": null,
      "_key": "!items.effects!8byp1gCfdXtmae6D.WAYprkRwWxfMkj3B"
    },
    {
      "_id": "PUS1nr1CNggywQKb",
      "changes": [],
      "disabled": false,
      "duration": {
        "rounds": 1,
        "startTime": null,
        "seconds": null,
        "combat": null,
        "turns": null,
        "startRound": null,
        "startTurn": null
      },
      "icon": "systems/tormenta20/icons/magias/comunhao-com-a-natureza.webp",
      "label": "Comunhão com a Natureza",
      "origin": "Item.0SUkWOYMxLOQRADy",
      "transfer": false,
      "flags": {
        "tormenta20": {
          "onuse": false,
          "durationScene": true
        }
      },
      "tint": null,
      "_key": "!items.effects!8byp1gCfdXtmae6D.PUS1nr1CNggywQKb"
    }
  ],
  "folder": "Ahqj3OdWmUl3yzPm",
  "sort": 0,
  "flags": {
    "core": {
      "sourceId": "Item.0sTarJBOFcvtI6Il"
    }
  },
  "system": {
    "description": {
      "value": "<p style=\"text-align: justify;\">Ap&oacute;s uma breve uni&atilde;o com a natureza local, voc&ecirc; obt&eacute;m informa&ccedil;&otilde;es e intui&ccedil;&otilde;es sobre a regi&atilde;o em que est&aacute;, numa dist&acirc;ncia equivalente a um dia de viagem. Voc&ecirc; recebe 6d4 dados de aux&iacute;lio.&nbsp;</p>\n<p style=\"text-align: justify;\">Enquanto a magia durar, sempre que for realizar um teste de per&iacute;cia em &aacute;reas naturais, voc&ecirc; pode gastar 2d4 (mais 2d4 para cada c&iacute;rculo de magias acima do 3&ordm; que puder lan&ccedil;ar) e adicionar o resultado rolado como b&ocirc;nus no teste. A magia termina se voc&ecirc; ficar sem dados.</p>",
      "chat": "",
      "unidentified": ""
    },
    "source": "T20, pg. 184 (JdA)",
    "ativacao": {
      "execucao": "full",
      "custo": 6,
      "qtd": "",
      "condicao": "",
      "special": ""
    },
    "duracao": {
      "value": 1,
      "units": "day",
      "special": ""
    },
    "target": {
      "value": null,
      "width": null,
      "units": "",
      "type": ""
    },
    "range": {
      "value": null,
      "units": ""
    },
    "consume": {
      "type": "",
      "target": "",
      "amount": null,
      "mpMultiplier": false
    },
    "efeito": "",
    "alcance": "self",
    "alvo": "Você",
    "area": "",
    "resistencia": {
      "pericia": "",
      "atributo": "sab",
      "bonus": 0,
      "txt": ""
    },
    "rolls": [],
    "tipo": "div",
    "circulo": "3",
    "preparada": false,
    "escola": "adv",
    "chatFlavor": "",
    "origin": "",
    "tags": [],
    "chatGif": ""
  },
  "ownership": {
    "default": 0
  },
  "_stats": {
    "systemId": "tormenta20",
    "systemVersion": "1.4.116",
    "coreVersion": "11.298",
    "createdTime": 1664310461769,
    "modifiedTime": 1684622830660,
    "lastModifiedBy": "ZWR5Tn3AhSIFqwp6"
  },
  "_key": "!items!8byp1gCfdXtmae6D"
}
