{
  "_id": "1vuNzDBJlqRDs5CC",
  "name": "Condição",
  "type": "magia",
  "img": "systems/tormenta20/icons/magias/condicao.webp",
  "effects": [
    {
      "_id": "FcZ4BCcllfbQcBBD",
      "flags": {
        "t20": null,
        "tormenta20": {
          "onuse": true,
          "self": true,
          "custo": "1",
          "aumenta": true
        }
      },
      "changes": [],
      "disabled": true,
      "duration": {
        "startTime": null,
        "seconds": null,
        "combat": null,
        "rounds": null,
        "turns": null,
        "startRound": null,
        "startTurn": null
      },
      "icon": "icons/svg/upgrade.svg",
      "label": "aumenta o número de alvos em +1.",
      "origin": "Compendium.tormenta20.magias.1vuNzDBJlqRDs5CC",
      "transfer": false,
      "tint": null,
      "_key": "!items.effects!1vuNzDBJlqRDs5CC.FcZ4BCcllfbQcBBD"
    },
    {
      "_id": "pVG32GDV7m40z4aG",
      "flags": {
        "t20": null,
        "tormenta20": {
          "onuse": true,
          "self": true,
          "custo": "1",
          "aumenta": true
        }
      },
      "changes": [
        {
          "key": "duracao",
          "value": "1 dia",
          "mode": 5,
          "priority": null
        }
      ],
      "disabled": true,
      "duration": {
        "startTime": null,
        "seconds": null,
        "combat": null,
        "rounds": null,
        "turns": null,
        "startRound": null,
        "startTurn": null
      },
      "icon": "icons/svg/upgrade.svg",
      "label": "aumenta a duração para 1 dia.",
      "origin": "Compendium.tormenta20.magias.1vuNzDBJlqRDs5CC",
      "transfer": false,
      "tint": null,
      "_key": "!items.effects!1vuNzDBJlqRDs5CC.pVG32GDV7m40z4aG"
    },
    {
      "_id": "3TKIdwwuoL37XHMP",
      "changes": [],
      "disabled": false,
      "duration": {
        "rounds": 1,
        "startTime": null,
        "seconds": null,
        "combat": null,
        "turns": null,
        "startRound": null,
        "startTurn": null
      },
      "icon": "systems/tormenta20/icons/magias/condicao.webp",
      "label": "Condição",
      "origin": "Item.EbJcJvkVmxjP6bfC",
      "transfer": false,
      "flags": {
        "tormenta20": {
          "onuse": false,
          "durationScene": true
        }
      },
      "tint": null,
      "_key": "!items.effects!1vuNzDBJlqRDs5CC.3TKIdwwuoL37XHMP"
    }
  ],
  "folder": "7qHtGvSoffZXEVGU",
  "sort": 0,
  "flags": {
    "core": {
      "sourceId": "Item.NIGHJ1Jf1YcoRroS"
    }
  },
  "system": {
    "description": {
      "value": "<p style=\"text-align: justify;\">Pela dura&ccedil;&atilde;o da magia, voc&ecirc; sabe a posi&ccedil;&atilde;o e status (PV atuais, se est&atilde;o sob efeito de magia...) dos alvos. Depois de lan&ccedil;ada, a dist&acirc;ncia entre voc&ecirc; e os alvos n&atilde;o importa &mdash; a magia s&oacute; deixa de detectar um alvo se ele morrer ou for para outro plano.</p>",
      "chat": "",
      "unidentified": ""
    },
    "source": "T20, pg. 185 (JdA)",
    "ativacao": {
      "execucao": "action",
      "custo": 3,
      "qtd": "",
      "condicao": "",
      "special": ""
    },
    "duracao": {
      "value": 0,
      "units": "scene",
      "special": ""
    },
    "target": {
      "value": null,
      "width": null,
      "units": "",
      "type": ""
    },
    "range": {
      "value": null,
      "units": ""
    },
    "consume": {
      "type": "",
      "target": "",
      "amount": null,
      "mpMultiplier": false
    },
    "efeito": "",
    "alcance": "short",
    "alvo": "até 5 criaturas",
    "area": "",
    "resistencia": {
      "pericia": "",
      "atributo": "sab",
      "bonus": 0,
      "txt": ""
    },
    "rolls": [],
    "tipo": "div",
    "circulo": "2",
    "preparada": false,
    "escola": "adv",
    "chatFlavor": "",
    "origin": "",
    "tags": [],
    "chatGif": ""
  },
  "ownership": {
    "default": 0
  },
  "_stats": {
    "systemId": "tormenta20",
    "systemVersion": "1.4.116",
    "coreVersion": "11.298",
    "createdTime": 1664310461757,
    "modifiedTime": 1684622830660,
    "lastModifiedBy": "ZWR5Tn3AhSIFqwp6"
  },
  "_key": "!items!1vuNzDBJlqRDs5CC"
}
