{
  "_id": "vvVVqYlYER6WpqhM",
  "name": "Criar Elementos",
  "type": "magia",
  "img": "icons/magic/symbols/elements-air-earth-fire-water.webp",
  "effects": [
    {
      "_id": "Hp8Z2nPlbYVhB8eU",
      "flags": {
        "t20": null,
        "tormenta20": {
          "onuse": true,
          "self": true,
          "custo": "1",
          "aumenta": true
        }
      },
      "changes": [],
      "disabled": true,
      "duration": {
        "startTime": null,
        "seconds": null,
        "combat": null,
        "rounds": null,
        "turns": null,
        "startRound": null,
        "startTurn": null
      },
      "icon": "icons/svg/upgrade.svg",
      "label": "aumenta a quantidade do elemento em um passo (uma categoria de tamanho para água ou terra, +1 quadrado de 1,5m para ar e fogo).",
      "origin": "Compendium.tormenta20.magias.vvVVqYlYER6WpqhM",
      "transfer": false,
      "tint": null,
      "_key": "!items.effects!vvVVqYlYER6WpqhM.Hp8Z2nPlbYVhB8eU"
    },
    {
      "_id": "wK72592kCWxLLTLL",
      "flags": {
        "t20": null,
        "tormenta20": {
          "onuse": true,
          "self": true,
          "custo": "1",
          "aumenta": false
        }
      },
      "changes": [
        {
          "key": "resistencia",
          "value": "Reflexos reduz à metade",
          "mode": 5,
          "priority": null
        },
        {
          "key": "dano",
          "value": "2d4",
          "mode": 0,
          "priority": null
        }
      ],
      "disabled": true,
      "duration": {
        "startTime": null,
        "seconds": null,
        "combat": null,
        "rounds": null,
        "turns": null,
        "startRound": null,
        "startTurn": null
      },
      "icon": "icons/svg/upgrade.svg",
      "label": "muda o efeito para alvo 1 criatura ou objeto e a resistência para Reflexos reduz à metade. Se escolher água ou terra, você arremessa o cubo ou objeto criado no alvo, causando 2d4 pontos de dano de impacto. Para cada categoria de tamanho acima de Minúsculo, o dano aumenta em um passo. O cubo se desfaz em seguida.",
      "origin": "Compendium.tormenta20.magias.vvVVqYlYER6WpqhM",
      "transfer": false,
      "tint": null,
      "_key": "!items.effects!vvVVqYlYER6WpqhM.wK72592kCWxLLTLL"
    },
    {
      "_id": "Mz8829iyEZ0ENP6T",
      "flags": {
        "t20": null,
        "tormenta20": {
          "onuse": true,
          "self": true,
          "custo": "2",
          "aumenta": true,
          "attack": false,
          "skill": false,
          "ability": false,
          "power": false,
          "spell": false,
          "consumable": false,
          "items": "",
          "durationScene": false
        }
      },
      "changes": [
        {
          "key": "dano",
          "mode": 2,
          "value": "1d6",
          "priority": 0
        }
      ],
      "disabled": true,
      "duration": {
        "startTime": null,
        "seconds": null,
        "combat": null,
        "rounds": null,
        "turns": null,
        "startRound": null,
        "startTurn": null
      },
      "icon": "icons/svg/upgrade.svg",
      "label": "se escolheu fogo, aumenta o dano inicial de cada chama em +1d6.",
      "origin": "Compendium.tormenta20.magias.vvVVqYlYER6WpqhM",
      "transfer": false,
      "tint": null,
      "_key": "!items.effects!vvVVqYlYER6WpqhM.Mz8829iyEZ0ENP6T"
    }
  ],
  "folder": "UeqtCFS3KD27OAUk",
  "sort": 0,
  "flags": {
    "core": {
      "sourceId": "Item.G85JKn5ALpAJbMIr"
    }
  },
  "system": {
    "description": {
      "value": "<p style=\"text-align:justify;\">Você cria uma pequena porção de um elemento, a sua escolha. Os elementos criados são reais, não mágicos. Elementos físicos devem surgir em uma superfície. Em vez de um cubo, pode-se criar objetos simples (sem partes móveis) feitos de gelo, terra ou pedra.</p><p style=\"text-align:justify;\"><i>Água:</i> enche um recipiente de tamanho Minúsculo (como um odre) com água potável ou cria um cubo de gelo de tamanho Minúsculo.</p><p style=\"text-align:justify;\"><i>Ar:</i> cria um vento fraco em um quadrado de 1,5m. Isso purifica a área de qualquer gás ou fumaça, ou remove névoa por uma rodada.</p><p style=\"text-align:justify;\"><i>Fogo:</i> cria uma chama que ilumina como uma tocha. Você pode segurá-la na palma de sua mão sem se queimar, ou fazê-la surgir em um quadrado de 1,5m. Se uma criatura ou objeto estiver no quadrado, sofre 1d6 pontos de dano de fogo; se falhar num teste de Reflexos, pega fogo.</p><p style=\"text-align:justify;\"><i>Terra:</i> cria um cubo de tamanho Minúsculo feito de terra, argila ou pedra.</p>",
      "chat": "",
      "unidentified": ""
    },
    "source": "T20, pg. 188 (JdA)",
    "ativacao": {
      "execucao": "action",
      "custo": 1,
      "qtd": "",
      "condicao": "",
      "special": ""
    },
    "duracao": {
      "value": 0,
      "units": "inst",
      "special": ""
    },
    "target": {
      "value": null,
      "width": null,
      "units": "",
      "type": ""
    },
    "range": {
      "value": null,
      "units": ""
    },
    "consume": {
      "type": "",
      "target": "",
      "amount": null,
      "mpMultiplier": false
    },
    "efeito": "elemento escolhido",
    "alcance": "short",
    "alvo": "",
    "area": "",
    "resistencia": {
      "pericia": "",
      "atributo": "sab",
      "bonus": 0,
      "txt": ""
    },
    "rolls": [
      {
        "name": "Dano (Objeto de água ou terra)",
        "key": "dano0",
        "type": "dano",
        "parts": [
          [
            "2d4",
            "impacto",
            ""
          ]
        ],
        "versatil": ""
      },
      {
        "name": "Dano de Fogo",
        "key": "dano1",
        "type": "dano",
        "parts": [
          [
            "1d6",
            "fogo",
            ""
          ]
        ],
        "versatil": ""
      }
    ],
    "tipo": "div",
    "circulo": "1",
    "preparada": false,
    "escola": "con",
    "chatFlavor": "",
    "origin": "",
    "tags": [],
    "chatGif": ""
  },
  "ownership": {
    "default": 0
  },
  "_stats": {
    "systemId": "tormenta20",
    "systemVersion": "1.4.116",
    "coreVersion": "11.298",
    "createdTime": 1664310462899,
    "modifiedTime": 1684622830660,
    "lastModifiedBy": "ZWR5Tn3AhSIFqwp6"
  },
  "_key": "!items!vvVVqYlYER6WpqhM"
}
