{
  "folder": "WLMWYYg9fshNSVpV",
  "name": "D2 Necromancia",
  "sorting": "a",
  "type": "Item",
  "_id": "tsMBuCg4bWXLn3mQ",
  "sort": 0,
  "flags": {},
  "_stats": {
    "systemId": null,
    "systemVersion": null,
    "coreVersion": null,
    "createdTime": null,
    "modifiedTime": null,
    "lastModifiedBy": null
  },
  "_key": "!folders!tsMBuCg4bWXLn3mQ"
}
