{
  "folder": "Sk78lxXQg5wEGxfk",
  "name": "D3 Convocação",
  "sorting": "a",
  "type": "Item",
  "_id": "xjCV01U6zrF3US54",
  "sort": 0,
  "flags": {},
  "_stats": {
    "systemId": null,
    "systemVersion": null,
    "coreVersion": null,
    "createdTime": null,
    "modifiedTime": null,
    "lastModifiedBy": null
  },
  "_key": "!folders!xjCV01U6zrF3US54"
}
