{
  "folder": "dsLi9u9ytNSYWd13",
  "name": "D4 Evocação",
  "sorting": "a",
  "type": "Item",
  "_id": "fjzcx2rvOZ83jHv7",
  "sort": 0,
  "flags": {},
  "_stats": {
    "systemId": null,
    "systemVersion": null,
    "coreVersion": null,
    "createdTime": null,
    "modifiedTime": null,
    "lastModifiedBy": null
  },
  "_key": "!folders!fjzcx2rvOZ83jHv7"
}
