{
  "folder": "DglwPTuzGEEGkirf",
  "name": "D5 Adivinhação",
  "sorting": "a",
  "type": "Item",
  "_id": "TL40iday9BQSe955",
  "sort": 0,
  "flags": {},
  "_stats": {
    "systemId": null,
    "systemVersion": null,
    "coreVersion": null,
    "createdTime": null,
    "modifiedTime": null,
    "lastModifiedBy": null
  },
  "_key": "!folders!TL40iday9BQSe955"
}
