{
  "folder": "DglwPTuzGEEGkirf",
  "name": "D5 Abjuração",
  "sorting": "a",
  "type": "Item",
  "_id": "mCDYVjEU9bEesaBu",
  "sort": 0,
  "flags": {},
  "_stats": {
    "systemId": null,
    "systemVersion": null,
    "coreVersion": null,
    "createdTime": null,
    "modifiedTime": null,
    "lastModifiedBy": null
  },
  "_key": "!folders!mCDYVjEU9bEesaBu"
}
