{
  "_id": "ARdiXHO8x1k8X3ni",
  "name": "Proteção Contra Magia",
  "type": "magia",
  "img": "systems/tormenta20/icons/magias/protecao-contra-magia.webp",
  "effects": [
    {
      "_id": "9HRdmhCPTx0swFq8",
      "flags": {
        "t20": null,
        "tormenta20": {
          "onuse": true,
          "self": true,
          "custo": "4",
          "aumenta": false,
          "attack": false,
          "skill": false,
          "ability": false,
          "power": false,
          "spell": false,
          "consumable": false,
          "durationScene": false
        }
      },
      "changes": [
        {
          "key": "system.pericias.fort.bonus",
          "mode": 2,
          "value": "5",
          "priority": null
        },
        {
          "key": "system.pericias.refl.bonus",
          "mode": 2,
          "value": "5",
          "priority": null
        },
        {
          "key": "system.pericias.vont.bonus",
          "mode": 2,
          "value": "5",
          "priority": null
        }
      ],
      "disabled": true,
      "duration": {
        "startTime": null,
        "seconds": null,
        "combat": null,
        "rounds": null,
        "turns": null,
        "startRound": null,
        "startTurn": null
      },
      "icon": "icons/svg/upgrade.svg",
      "label": "muda o bônus para +10. Requer 4º círculo.",
      "origin": "Compendium.tormenta20.magias.ARdiXHO8x1k8X3ni",
      "transfer": false,
      "tint": null,
      "_key": "!items.effects!ARdiXHO8x1k8X3ni.9HRdmhCPTx0swFq8"
    },
    {
      "_id": "HA2kii1tPWH2CqPo",
      "flags": {
        "t20": null,
        "tormenta20": {
          "onuse": true,
          "self": true,
          "custo": "4",
          "aumenta": false
        }
      },
      "changes": [],
      "disabled": true,
      "duration": {
        "startTime": null,
        "seconds": null,
        "combat": null,
        "rounds": null,
        "turns": null,
        "startRound": null,
        "startTurn": null
      },
      "icon": "icons/svg/upgrade.svg",
      "label": "em vez do normal, o alvo fica imune a uma escola de magia a sua escolha. Requer 4º Círculo.",
      "origin": "Compendium.tormenta20.magias.ARdiXHO8x1k8X3ni",
      "transfer": false,
      "tint": null,
      "_key": "!items.effects!ARdiXHO8x1k8X3ni.HA2kii1tPWH2CqPo"
    },
    {
      "_id": "OPTVNmcO4EP8r61A",
      "flags": {
        "t20": null,
        "tormenta20": {
          "onuse": true,
          "self": true,
          "custo": "9",
          "aumenta": false
        }
      },
      "changes": [],
      "disabled": true,
      "duration": {
        "startTime": null,
        "seconds": null,
        "combat": null,
        "rounds": null,
        "turns": null,
        "startRound": null,
        "startTurn": null
      },
      "icon": "icons/svg/upgrade.svg",
      "label": "em vez do normal, o alvo fica imune a duas escolas de magia a sua escolha. Requer 5º Círculo.",
      "origin": "Compendium.tormenta20.magias.ARdiXHO8x1k8X3ni",
      "transfer": false,
      "tint": null,
      "_key": "!items.effects!ARdiXHO8x1k8X3ni.OPTVNmcO4EP8r61A"
    },
    {
      "_id": "gaWlhQ0dIurK4udU",
      "changes": [
        {
          "key": "system.pericias.fort.bonus",
          "mode": 2,
          "value": "5",
          "priority": null
        },
        {
          "key": "system.pericias.refl.bonus",
          "mode": 2,
          "value": "5",
          "priority": null
        },
        {
          "key": "system.pericias.vont.bonus",
          "mode": 2,
          "value": "5",
          "priority": null
        }
      ],
      "disabled": false,
      "duration": {
        "rounds": 1,
        "startTime": null,
        "seconds": null,
        "combat": null,
        "turns": null,
        "startRound": null,
        "startTurn": null
      },
      "icon": "systems/tormenta20/icons/magias/protecao-contra-magia.webp",
      "label": "Proteção Contra Magia",
      "origin": "Item.UOyFWquuli2p8YHI",
      "transfer": false,
      "flags": {
        "tormenta20": {
          "onuse": false,
          "durationScene": true
        }
      },
      "tint": null,
      "_key": "!items.effects!ARdiXHO8x1k8X3ni.gaWlhQ0dIurK4udU"
    }
  ],
  "folder": "zEoV7vrc5RqulUYQ",
  "sort": 0,
  "flags": {
    "core": {
      "sourceId": "Item.VU4VX0hGO0i5HfPR"
    }
  },
  "system": {
    "description": {
      "value": "<p style=\"text-align:justify;\">Você protege o alvo contra efeitos mágicos nocivos. O alvo recebe +5 em testes de resistência contra magias.</p>",
      "chat": "",
      "unidentified": ""
    },
    "source": "",
    "ativacao": {
      "execucao": "action",
      "custo": 6,
      "qtd": "",
      "condicao": "",
      "special": ""
    },
    "duracao": {
      "value": 0,
      "units": "scene",
      "special": ""
    },
    "target": {
      "value": null,
      "width": null,
      "units": "",
      "type": ""
    },
    "range": {
      "value": null,
      "units": ""
    },
    "consume": {
      "type": "",
      "target": "",
      "amount": null,
      "mpMultiplier": false
    },
    "efeito": "",
    "alcance": "touch",
    "alvo": "1 criatura",
    "area": "",
    "resistencia": {
      "pericia": "",
      "atributo": "sab",
      "bonus": 0,
      "txt": ""
    },
    "rolls": [],
    "tipo": "div",
    "circulo": "3",
    "preparada": false,
    "escola": "abj",
    "chatFlavor": "",
    "origin": "",
    "tags": [],
    "chatGif": ""
  },
  "ownership": {
    "default": 0
  },
  "_stats": {
    "systemId": "tormenta20",
    "systemVersion": "1.4.116",
    "coreVersion": "11.298",
    "createdTime": 1664310461775,
    "modifiedTime": 1684622830660,
    "lastModifiedBy": "ZWR5Tn3AhSIFqwp6"
  },
  "_key": "!items!ARdiXHO8x1k8X3ni"
}
