{
  "_id": "m9jubp5PK3j2nCFC",
  "name": "Purificação",
  "type": "magia",
  "img": "systems/tormenta20/icons/magias/purificacao.webp",
  "effects": [
    {
      "_id": "ATklm5lmUhDHjZyL",
      "flags": {
        "t20": null,
        "tormenta20": {
          "onuse": true,
          "self": true,
          "custo": "2",
          "aumenta": false,
          "attack": false,
          "skill": false,
          "ability": false,
          "power": false,
          "spell": false,
          "consumable": false,
          "items": "",
          "durationScene": false
        }
      },
      "changes": [],
      "disabled": true,
      "duration": {
        "startTime": null,
        "seconds": null,
        "combat": null,
        "rounds": null,
        "turns": null,
        "startRound": null,
        "startTurn": null
      },
      "icon": "icons/svg/upgrade.svg",
      "label": "também cura todos os PV perdidos por veneno.",
      "origin": "Compendium.tormenta20.magias.m9jubp5PK3j2nCFC",
      "transfer": false,
      "tint": null,
      "_key": "!items.effects!m9jubp5PK3j2nCFC.ATklm5lmUhDHjZyL"
    },
    {
      "_id": "a5IZ3BLkdKVTVjXH",
      "flags": {
        "t20": null,
        "tormenta20": {
          "onuse": true,
          "self": true,
          "custo": "2",
          "aumenta": false
        }
      },
      "changes": [],
      "disabled": true,
      "duration": {
        "startTime": null,
        "seconds": null,
        "combat": null,
        "rounds": null,
        "turns": null,
        "startRound": null,
        "startTurn": null
      },
      "icon": "icons/svg/upgrade.svg",
      "label": "em vez de uma, remove todas as condições listadas.",
      "origin": "Compendium.tormenta20.magias.m9jubp5PK3j2nCFC",
      "transfer": false,
      "tint": null,
      "_key": "!items.effects!m9jubp5PK3j2nCFC.a5IZ3BLkdKVTVjXH"
    },
    {
      "_id": "eQlPzFnZjH7uIOeY",
      "flags": {
        "t20": null,
        "tormenta20": {
          "onuse": true,
          "self": true,
          "custo": "3",
          "aumenta": false
        }
      },
      "changes": [],
      "disabled": true,
      "duration": {
        "startTime": null,
        "seconds": null,
        "combat": null,
        "rounds": null,
        "turns": null,
        "startRound": null,
        "startTurn": null
      },
      "icon": "icons/svg/upgrade.svg",
      "label": "também permite que o alvo solte qualquer item amaldiçoado que esteja segurando (mas não remove a maldição do item em si).",
      "origin": "Compendium.tormenta20.magias.m9jubp5PK3j2nCFC",
      "transfer": false,
      "tint": null,
      "_key": "!items.effects!m9jubp5PK3j2nCFC.eQlPzFnZjH7uIOeY"
    },
    {
      "_id": "dnwZJ5JwixjC5mwT",
      "flags": {
        "t20": null,
        "tormenta20": {
          "onuse": true,
          "self": true,
          "custo": "7",
          "aumenta": false
        }
      },
      "changes": [],
      "disabled": true,
      "duration": {
        "startTime": null,
        "seconds": null,
        "combat": null,
        "rounds": null,
        "turns": null,
        "startRound": null,
        "startTurn": null
      },
      "icon": "icons/svg/upgrade.svg",
      "label": "também dissipa magias e efeitos prejudiciais de encantamento, necromancia e transmutação afetando o alvo. Requer 3º círculo.",
      "origin": "Compendium.tormenta20.magias.m9jubp5PK3j2nCFC",
      "transfer": false,
      "tint": null,
      "_key": "!items.effects!m9jubp5PK3j2nCFC.dnwZJ5JwixjC5mwT"
    }
  ],
  "folder": "nUZzjRZCyl2p92SC",
  "sort": 0,
  "flags": {
    "core": {
      "sourceId": "Item.GJhchbcAKEWXWHVi"
    },
    "cf": null
  },
  "system": {
    "description": {
      "value": "<p style=\"text-align: justify;\">Voc&ecirc; purifica a criatura tocada, removendo uma condi&ccedil;&atilde;o dela entre abalado, <a class=\"content-link\" draggable=\"true\" data-uuid=\"JournalEntry.s15J5SOYixL3Ajzr.JournalEntryPage.5n105JaAFlwIfkyX\" data-id=\"5n105JaAFlwIfkyX\" data-type=\"JournalEntryPage\" data-tooltip=\"Text Page\">Apavorado</a>, <a class=\"content-link\" draggable=\"true\" data-uuid=\"JournalEntry.s15J5SOYixL3Ajzr.JournalEntryPage.uub1TaaEaq0Vuncl\" data-id=\"uub1TaaEaq0Vuncl\" data-type=\"JournalEntryPage\" data-tooltip=\"Text Page\">Alquebrado</a>, <a class=\"content-link\" draggable=\"true\" data-uuid=\"JournalEntry.s15J5SOYixL3Ajzr.JournalEntryPage.bD6XAyHQrWYr0BTQ\" data-id=\"bD6XAyHQrWYr0BTQ\" data-type=\"JournalEntryPage\" data-tooltip=\"Text Page\">Atordoado</a>, <a class=\"content-link\" draggable=\"true\" data-uuid=\"JournalEntry.s15J5SOYixL3Ajzr.JournalEntryPage.qN5JjvnXDq4Xak1K\" data-id=\"qN5JjvnXDq4Xak1K\" data-type=\"JournalEntryPage\" data-tooltip=\"Text Page\">Cego</a>, <a class=\"content-link\" draggable=\"true\" data-uuid=\"JournalEntry.s15J5SOYixL3Ajzr.JournalEntryPage.ynLMPpmMnZwV6rxf\" data-id=\"ynLMPpmMnZwV6rxf\" data-type=\"JournalEntryPage\" data-tooltip=\"Text Page\">Confuso</a>, @UUID[JournalEntry.s15J5SOYixL3Ajzr.JournalEntryPage.AlTDv5dptSLGiZel]{Debilitado}, @UUID[JournalEntry.s15J5SOYixL3Ajzr.JournalEntryPage.BUMyxT4YI9mdC8Aj]{Enjoado}, @UUID[JournalEntry.s15J5SOYixL3Ajzr.JournalEntryPage.z3nQhg8FEmhh0a7m]{Envenenado}, @UUID[JournalEntry.s15J5SOYixL3Ajzr.JournalEntryPage.YpyVEwCbNVAfFLBm]{Esmorecido}, @UUID[JournalEntry.s15J5SOYixL3Ajzr.JournalEntryPage.6yXEaW3dSXtfsJ4i]{Exausto}, @UUID[JournalEntry.s15J5SOYixL3Ajzr.JournalEntryPage.R5FPPrfq68i9ddyv]{Fascinado}, @UUID[JournalEntry.s15J5SOYixL3Ajzr.JournalEntryPage.MCED18aEe4UFeEVf]{Fatigado},@UUID[JournalEntry.s15J5SOYixL3Ajzr.JournalEntryPage.Q6GUW7cDfTW5AXRz]{Fraco}, @UUID[JournalEntry.s15J5SOYixL3Ajzr.JournalEntryPage.XvqIlV5v4YBeFUBs]{Frustrado}, @UUID[JournalEntry.s15J5SOYixL3Ajzr.JournalEntryPage.e8JmqkgvL3H26vbi]{Lento}, @UUID[JournalEntry.s15J5SOYixL3Ajzr.JournalEntryPage.lm0ybs4xkYuERx1r]{Ofuscado}, @UUID[JournalEntry.s15J5SOYixL3Ajzr.JournalEntryPage.3dcJKe2SGu8mnafU]{Paralisado}, @UUID[JournalEntry.s15J5SOYixL3Ajzr.JournalEntryPage.CMPtwuGkHgeKu8CC]{Pasmo} ou @UUID[JournalEntry.s15J5SOYixL3Ajzr.JournalEntryPage.eaJwtq58TBZw0Oyo]{Surdo}.</p>",
      "chat": "",
      "unidentified": ""
    },
    "source": "T20, pg. 202 (JdA)",
    "ativacao": {
      "execucao": "action",
      "custo": 3,
      "qtd": "",
      "condicao": "",
      "special": ""
    },
    "duracao": {
      "value": 0,
      "units": "inst",
      "special": ""
    },
    "target": {
      "value": null,
      "width": null,
      "units": "",
      "type": ""
    },
    "range": {
      "value": null,
      "units": ""
    },
    "consume": {
      "type": "",
      "target": "",
      "amount": null,
      "mpMultiplier": false
    },
    "efeito": "",
    "alcance": "touch",
    "alvo": "1 criatura",
    "area": "",
    "resistencia": {
      "pericia": "",
      "atributo": "sab",
      "bonus": 0,
      "txt": ""
    },
    "rolls": [],
    "tipo": "div",
    "circulo": "2",
    "preparada": false,
    "escola": "evo",
    "chatFlavor": "",
    "origin": "",
    "tags": [],
    "chatGif": ""
  },
  "ownership": {
    "default": 0
  },
  "_stats": {
    "systemId": "tormenta20",
    "systemVersion": "1.4.116",
    "coreVersion": "11.298",
    "createdTime": 1664310462806,
    "modifiedTime": 1684622830660,
    "lastModifiedBy": "ZWR5Tn3AhSIFqwp6"
  },
  "_key": "!items!m9jubp5PK3j2nCFC"
}
