{
  "_id": "LqKnynFepm4ICynP",
  "name": "Soco do Mestre",
  "type": "magia",
  "img": "systems/tormenta20/icons/magias/soco-do-mestre.webp",
  "effects": [
    {
      "_id": "3tmdiExOO5OE02li",
      "flags": {
        "t20": null,
        "tormenta20": {
          "onuse": true,
          "self": true,
          "custo": "1",
          "aumenta": false
        }
      },
      "changes": [
        {
          "key": "alcance",
          "value": "pessoal",
          "mode": 5,
          "priority": null
        },
        {
          "key": "alvo",
          "value": "você",
          "mode": 5,
          "priority": null
        },
        {
          "key": "duracao",
          "value": "Cena",
          "mode": 5,
          "priority": null
        },
        {
          "key": "resistencia",
          "value": "nenhuma",
          "mode": 5,
          "priority": null
        }
      ],
      "disabled": true,
      "duration": {
        "startTime": null,
        "seconds": null,
        "combat": null,
        "rounds": null,
        "turns": null,
        "startRound": null,
        "startTurn": null
      },
      "icon": "icons/svg/upgrade.svg",
      "label": "muda o alcance para pessoal, o alvo para você, a duração para cena e a resistência para nenhuma. Em vez do normal, seus ataques corpo a corpo passam a acertar inimigos distantes. Seu alcance natural aumenta em 3m; uma criatura Média pode atacar adversários a até 4,5m, por exemplo.",
      "origin": "Compendium.tormenta20.magias.LqKnynFepm4ICynP",
      "transfer": false,
      "tint": null,
      "_key": "!items.effects!LqKnynFepm4ICynP.3tmdiExOO5OE02li"
    },
    {
      "_id": "v89Br8AqC4I9Opo6",
      "flags": {
        "t20": null,
        "tormenta20": {
          "onuse": true,
          "self": true,
          "custo": "2",
          "aumenta": true
        }
      },
      "changes": [
        {
          "key": "dano",
          "value": "1d6",
          "mode": 0,
          "priority": null
        }
      ],
      "disabled": true,
      "duration": {
        "startTime": null,
        "seconds": null,
        "combat": null,
        "rounds": null,
        "turns": null,
        "startRound": null,
        "startTurn": null
      },
      "icon": "icons/svg/upgrade.svg",
      "label": "aumenta o dano em +1d6.",
      "origin": "Compendium.tormenta20.magias.LqKnynFepm4ICynP",
      "transfer": false,
      "tint": null,
      "_key": "!items.effects!LqKnynFepm4ICynP.v89Br8AqC4I9Opo6"
    },
    {
      "_id": "g8SzVMTC1uT8yywO",
      "flags": {
        "t20": null,
        "tormenta20": {
          "onuse": true,
          "self": true,
          "custo": "4",
          "aumenta": true,
          "attack": false,
          "skill": false,
          "ability": false,
          "power": false,
          "spell": false,
          "consumable": false,
          "items": "",
          "durationScene": false
        }
      },
      "changes": [],
      "disabled": true,
      "duration": {
        "startTime": null,
        "seconds": null,
        "combat": null,
        "rounds": null,
        "turns": null,
        "startRound": null,
        "startTurn": null
      },
      "icon": "icons/svg/upgrade.svg",
      "label": "aumenta o empurrão em +3m.",
      "origin": "Compendium.tormenta20.magias.LqKnynFepm4ICynP",
      "transfer": false,
      "tint": null,
      "_key": "!items.effects!LqKnynFepm4ICynP.g8SzVMTC1uT8yywO"
    },
    {
      "_id": "3slurquJ6XTcZEeJ",
      "flags": {
        "t20": null,
        "tormenta20": {
          "onuse": true,
          "self": true,
          "custo": "5",
          "aumenta": false
        }
      },
      "changes": [],
      "disabled": true,
      "duration": {
        "startTime": null,
        "seconds": null,
        "combat": null,
        "rounds": null,
        "turns": null,
        "startRound": null,
        "startTurn": null
      },
      "icon": "icons/svg/upgrade.svg",
      "label": "muda o tipo do dano para essência.",
      "origin": "Compendium.tormenta20.magias.LqKnynFepm4ICynP",
      "transfer": false,
      "tint": null,
      "_key": "!items.effects!LqKnynFepm4ICynP.3slurquJ6XTcZEeJ"
    },
    {
      "_id": "RxpgTIWPpBfhgJyB",
      "changes": [],
      "disabled": false,
      "duration": {
        "rounds": 1,
        "startTime": null,
        "seconds": null,
        "combat": null,
        "turns": null,
        "startRound": null,
        "startTurn": null
      },
      "icon": "systems/tormenta20/icons/magias/soco-do-mestre.webp",
      "label": "Aprimoramento de Alcance",
      "origin": "Item.3prAVM8QeRRSABlj",
      "transfer": false,
      "flags": {
        "tormenta20": {
          "onuse": false,
          "durationScene": true
        }
      },
      "tint": null,
      "_key": "!items.effects!LqKnynFepm4ICynP.RxpgTIWPpBfhgJyB"
    }
  ],
  "folder": "Indi4GXQ8YvRMITr",
  "sort": 0,
  "flags": {
    "core": {
      "sourceId": "Item.rjg708VUdECdYoZK"
    },
    "cf": null
  },
  "system": {
    "description": {
      "value": "<p style=\"text-align: justify;\">Ningu&eacute;m sabe se Mestre foi realmente o criador desta magia &mdash; mas ele foi o primeiro a utiliz&aacute;-la. Voc&ecirc; fecha o punho e gesticula como se estivesse golpeando o alvo, causando dano de impacto igual a 4d6 + sua For&ccedil;a. A v&iacute;tima &eacute; empurrada 3m na dire&ccedil;&atilde;o oposta &agrave; sua. Passar no teste de resist&ecirc;ncia reduz o dano &agrave; metade e evita o empurr&atilde;o.</p>",
      "chat": "",
      "unidentified": ""
    },
    "source": "T20, pg. 206 (JdA)",
    "ativacao": {
      "execucao": "action",
      "custo": 3,
      "qtd": "",
      "condicao": "",
      "special": ""
    },
    "duracao": {
      "value": 0,
      "units": "inst",
      "special": ""
    },
    "target": {
      "value": null,
      "width": null,
      "units": "",
      "type": ""
    },
    "range": {
      "value": null,
      "units": ""
    },
    "consume": {
      "type": "",
      "target": "",
      "amount": null,
      "mpMultiplier": false
    },
    "efeito": "",
    "alcance": "medium",
    "alvo": "1 criatura",
    "area": "",
    "resistencia": {
      "pericia": "",
      "atributo": "sab",
      "bonus": 0,
      "txt": "Fortitude parcial"
    },
    "rolls": [
      {
        "name": "Dano",
        "key": "dano0",
        "type": "dano",
        "parts": [
          [
            "4d6+@for",
            "impacto",
            ""
          ]
        ],
        "versatil": ""
      }
    ],
    "tipo": "div",
    "circulo": "2",
    "preparada": false,
    "escola": "con",
    "chatFlavor": "",
    "origin": "",
    "tags": [],
    "chatGif": ""
  },
  "ownership": {
    "default": 0
  },
  "_stats": {
    "systemId": "tormenta20",
    "systemVersion": "1.4.116",
    "coreVersion": "11.298",
    "createdTime": 1664310461899,
    "modifiedTime": 1684622830660,
    "lastModifiedBy": "ZWR5Tn3AhSIFqwp6"
  },
  "_key": "!items!LqKnynFepm4ICynP"
}
