{
  "_id": "vTVcrCjSdnOmcIyi",
  "name": "Sono",
  "type": "magia",
  "img": "systems/tormenta20/icons/magias/sono.webp",
  "effects": [
    {
      "_id": "2RSritpp09rILvcN",
      "flags": {
        "t20": null,
        "tormenta20": {
          "onuse": true,
          "self": true,
          "custo": "2",
          "aumenta": false,
          "attack": false,
          "skill": false,
          "ability": false,
          "power": false,
          "spell": false,
          "consumable": false,
          "items": "",
          "durationScene": false
        }
      },
      "changes": [
        {
          "key": "alvo",
          "mode": 5,
          "value": "área de quadrado com 3m de lado",
          "priority": 0
        }
      ],
      "disabled": true,
      "duration": {
        "startTime": null,
        "seconds": null,
        "combat": null,
        "rounds": null,
        "turns": null,
        "startRound": null,
        "startTurn": null
      },
      "icon": "icons/svg/upgrade.svg",
      "label": "alvos que falhem na resistência ficam exaustos por 1d4+1 rodadas, em vez de apenas 1.",
      "origin": "Compendium.tormenta20.magias.vTVcrCjSdnOmcIyi",
      "transfer": false,
      "tint": null,
      "_key": "!items.effects!vTVcrCjSdnOmcIyi.2RSritpp09rILvcN"
    },
    {
      "_id": "NiU1L1ieGobYHI7J",
      "flags": {
        "t20": null,
        "tormenta20": {
          "onuse": true,
          "self": true,
          "custo": "2",
          "aumenta": false,
          "attack": false,
          "skill": false,
          "ability": false,
          "power": false,
          "spell": false,
          "consumable": false,
          "items": "",
          "durationScene": false
        }
      },
      "changes": [],
      "disabled": true,
      "duration": {
        "startTime": null,
        "seconds": null,
        "combat": null,
        "rounds": null,
        "turns": null,
        "startRound": null,
        "startTurn": null
      },
      "icon": "icons/svg/upgrade.svg",
      "label": "muda o alvo para criatura.",
      "origin": "Compendium.tormenta20.magias.vTVcrCjSdnOmcIyi",
      "transfer": false,
      "tint": null,
      "_key": "!items.effects!vTVcrCjSdnOmcIyi.NiU1L1ieGobYHI7J"
    },
    {
      "_id": "EPHBBEqIiZxPG0lj",
      "flags": {
        "t20": null,
        "tormenta20": {
          "onuse": true,
          "self": true,
          "custo": "5",
          "aumenta": false,
          "attack": false,
          "skill": false,
          "ability": false,
          "power": false,
          "spell": false,
          "consumable": false,
          "items": "",
          "durationScene": false
        }
      },
      "changes": [
        {
          "key": "alvo",
          "mode": 5,
          "value": "criaturas escolhidas",
          "priority": 0
        }
      ],
      "disabled": true,
      "duration": {
        "startTime": null,
        "seconds": null,
        "combat": null,
        "rounds": null,
        "turns": null,
        "startRound": null,
        "startTurn": null
      },
      "icon": "icons/svg/upgrade.svg",
      "label": "afeta todos os alvos válidos a sua escolha dentro do alcance.",
      "origin": "Compendium.tormenta20.magias.vTVcrCjSdnOmcIyi",
      "transfer": false,
      "tint": null,
      "_key": "!items.effects!vTVcrCjSdnOmcIyi.EPHBBEqIiZxPG0lj"
    },
    {
      "_id": "FgYS2NNPgDpPqjpi",
      "changes": [],
      "disabled": false,
      "duration": {
        "rounds": 1,
        "startTime": null,
        "seconds": null,
        "combat": null,
        "turns": null,
        "startRound": null,
        "startTurn": null
      },
      "icon": "systems/tormenta20/icons/magias/sono.webp",
      "label": "Sono",
      "origin": "Item.pBwmRLeF2gyonfGU",
      "transfer": false,
      "flags": {
        "tormenta20": {
          "onuse": false,
          "durationScene": true
        }
      },
      "tint": null,
      "_key": "!items.effects!vTVcrCjSdnOmcIyi.FgYS2NNPgDpPqjpi"
    }
  ],
  "folder": "wqRfH0bDNPgI8ZTq",
  "sort": 0,
  "flags": {
    "core": {
      "sourceId": "Item.LZXii8FfFUq1f471"
    }
  },
  "system": {
    "description": {
      "value": "<p style=\"text-align: justify;\">Um cansa&ccedil;o m&iacute;stico recai sobre o alvo. Se falhar na resist&ecirc;ncia, ele fica inconsciente e ca&iacute;do ou, se estiver envolvido em combate ou outra situa&ccedil;&atilde;o perigosa, fica @UUID[JournalEntry.s15J5SOYixL3Ajzr.JournalEntryPage.6yXEaW3dSXtfsJ4i]{Exausto} por 1 rodada, depois fatigado. Em ambos os casos, se passar, o alvo fica @UUID[JournalEntry.s15J5SOYixL3Ajzr.JournalEntryPage.MCED18aEe4UFeEVf]{Fatigado} por 1d4 rodadas.</p>",
      "chat": "",
      "unidentified": ""
    },
    "source": "T20, pg. 207 (JdA)",
    "ativacao": {
      "execucao": "action",
      "custo": 1,
      "qtd": "",
      "condicao": "",
      "special": ""
    },
    "duracao": {
      "value": 0,
      "units": "scene",
      "special": ""
    },
    "target": {
      "value": null,
      "width": null,
      "units": "",
      "type": ""
    },
    "range": {
      "value": null,
      "units": ""
    },
    "consume": {
      "type": "",
      "target": "",
      "amount": null,
      "mpMultiplier": false
    },
    "efeito": "",
    "alcance": "short",
    "alvo": "1 humanoide",
    "area": "",
    "resistencia": {
      "pericia": "",
      "atributo": "int",
      "bonus": 0,
      "txt": "Vontade parcial"
    },
    "rolls": [],
    "tipo": "arc",
    "circulo": "1",
    "preparada": false,
    "escola": "enc",
    "chatFlavor": "",
    "origin": "",
    "tags": [],
    "chatGif": ""
  },
  "ownership": {
    "default": 0
  },
  "_stats": {
    "systemId": "tormenta20",
    "systemVersion": "1.4.116",
    "coreVersion": "11.298",
    "createdTime": 1664310462897,
    "modifiedTime": 1684622830660,
    "lastModifiedBy": "ZWR5Tn3AhSIFqwp6"
  },
  "_key": "!items!vTVcrCjSdnOmcIyi"
}
