{
  "_id": "T1fJO9LOyBxtBBDN",
  "name": "Transmutar Objetos",
  "type": "magia",
  "img": "systems/tormenta20/icons/magias/transmutar-objetos.webp",
  "effects": [
    {
      "_id": "rELA1ZjG7sVZikL8",
      "flags": {
        "t20": null,
        "tormenta20": {
          "onuse": true,
          "self": true,
          "custo": "",
          "aumenta": false,
          "attack": false,
          "skill": false,
          "ability": false,
          "power": false,
          "equipment": false,
          "spell": false,
          "consumable": false,
          "items": "",
          "durationScene": false
        }
      },
      "changes": [
        {
          "key": "alvo",
          "mode": 5,
          "value": "1 objeto mundano",
          "priority": 0
        },
        {
          "key": "duracao",
          "mode": 5,
          "value": "Instantânea",
          "priority": 0
        }
      ],
      "disabled": true,
      "duration": {
        "startTime": null,
        "seconds": null,
        "combat": null,
        "rounds": null,
        "turns": null,
        "startRound": null,
        "startTurn": null
      },
      "icon": "icons/svg/upgrade.svg",
      "label": "muda o alvo para 1 objeto mundano e a duração para instantânea. Em vez do normal, você pode alterar as propriedades físicas do objeto, como colorir, limpar ou sujar itens pequenos (incluindo peças de roupa), aquecer, esfriar e/ou temperar (mas não produzir) até 0,5kg de material inanimado (incluindo comida), ou curar 1 PV do objeto, consertando pequenas falhas como colar um frasco de cerâmica quebrado, unir os elos de uma corrente ou costurar uma roupa rasgada. Um objeto só pode ser afetado por este truque uma vez por dia.",
      "origin": "Compendium.tormenta20.magias.T1fJO9LOyBxtBBDN",
      "transfer": false,
      "tint": null,
      "_key": "!items.effects!T1fJO9LOyBxtBBDN.rELA1ZjG7sVZikL8"
    },
    {
      "_id": "VL5A1KhUWApIJ2uv",
      "flags": {
        "t20": null,
        "tormenta20": {
          "onuse": true,
          "self": true,
          "custo": "2",
          "aumenta": true
        }
      },
      "changes": [],
      "disabled": true,
      "duration": {
        "startTime": null,
        "seconds": null,
        "combat": null,
        "rounds": null,
        "turns": null,
        "startRound": null,
        "startTurn": null
      },
      "icon": "icons/svg/upgrade.svg",
      "label": "aumenta o limite de tamanho do objeto em uma categoria.",
      "origin": "Compendium.tormenta20.magias.T1fJO9LOyBxtBBDN",
      "transfer": false,
      "tint": null,
      "_key": "!items.effects!T1fJO9LOyBxtBBDN.VL5A1KhUWApIJ2uv"
    },
    {
      "_id": "OgdJNSqMmFwzc3dx",
      "flags": {
        "t20": null,
        "tormenta20": {
          "onuse": true,
          "self": true,
          "custo": "3",
          "aumenta": true,
          "attack": false,
          "skill": false,
          "ability": false,
          "power": false,
          "spell": false,
          "consumable": false,
          "durationScene": false,
          "items": ""
        }
      },
      "changes": [],
      "disabled": true,
      "duration": {
        "startTime": null,
        "seconds": null,
        "combat": null,
        "rounds": null,
        "turns": null,
        "startRound": null,
        "startTurn": null
      },
      "icon": "icons/svg/upgrade.svg",
      "label": "aumenta o preço máximo do objeto criado em um fator de x10 (+3 PM por T$ 250 de preço, +6 PM por T$ 2.500 de preço, e assim por diante).",
      "origin": "Compendium.tormenta20.magias.T1fJO9LOyBxtBBDN",
      "transfer": false,
      "tint": null,
      "_key": "!items.effects!T1fJO9LOyBxtBBDN.OgdJNSqMmFwzc3dx"
    },
    {
      "_id": "UORlQJJN1mYl1x3P",
      "flags": {
        "t20": null,
        "tormenta20": {
          "onuse": true,
          "self": true,
          "custo": "1",
          "aumenta": false,
          "attack": false,
          "skill": false,
          "ability": false,
          "power": false,
          "equipment": false,
          "spell": false,
          "consumable": false,
          "items": "",
          "durationScene": false
        }
      },
      "changes": [
        {
          "key": "alcance",
          "mode": 5,
          "value": "Toque",
          "priority": 0
        },
        {
          "key": "alvo",
          "mode": 5,
          "value": "1 construto",
          "priority": 0
        },
        {
          "key": "duracao",
          "mode": 5,
          "value": "instantânea",
          "priority": 0
        },
        {
          "key": "cura",
          "mode": 0,
          "value": "2d8",
          "priority": 0
        }
      ],
      "disabled": true,
      "duration": {
        "startTime": null,
        "seconds": null,
        "combat": null,
        "rounds": null,
        "turns": null,
        "startRound": null,
        "startTurn": null
      },
      "icon": "icons/svg/upgrade.svg",
      "label": "muda o alcance para toque, o alvo para 1 construto e a duração para instantânea. Em vez do normal, cura 2d8 PV do alvo. Você pode gastar 2 PM adicionais para aumentar a cura em +1d8.",
      "origin": "Compendium.tormenta20.magias.T1fJO9LOyBxtBBDN",
      "transfer": false,
      "tint": null,
      "_key": "!items.effects!T1fJO9LOyBxtBBDN.UORlQJJN1mYl1x3P"
    },
    {
      "_id": "lDmZk5u7LoxzWW0S",
      "flags": {
        "t20": null,
        "tormenta20": {
          "onuse": true,
          "self": true,
          "custo": "5",
          "aumenta": false,
          "attack": false,
          "skill": false,
          "ability": false,
          "power": false,
          "equipment": false,
          "spell": false,
          "consumable": false,
          "items": "",
          "durationScene": false
        }
      },
      "changes": [
        {
          "key": "alvo",
          "mode": 5,
          "value": "1 objeto mundano",
          "priority": 0
        },
        {
          "key": "duracao",
          "mode": 5,
          "value": "in",
          "priority": 0
        }
      ],
      "disabled": true,
      "duration": {
        "startTime": null,
        "seconds": null,
        "combat": null,
        "rounds": null,
        "turns": null,
        "startRound": null,
        "startTurn": null
      },
      "icon": "icons/svg/upgrade.svg",
      "label": "muda o alvo para 1 objeto mundano e a duração para instantânea. Em vez do normal, você cura todos os PV do alvo, restaurando o objeto totalmente. Este aprimoramento está sujeito aos limites de tamanho e preço do objeto conforme a magia original e não funciona se o objeto tiver sido completamente destruído (queimado até virar cinzas ou desintegrado, por exemplo). Requer 3º círculo.",
      "origin": "Compendium.tormenta20.magias.T1fJO9LOyBxtBBDN",
      "transfer": false,
      "tint": null,
      "_key": "!items.effects!T1fJO9LOyBxtBBDN.lDmZk5u7LoxzWW0S"
    },
    {
      "_id": "kOgRVcfCdYAyRlxR",
      "flags": {
        "t20": null,
        "tormenta20": {
          "onuse": true,
          "self": true,
          "custo": "9",
          "aumenta": false
        }
      },
      "changes": [],
      "disabled": true,
      "duration": {
        "startTime": null,
        "seconds": null,
        "combat": null,
        "rounds": null,
        "turns": null,
        "startRound": null,
        "startTurn": null
      },
      "icon": "icons/svg/upgrade.svg",
      "label": "como o aprimoramento anterior, mas passa a afetar itens mágicos.",
      "origin": "Compendium.tormenta20.magias.T1fJO9LOyBxtBBDN",
      "transfer": false,
      "tint": null,
      "_key": "!items.effects!T1fJO9LOyBxtBBDN.kOgRVcfCdYAyRlxR"
    },
    {
      "_id": "5yIIWf1kmySo4kXr",
      "changes": [
        {
          "key": "cura",
          "mode": 2,
          "value": "1d8",
          "priority": 0
        }
      ],
      "disabled": true,
      "duration": {
        "startTime": null,
        "seconds": null,
        "combat": null,
        "rounds": null,
        "turns": null,
        "startRound": null,
        "startTurn": null
      },
      "icon": "icons/svg/upgrade.svg",
      "label": "aumentar a cura em +1d8.",
      "origin": "Item.Tu2hvEaQT79eycTa",
      "transfer": false,
      "flags": {
        "tormenta20": {
          "onuse": true,
          "self": true,
          "attack": false,
          "skill": false,
          "ability": false,
          "power": false,
          "spell": false,
          "consumable": false,
          "aumenta": true,
          "custo": "2",
          "durationScene": false,
          "equipment": false,
          "items": ""
        }
      },
      "tint": null,
      "_key": "!items.effects!T1fJO9LOyBxtBBDN.5yIIWf1kmySo4kXr"
    }
  ],
  "folder": "3URElpYIsNxkQOHs",
  "sort": 0,
  "flags": {
    "core": {
      "sourceId": "Item.Xxe4nFE3eEiypMUf"
    }
  },
  "system": {
    "description": {
      "value": "<p style=\"text-align: justify;\">A magia transforma mat&eacute;ria bruta para moldar um novo objeto. Voc&ecirc; pode usar mat&eacute;ria-prima mundana para criar um objeto de tamanho Pequeno ou menor e pre&ccedil;o m&aacute;ximo de T$ 25, como um balde ou uma espada. O objeto reverte &agrave; mat&eacute;ria-prima no final da cena, ou se for tocado por um objeto feito de chumbo. Esta magia n&atilde;o pode ser usada para criar objetos consum&iacute;veis, como alimentos ou itens alqu&iacute;micos, nem objetos com mecanismos complexos, como bestas ou armas de fogo.</p>\n<p style=\"text-align: justify;\"><em>Transmutar Objetos </em>anula <em>Despeda&ccedil;ar</em>.</p>",
      "chat": "",
      "unidentified": ""
    },
    "source": "T20, pg. 210 (JdA)",
    "ativacao": {
      "execucao": "action",
      "custo": 1,
      "qtd": "",
      "condicao": "",
      "special": ""
    },
    "duracao": {
      "value": 0,
      "units": "scene",
      "special": ""
    },
    "target": {
      "value": null,
      "width": null,
      "units": "",
      "type": ""
    },
    "range": {
      "value": null,
      "units": ""
    },
    "consume": {
      "type": "",
      "target": "",
      "amount": null,
      "mpMultiplier": false
    },
    "efeito": "",
    "alcance": "touch",
    "alvo": "matéria-prima, como madeira, rochas, ossos",
    "area": "",
    "resistencia": {
      "pericia": "",
      "atributo": "int",
      "bonus": 0,
      "txt": ""
    },
    "rolls": [],
    "tipo": "arc",
    "circulo": "1",
    "preparada": false,
    "escola": "tra",
    "chatFlavor": "",
    "origin": "",
    "tags": [],
    "chatGif": ""
  },
  "ownership": {
    "default": 0
  },
  "_stats": {
    "systemId": "tormenta20",
    "systemVersion": "1.4.116",
    "coreVersion": "11.298",
    "createdTime": 1664310461913,
    "modifiedTime": 1684622830660,
    "lastModifiedBy": "ZWR5Tn3AhSIFqwp6"
  },
  "_key": "!items!T1fJO9LOyBxtBBDN"
}
