{
  "folder": "YtMKgj5IsnTkXwlL",
  "name": "U2 Encantamento",
  "sorting": "a",
  "type": "Item",
  "_id": "Zh2mPxacQ6Y19ggW",
  "sort": 0,
  "flags": {},
  "_stats": {
    "systemId": null,
    "systemVersion": null,
    "coreVersion": null,
    "createdTime": null,
    "modifiedTime": null,
    "lastModifiedBy": null
  },
  "_key": "!folders!Zh2mPxacQ6Y19ggW"
}
