{
  "folder": "cP4cDmrvW4PUtZVU",
  "name": "U4 Adivinhação",
  "sorting": "a",
  "type": "Item",
  "_id": "hwpmUl6kXgb0bOXp",
  "sort": 0,
  "flags": {},
  "_stats": {
    "systemId": null,
    "systemVersion": null,
    "coreVersion": null,
    "createdTime": null,
    "modifiedTime": null,
    "lastModifiedBy": null
  },
  "_key": "!folders!hwpmUl6kXgb0bOXp"
}
