{
  "folder": "cP4cDmrvW4PUtZVU",
  "name": "U4 Necromancia",
  "sorting": "a",
  "type": "Item",
  "_id": "RhrH7rIxjwrJoPrc",
  "sort": 0,
  "flags": {},
  "_stats": {
    "systemId": null,
    "systemVersion": null,
    "coreVersion": null,
    "createdTime": null,
    "modifiedTime": null,
    "lastModifiedBy": null
  },
  "_key": "!folders!RhrH7rIxjwrJoPrc"
}
