{
  "folder": "LZ2k92nnx4pnVojl",
  "name": "U5 Encantamento",
  "sorting": "a",
  "type": "Item",
  "_id": "hv6FaFj0nZooebLT",
  "sort": 0,
  "flags": {},
  "_stats": {
    "systemId": null,
    "systemVersion": null,
    "coreVersion": null,
    "createdTime": null,
    "modifiedTime": null,
    "lastModifiedBy": null
  },
  "_key": "!folders!hv6FaFj0nZooebLT"
}
