{
  "_id": "8MZOwDXGchwZ0Jkp",
  "name": "Poção de Mente Divina",
  "type": "consumivel",
  "img": "systems/tormenta20/icons/itens/itens-magicos/pocao.webp",
  "effects": [
    {
      "label": "Poção de Mente Divina (sabedoria",
      "icon": "systems/tormenta20/icons/itens/itens-magicos/pocao.webp",
      "origin": "Item.8MZOwDXGchwZ0Jkp",
      "tint": "#FFFFFF",
      "flags": {
        "tormenta20": {
          "onuse": false,
          "durationScene": true
        }
      },
      "duration": {
        "rounds": null,
        "startTime": null,
        "seconds": null,
        "combat": null,
        "turns": null,
        "startRound": null,
        "startTurn": null
      },
      "disabled": false,
      "_id": "xsciQ6tPDuvTeePS",
      "changes": [
        {
          "key": "system.atributos.sab.value",
          "mode": 2,
          "value": "2",
          "priority": null
        }
      ],
      "transfer": false,
      "_key": "!items.effects!8MZOwDXGchwZ0Jkp.xsciQ6tPDuvTeePS"
    },
    {
      "label": "Poção de Mente Divina (carisma)",
      "icon": "systems/tormenta20/icons/itens/itens-magicos/pocao.webp",
      "origin": "Item.8MZOwDXGchwZ0Jkp",
      "tint": "#FFFFFF",
      "flags": {
        "tormenta20": {
          "onuse": false,
          "durationScene": true
        }
      },
      "duration": {
        "rounds": null,
        "startTime": null,
        "seconds": null,
        "combat": null,
        "turns": null,
        "startRound": null,
        "startTurn": null
      },
      "disabled": false,
      "_id": "a2yjal72SZMuOJwG",
      "changes": [
        {
          "key": "system.atributos.car.value",
          "mode": 2,
          "value": "2",
          "priority": null
        }
      ],
      "transfer": false,
      "_key": "!items.effects!8MZOwDXGchwZ0Jkp.a2yjal72SZMuOJwG"
    },
    {
      "label": "Poção de Mente Dvinia (Inteligência)",
      "icon": "systems/tormenta20/icons/itens/itens-magicos/pocao.webp",
      "origin": "Item.8MZOwDXGchwZ0Jkp",
      "tint": "#FFFFFF",
      "flags": {
        "tormenta20": {
          "onuse": false,
          "durationScene": true,
          "self": false,
          "attack": false,
          "skill": false,
          "ability": false,
          "power": false,
          "equipment": false,
          "spell": false,
          "consumable": false,
          "items": "",
          "aumenta": false,
          "custo": ""
        }
      },
      "duration": {
        "rounds": null,
        "startTime": null,
        "seconds": null,
        "combat": null,
        "turns": null,
        "startRound": null,
        "startTurn": null
      },
      "disabled": false,
      "_id": "JD0iLQ2Fb7Mx9xxa",
      "changes": [
        {
          "key": "system.atributos.int.value",
          "mode": 2,
          "value": "2",
          "priority": null
        }
      ],
      "transfer": false,
      "_key": "!items.effects!8MZOwDXGchwZ0Jkp.JD0iLQ2Fb7Mx9xxa"
    }
  ],
  "folder": null,
  "sort": 0,
  "flags": {
    "importid": "ER5eNh1d0nfbz8l8",
    "core": {
      "sourceId": "Compendium.tormenta20.pocoes.8MZOwDXGchwZ0Jkp"
    }
  },
  "system": {
    "description": {
      "value": "<p style=\"text-align:justify;\">Voc&ecirc; traz inspira&ccedil;&atilde;o divina &agrave; mente do alvo. Escolha entre Intelig&ecirc;ncia, Sabedoria ou Carisma. O alvo recebe +4 no atributo escolhido. Esse aumento n&atilde;o oferece PV, PM ou per&iacute;cias adicionais.</p>",
      "unidentified": ""
    },
    "source": "",
    "carregado": true,
    "peso": 0.5,
    "espacos": 0.5,
    "qtd": 1,
    "preco": 270,
    "pv": {
      "value": 0,
      "min": 0,
      "max": 0
    },
    "rd": 0,
    "ativacao": {
      "execucao": "action",
      "custo": 0,
      "qtd": "",
      "condicao": "",
      "special": ""
    },
    "duracao": {
      "value": 0,
      "units": "scene",
      "special": ""
    },
    "target": {
      "value": null,
      "width": null,
      "type": ""
    },
    "range": {
      "value": null,
      "units": ""
    },
    "consume": {
      "type": "",
      "target": "",
      "amount": null,
      "mpMultiplier": false
    },
    "efeito": "",
    "alcance": "touch",
    "alvo": "",
    "area": "",
    "resistencia": {
      "pericia": "",
      "atributo": "sab",
      "bonus": 0,
      "txt": ""
    },
    "rolls": [],
    "tipo": "potion",
    "chatFlavor": "",
    "origin": "",
    "tags": [],
    "chatGif": "",
    "upgrades": {
      "melhoria1": "",
      "melhoria2": "",
      "melhoria3": "",
      "melhoria4": "",
      "material": "",
      "encanto1": "",
      "encanto2": "",
      "encanto3": ""
    },
    "melhorias": {},
    "encantos": {},
    "subtipo": ""
  },
  "ownership": {
    "default": 0
  },
  "_stats": {
    "systemId": "tormenta20",
    "systemVersion": "1.4.1008",
    "coreVersion": "10.288",
    "createdTime": 1664314007032,
    "modifiedTime": 1667351628039,
    "lastModifiedBy": "tIn9sSkrT3mDWirx"
  },
  "_key": "!items!8MZOwDXGchwZ0Jkp"
}
