{
  "_id": "ZYU4TTCb2Eod8CyD",
  "name": "Poção de Aparência Perfeita",
  "type": "consumivel",
  "img": "systems/tormenta20/icons/itens/itens-magicos/pocao.webp",
  "effects": [
    {
      "label": "Poção de Aparência Perfeita (tornar Car 5)",
      "icon": "systems/tormenta20/icons/itens/itens-magicos/pocao.webp",
      "origin": "Item.ZYU4TTCb2Eod8CyD",
      "tint": "#FFFFFF",
      "flags": {
        "tormenta20": {
          "onuse": false,
          "durationScene": true
        }
      },
      "duration": {
        "rounds": null,
        "startTime": null,
        "seconds": null,
        "combat": null,
        "turns": null,
        "startRound": null,
        "startTurn": null
      },
      "disabled": false,
      "_id": "i1XMinNG7H2yzi6R",
      "changes": [
        {
          "key": "system.atributos.car.value",
          "mode": 5,
          "value": "5",
          "priority": null
        },
        {
          "key": "system.pericias.dipl.bonus",
          "mode": 2,
          "value": "5",
          "priority": null
        },
        {
          "key": "system.pericias.enga.bonus",
          "mode": 2,
          "value": "5",
          "priority": null
        }
      ],
      "transfer": false,
      "_key": "!items.effects!ZYU4TTCb2Eod8CyD.i1XMinNG7H2yzi6R"
    },
    {
      "label": "Poção de Aparência Perfeita (Car +2, se Car 5 ou maior)",
      "icon": "systems/tormenta20/icons/itens/itens-magicos/pocao.webp",
      "origin": "Item.ZYU4TTCb2Eod8CyD",
      "tint": "#FFFFFF",
      "flags": {
        "tormenta20": {
          "onuse": false,
          "durationScene": true
        }
      },
      "duration": {
        "rounds": null,
        "startTime": null,
        "seconds": null,
        "combat": null,
        "turns": null,
        "startRound": null,
        "startTurn": null
      },
      "disabled": false,
      "_id": "0rBchHBivonclHGd",
      "changes": [
        {
          "key": "system.atributos.car.value",
          "mode": 2,
          "value": "2",
          "priority": null
        },
        {
          "key": "system.pericias.dipl.bonus",
          "mode": 2,
          "value": "5",
          "priority": null
        },
        {
          "key": "system.pericias.enga.bonus",
          "mode": 2,
          "value": "5",
          "priority": null
        }
      ],
      "transfer": false,
      "_key": "!items.effects!ZYU4TTCb2Eod8CyD.0rBchHBivonclHGd"
    }
  ],
  "folder": null,
  "sort": 0,
  "flags": {
    "importid": "p2csjjUHvaKo0D8T",
    "core": {
      "sourceId": "Compendium.tormenta20.pocoes.ZYU4TTCb2Eod8CyD"
    }
  },
  "system": {
    "description": {
      "value": "<p class=\"MsoNormal\" style=\"text-align: justify;\"><span style=\"mso-spacerun: yes;\">&nbsp;</span>Esta magia lhe concede um rosto idealizado, porte f&iacute;sico garboso, voz melodiosa e olhar sedutor. Caso seu Carisma seja 5 ou mais, voc&ecirc; recebe +2 neste atributo. Do contr&aacute;rio, ele se torna 5 (isso conta como um b&ocirc;nus). Al&eacute;m disso, voc&ecirc; recebe +5 em Diplomacia e Engana&ccedil;&atilde;o. Quando a magia acaba, quaisquer observadores percebem a mudan&ccedil;a e tendem a suspeitar de voc&ecirc;. Da mesma maneira, pessoas que o viram sob o efeito da magia sentir&atilde;o que &ldquo;algo est&aacute; errado&rdquo; ao v&ecirc;-lo em condi&ccedil;&otilde;es normais. Quando a cena acabar, voc&ecirc; pode gastar os PM da magia novamente como uma a&ccedil;&atilde;o livre para mant&ecirc;-la ativa. Este efeito n&atilde;o fornece PV ou PM adicionais.</p>",
      "unidentified": ""
    },
    "source": "T20, pg. 180 (JdA)",
    "carregado": true,
    "peso": 0.5,
    "espacos": 0.5,
    "qtd": 1,
    "preco": 270,
    "pv": {
      "value": 0,
      "min": 0,
      "max": 0
    },
    "rd": 0,
    "ativacao": {
      "execucao": "action",
      "custo": 0,
      "qtd": "",
      "condicao": "",
      "special": ""
    },
    "duracao": {
      "value": 0,
      "units": "scene",
      "special": ""
    },
    "target": {
      "value": null,
      "width": null,
      "type": ""
    },
    "range": {
      "value": null,
      "units": ""
    },
    "consume": {
      "type": "",
      "target": "",
      "amount": null,
      "mpMultiplier": false
    },
    "efeito": "",
    "alcance": "touch",
    "alvo": "",
    "area": "",
    "resistencia": {
      "pericia": "",
      "atributo": "sab",
      "bonus": 0,
      "txt": ""
    },
    "rolls": [],
    "tipo": "potion",
    "chatFlavor": "",
    "melhorias": {
      "accurate": null,
      "pungent": null,
      "cruel": null,
      "atrocious": null,
      "balanced": null,
      "harmonized": null,
      "injection": null,
      "massive": null,
      "specialmaterial": null,
      "scope": null,
      "precise": null,
      "golden": null,
      "gems": null,
      "discreet": null,
      "macabre": null
    },
    "encantos": {
      "keen": null,
      "bane": null,
      "throwable": null,
      "assassin": null,
      "seeking": null,
      "frost": null,
      "caster": null,
      "corrosive": null,
      "dancing": null,
      "defending": null,
      "destructive": null,
      "lacerating": null,
      "draining": null,
      "shock": null,
      "energy": null,
      "excruciating": null,
      "flaming": null,
      "formidable": null,
      "lancinating": null,
      "magnificent": null,
      "merciful": null,
      "unholy": null,
      "holy": null,
      "bloodthirsty": null,
      "thundering": null,
      "sepulchral": null,
      "speed": null,
      "poisonous": null
    },
    "origin": "",
    "tags": [],
    "chatGif": "",
    "upgrades": {
      "melhoria1": "",
      "melhoria2": "",
      "melhoria3": "",
      "melhoria4": "",
      "material": "",
      "encanto1": "",
      "encanto2": "",
      "encanto3": ""
    },
    "subtipo": ""
  },
  "ownership": {
    "default": 0
  },
  "_stats": {
    "systemId": "tormenta20",
    "systemVersion": "1.4.1008",
    "coreVersion": "10.288",
    "createdTime": 1664314007038,
    "modifiedTime": 1667351628035,
    "lastModifiedBy": "tIn9sSkrT3mDWirx"
  },
  "_key": "!items!ZYU4TTCb2Eod8CyD"
}
