{
  "name": "Alquimista Iniciado",
  "type": "poder",
  "img": "systems/tormenta20/icons/classes/inventor.webp",
  "effects": [],
  "flags": {
    "gm-notes": {
      "notes": null
    },
    "scene-packer": {
      "sourceId": "Item.tSXuwsAPKs88m43v",
      "defaultPermission": 3,
      "hash": "76b869f3c8222df3a20e3667453fd504a447abd5"
    },
    "cf": null,
    "core": {
      "sourceId": "Compendium.world.world-arielton-1663050699947.w1QFjsN4TQWJ7Muj"
    }
  },
  "system": {
    "description": {
      "value": "<p style=\"text-align: justify;\">Voc&ecirc; recebe um livro de f&oacute;rmulas e pode fabricar po&ccedil;&otilde;es com f&oacute;rmulas que conhe&ccedil;a de 1&ordm; e 2&ordm; c&iacute;rculos. Veja as p&aacute;ginas 333 e 341 para as regras de po&ccedil;&otilde;es.</p>\n<p style=\"text-align: justify;\"><em>Pr&eacute;-requisitos:</em> Int 1, Sab 1, treinado em Of&iacute;cio (alquimista).</p>\n<p style=\"text-align: justify;\">&nbsp;</p>\n<h1 style=\"text-align: justify;\">Livro de F&oacute;rmulas</h1>\n<p style=\"text-align: justify;\">Quando adquire o poder Alquimista Iniciado, voc&ecirc; recebe um livro de f&oacute;rmulas. Uma &ldquo;f&oacute;rmula&rdquo; &eacute; uma magia divina ou arcana (atributo-chave Intelig&ecirc;ncia) que serve para cumprir os pr&eacute;-requisitos de fabrica&ccedil;&atilde;o de po&ccedil;&otilde;es.</p>\n<p style=\"text-align: justify;\">Voc&ecirc; come&ccedil;a com tr&ecirc;s f&oacute;rmulas de 1&ordm; c&iacute;rculo. A cada n&iacute;vel al&eacute;m do 1&ordm;, aprende uma f&oacute;rmula adicional. A partir do 6&ordm; n&iacute;vel, pode aprender f&oacute;rmulas de 2&ordm; c&iacute;rculo e, se possuir o poder Mestre Alquimista, a cada quatro n&iacute;veis (10&ordm;, 14&ordm; e 18&ordm;) pode aprender f&oacute;rmulas de um c&iacute;rculo maior.</p>\n<p style=\"text-align: justify;\">Se n&atilde;o tiver seu livro de f&oacute;rmulas, voc&ecirc; n&atilde;o pode fabricar po&ccedil;&otilde;es. Se perder seu livro, voc&ecirc; pode preparar outro com uma semana de trabalho e o gasto de T$ 100.</p>",
      "chat": "",
      "unidentified": ""
    },
    "source": "T20, pg. 68 (JdA)",
    "ativacao": {
      "execucao": "",
      "custo": 0,
      "qtd": "",
      "condicao": "",
      "special": ""
    },
    "duracao": {
      "value": 0,
      "units": "",
      "special": ""
    },
    "target": {
      "value": null,
      "width": null,
      "units": "",
      "type": ""
    },
    "range": {
      "value": null,
      "units": ""
    },
    "consume": {
      "type": "",
      "target": "",
      "amount": null,
      "mpMultiplier": false
    },
    "efeito": "",
    "alcance": "none",
    "alvo": "",
    "area": "",
    "resistencia": {
      "pericia": "",
      "atributo": "",
      "bonus": 0,
      "txt": ""
    },
    "rolls": [],
    "tipo": "classe",
    "subtipo": "inventor",
    "chatFlavor": "",
    "origin": "",
    "tags": [],
    "chatGif": ""
  },
  "_stats": {
    "systemId": "tormenta20",
    "systemVersion": "1.4.116",
    "coreVersion": "11.298",
    "createdTime": 1663051642295,
    "modifiedTime": 1684630371462,
    "lastModifiedBy": "ZWR5Tn3AhSIFqwp6"
  },
  "_id": "jQZPCBxLtJxntynq",
  "folder": "iHjbUWZ9cRzIVZ3E",
  "sort": 0,
  "ownership": {
    "default": 0,
    "tIn9sSkrT3mDWirx": 3
  },
  "_key": "!items!jQZPCBxLtJxntynq"
}
