{
  "_id": "vq7bhI62RQhjMTnX",
  "name": "Apostador",
  "type": "poder",
  "img": "systems/tormenta20/icons/classes/bucaneiro.webp",
  "effects": [],
  "folder": "86kIqRb842xHRnBV",
  "sort": 0,
  "flags": {
    "core": {
      "sourceId": "Compendium.tormenta20.poderes.vq7bhI62RQhjMTnX"
    }
  },
  "system": {
    "description": {
      "value": "<p style=\"text-align: justify;\">Voc&ecirc; pode gastar um dia para encontrar e participar de uma mesa de wyrt ou outro jogo de azar. Escolha um valor e fa&ccedil;a um teste de Jogatina contra a CD correspondente: T$ 100 (CD 15), T$ 200 (CD 20), T$ 400 (CD 25), T$ 800 (CD 30), T$ 1.600 (CD 35) e assim por diante. Se passar, voc&ecirc; ganha o valor escolhido (ou um item ou favor equivalente, a crit&eacute;rio do mestre). Se falhar, perde esse mesmo o valor. A crit&eacute;rio do mestre, o lugar onde voc&ecirc; est&aacute; pode limitar ou impossibilitar o uso deste poder.</p>\n<p style=\"text-align: justify;\">Pr&eacute;-requisito: treinado em Jogatina.</p>",
      "chat": "",
      "unidentified": ""
    },
    "source": "T20, pg. 47 (JdA)",
    "ativacao": {
      "execucao": "",
      "custo": 0,
      "qtd": "",
      "condicao": "",
      "special": ""
    },
    "duracao": {
      "value": 0,
      "units": "",
      "special": ""
    },
    "target": {
      "value": null,
      "width": null,
      "units": "",
      "type": ""
    },
    "range": {
      "value": null,
      "units": ""
    },
    "consume": {
      "type": "",
      "target": "",
      "amount": null,
      "mpMultiplier": false
    },
    "efeito": "",
    "alcance": "none",
    "alvo": "",
    "area": "",
    "resistencia": {
      "pericia": "",
      "atributo": "sab",
      "bonus": 0,
      "txt": ""
    },
    "rolls": [],
    "tipo": "classe",
    "subtipo": "Bucaneiro",
    "chatFlavor": "",
    "origin": "",
    "tags": [],
    "chatGif": ""
  },
  "ownership": {
    "default": 0
  },
  "_stats": {
    "systemId": "tormenta20",
    "systemVersion": "1.4.116",
    "coreVersion": "11.298",
    "createdTime": 1658361717759,
    "modifiedTime": 1684630371462,
    "lastModifiedBy": "ZWR5Tn3AhSIFqwp6"
  },
  "_key": "!items!vq7bhI62RQhjMTnX"
}
