{
  "_id": "Bfd90SeTsaSbrKPn",
  "name": "Armadura da Honra",
  "type": "poder",
  "img": "systems/tormenta20/icons/classes/cavaleiro.webp",
  "effects": [],
  "folder": "FOdOQA7oDXTWqj5Z",
  "sort": 0,
  "flags": {
    "core": {
      "sourceId": "Compendium.tormenta20.poderes.Bfd90SeTsaSbrKPn"
    }
  },
  "system": {
    "description": {
      "value": "<p style=\"text-align: justify;\">No in&iacute;cio de cada cena, voc&ecirc; recebe uma quantidade de pontos de vida tempor&aacute;rios igual a seu n&iacute;vel + seu Carisma. Os PVs tempor&aacute;rios duram at&eacute; o final da cena.</p>",
      "chat": "",
      "unidentified": ""
    },
    "source": "T20, pg. 53 (JdA)",
    "ativacao": {
      "execucao": "",
      "custo": 0,
      "qtd": "",
      "condicao": "",
      "special": ""
    },
    "duracao": {
      "value": 0,
      "units": "",
      "special": ""
    },
    "target": {
      "value": null,
      "width": null,
      "units": "",
      "type": ""
    },
    "range": {
      "value": null,
      "units": ""
    },
    "consume": {
      "type": "",
      "target": "",
      "amount": null,
      "mpMultiplier": false
    },
    "efeito": "",
    "alcance": "none",
    "alvo": "",
    "area": "",
    "resistencia": {
      "pericia": "",
      "atributo": "sab",
      "bonus": 0,
      "txt": ""
    },
    "rolls": [],
    "tipo": "classe",
    "subtipo": "Cavaleiro",
    "chatFlavor": "",
    "origin": "",
    "tags": [],
    "chatGif": ""
  },
  "ownership": {
    "default": 0
  },
  "_stats": {
    "systemId": "tormenta20",
    "systemVersion": "1.4.116",
    "coreVersion": "11.298",
    "createdTime": 1664306183810,
    "modifiedTime": 1684630371462,
    "lastModifiedBy": "ZWR5Tn3AhSIFqwp6"
  },
  "_key": "!items!Bfd90SeTsaSbrKPn"
}
