{
  "_id": "pS2CX9symlHOrucD",
  "name": "Armamento Aberrante",
  "type": "poder",
  "img": "systems/tormenta20/icons/poderes/tormenta.webp",
  "effects": [
    {
      "_id": "7eWhcJLVwW4xEiDQ",
      "changes": [
        {
          "key": "passos",
          "mode": 0,
          "value": "(@Tormenta2*1)",
          "priority": 0
        },
        {
          "key": "?.items.arma",
          "mode": 0,
          "value": "items.name",
          "priority": 0
        }
      ],
      "disabled": false,
      "duration": {
        "startTime": null,
        "seconds": null,
        "combat": null,
        "rounds": null,
        "turns": null,
        "startRound": null,
        "startTurn": null
      },
      "icon": "icons/svg/upgrade.svg",
      "label": "Armamento Aberrante",
      "origin": "Item.KOGLrmIB1ILPiplU",
      "transfer": false,
      "flags": {
        "tormenta20": {
          "onuse": true,
          "attack": true,
          "self": false,
          "skill": false,
          "ability": false,
          "power": false,
          "spell": false,
          "consumable": false,
          "aumenta": false,
          "custo": "",
          "durationScene": true,
          "equipment": false,
          "items": ""
        }
      },
      "tint": null,
      "_key": "!items.effects!pS2CX9symlHOrucD.7eWhcJLVwW4xEiDQ"
    }
  ],
  "folder": "m6ny7g3VciUkKZ3t",
  "sort": 0,
  "flags": {
    "core": {
      "sourceId": "Compendium.tormenta20.poderes.pS2CX9symlHOrucD"
    }
  },
  "system": {
    "description": {
      "value": "<p style=\"text-align: justify;\">Voc&ecirc; pode gastar uma a&ccedil;&atilde;o de movimento e 1 PM para produzir uma vers&atilde;o org&acirc;nica de qualquer arma corpo a corpo ou de arremesso com a qual seja proficiente &mdash; ela brota do seu bra&ccedil;o, ombro ou costas como uma planta grotesca e ent&atilde;o se desprende. O dano da arma aumenta em um passo para cada dois outros poderes da Tormenta que voc&ecirc; possui. A arma dura pela cena, ent&atilde;o se desfaz numa po&ccedil;a de gosma.</p>\n<p style=\"text-align: justify;\"><em>Pr&eacute;-requisito:</em> outro poder da Tormenta.</p>",
      "chat": "",
      "unidentified": ""
    },
    "source": "T20, pg. 136 (JdA)",
    "ativacao": {
      "execucao": "move",
      "custo": 1,
      "qtd": "",
      "condicao": "",
      "special": ""
    },
    "duracao": {
      "value": 0,
      "units": "",
      "special": ""
    },
    "target": {
      "value": null,
      "width": null,
      "units": "",
      "type": ""
    },
    "range": {
      "value": null,
      "units": ""
    },
    "consume": {
      "type": "",
      "target": "",
      "amount": null,
      "mpMultiplier": false
    },
    "efeito": "",
    "alcance": "none",
    "alvo": "",
    "area": "",
    "resistencia": {
      "pericia": "",
      "atributo": "sab",
      "bonus": 0,
      "txt": ""
    },
    "rolls": [],
    "tipo": "geral",
    "subtipo": "Tormenta",
    "chatFlavor": "",
    "tags": [
      "Tormenta"
    ],
    "origin": "",
    "chatGif": "",
    "rolltags": [
      "Tormenta"
    ]
  },
  "ownership": {
    "default": 0
  },
  "_stats": {
    "systemId": "tormenta20",
    "systemVersion": "1.4.116",
    "coreVersion": "11.298",
    "createdTime": 1664306185210,
    "modifiedTime": 1684803228401,
    "lastModifiedBy": "ZWR5Tn3AhSIFqwp6"
  },
  "_key": "!items!pS2CX9symlHOrucD"
}
