{
  "_id": "WD3KDLiAqH4nlr6Z",
  "name": "Arqueiro (Caçador)",
  "type": "poder",
  "img": "systems/tormenta20/icons/classes/cacador.webp",
  "effects": [
    {
      "_id": "rETJa0nxH9YC9ojg",
      "flags": {
        "t20": null,
        "tormenta20": {
          "onuse": false,
          "durationScene": false
        }
      },
      "changes": [
        {
          "key": "system.modificadores.dano.ad",
          "mode": 2,
          "value": "(min(@sab, @nvl.cacador))",
          "priority": null
        }
      ],
      "disabled": false,
      "duration": {
        "startTime": null,
        "seconds": null,
        "combat": null,
        "rounds": null,
        "turns": null,
        "startRound": null,
        "startTurn": null
      },
      "icon": "systems/tormenta20/icons/classes/cacador.webp",
      "label": "Arqueiro",
      "origin": "Item.7dube10Fol3tDHnR",
      "tint": null,
      "transfer": true,
      "_key": "!items.effects!WD3KDLiAqH4nlr6Z.rETJa0nxH9YC9ojg"
    }
  ],
  "folder": "iT3rUBmGhu5hbNic",
  "sort": 1900000,
  "flags": {
    "core": {
      "sourceId": "Compendium.tormenta20.poderes.WD3KDLiAqH4nlr6Z"
    }
  },
  "system": {
    "description": {
      "value": "<p style=\"text-align: justify;\">Se estiver usando uma arma de ataque &agrave; dist&acirc;ncia, voc&ecirc; soma seu b&ocirc;nus de Sabedoria nas rolagens de dano (limitado pelo seu n&iacute;vel). <em>Pr&eacute;-requisito:</em> Sab 1.</p>",
      "chat": "",
      "unidentified": ""
    },
    "source": "T20, pg. 50 (JdA)",
    "ativacao": {
      "execucao": "",
      "custo": 0,
      "qtd": "",
      "condicao": "",
      "special": ""
    },
    "duracao": {
      "value": 0,
      "units": "",
      "special": ""
    },
    "target": {
      "value": null,
      "width": null,
      "units": "",
      "type": ""
    },
    "range": {
      "value": null,
      "units": ""
    },
    "consume": {
      "type": "",
      "target": "",
      "amount": null,
      "mpMultiplier": false
    },
    "efeito": "",
    "alcance": "none",
    "alvo": "",
    "area": "",
    "resistencia": {
      "pericia": "",
      "atributo": "sab",
      "bonus": 0,
      "txt": ""
    },
    "rolls": [],
    "tipo": "classe",
    "subtipo": "Caçador",
    "chatFlavor": "",
    "origin": "",
    "tags": [],
    "chatGif": ""
  },
  "ownership": {
    "default": 0
  },
  "_stats": {
    "systemId": "tormenta20",
    "systemVersion": "1.4.116",
    "coreVersion": "11.298",
    "createdTime": 1658361717172,
    "modifiedTime": 1684630426990,
    "lastModifiedBy": "ZWR5Tn3AhSIFqwp6"
  },
  "_key": "!items!WD3KDLiAqH4nlr6Z"
}
