{
  "_id": "l1sxTDhlFIItdE6s",
  "name": "Até Acertar",
  "type": "poder",
  "img": "systems/tormenta20/icons/classes/lutador.webp",
  "effects": [
    {
      "_id": "wRJFccXBx9DTCvXe",
      "changes": [
        {
          "key": "ataque",
          "mode": 2,
          "value": "2",
          "priority": null
        },
        {
          "key": "dano",
          "mode": 2,
          "value": "2",
          "priority": null
        }
      ],
      "disabled": true,
      "duration": {
        "startTime": null,
        "seconds": null,
        "combat": null,
        "rounds": null,
        "turns": null,
        "startRound": null,
        "startTurn": null
      },
      "icon": "icons/svg/upgrade.svg",
      "label": "aumentar ataque e dano em +2.",
      "origin": "Item.XnTPGRkEg5JUsncv",
      "transfer": true,
      "flags": {
        "tormenta20": {
          "onuse": true,
          "self": false,
          "attack": true,
          "skill": false,
          "ability": false,
          "power": false,
          "spell": false,
          "consumable": false,
          "aumenta": true,
          "custo": "",
          "durationScene": false
        }
      },
      "tint": null,
      "_key": "!items.effects!l1sxTDhlFIItdE6s.wRJFccXBx9DTCvXe"
    }
  ],
  "folder": "csRpG81AedPycko0",
  "sort": 0,
  "flags": {
    "core": {
      "sourceId": "Compendium.tormenta20.poderes.l1sxTDhlFIItdE6s"
    },
    "favorito": true,
    "cf": null
  },
  "system": {
    "description": {
      "value": "<p style=\"text-align: justify;\">Se voc&ecirc; errar um ataque desarmado, recebe um b&ocirc;nus cumulativo de +2 em testes de ataque e rolagens de dano desarmado contra o mesmo oponente. Os b&ocirc;nus terminam quando voc&ecirc; acertar um ataque ou no fim da cena, o que acontecer primeiro.</p>",
      "chat": "",
      "unidentified": ""
    },
    "source": "T20, pg. 76 (JdA)",
    "ativacao": {
      "execucao": "passive",
      "custo": 0,
      "qtd": "",
      "condicao": "",
      "special": ""
    },
    "duracao": {
      "value": 0,
      "units": "special",
      "special": "acertar um ataque ou no fim da cena, o que acontecer primeiro"
    },
    "target": {
      "value": null,
      "width": null,
      "units": "",
      "type": ""
    },
    "range": {
      "value": null,
      "units": ""
    },
    "consume": {
      "type": "",
      "target": "",
      "amount": null,
      "mpMultiplier": false
    },
    "efeito": "",
    "alcance": "none",
    "alvo": "",
    "area": "",
    "resistencia": {
      "pericia": "",
      "atributo": "sab",
      "bonus": 0,
      "txt": ""
    },
    "rolls": [],
    "tipo": "classe",
    "subtipo": "Lutador",
    "chatFlavor": "",
    "origin": "",
    "tags": [],
    "chatGif": ""
  },
  "ownership": {
    "default": 0
  },
  "_stats": {
    "systemId": "tormenta20",
    "systemVersion": "1.4.116",
    "coreVersion": "11.298",
    "createdTime": 1664306185139,
    "modifiedTime": 1684630371462,
    "lastModifiedBy": "ZWR5Tn3AhSIFqwp6"
  },
  "_key": "!items!l1sxTDhlFIItdE6s"
}
