{
  "_id": "hCngtWKB9x1FX0F1",
  "name": "Ataque Acrobático",
  "type": "poder",
  "img": "systems/tormenta20/icons/classes/bucaneiro.webp",
  "effects": [
    {
      "_id": "22PwXbnXFrZFsrDa",
      "changes": [
        {
          "key": "ataque",
          "mode": 2,
          "value": "2",
          "priority": null
        },
        {
          "key": "dano",
          "mode": 2,
          "value": "2",
          "priority": null
        }
      ],
      "disabled": true,
      "duration": {
        "startTime": null,
        "seconds": null,
        "combat": null,
        "rounds": null,
        "turns": null,
        "startRound": null,
        "startTurn": null
      },
      "icon": "icons/svg/upgrade.svg",
      "label": "Ataque Acrobático",
      "origin": "Item.QhrAQS1VzZK2ULX6",
      "transfer": true,
      "flags": {
        "tormenta20": {
          "onuse": true,
          "attack": true,
          "self": false,
          "skill": false,
          "ability": false,
          "power": false,
          "spell": false,
          "consumable": false,
          "aumenta": false,
          "custo": "",
          "durationScene": false
        }
      },
      "tint": null,
      "_key": "!items.effects!hCngtWKB9x1FX0F1.22PwXbnXFrZFsrDa"
    }
  ],
  "folder": "86kIqRb842xHRnBV",
  "sort": 0,
  "flags": {
    "core": {
      "sourceId": "Compendium.tormenta20.poderes.hCngtWKB9x1FX0F1"
    }
  },
  "system": {
    "description": {
      "value": "<p style=\"text-align: justify;\">Quando se aproxima de um inimigo com um salto ou pirueta (em termos de jogo, usando Atletismo ou Acrobacia para se mover) e o ataca no mesmo turno, voc&ecirc; recebe +2 nesse teste de ataque e na rolagem de dano.</p>",
      "chat": "",
      "unidentified": ""
    },
    "source": "T20, pg. 47 (JdA)",
    "ativacao": {
      "execucao": "",
      "custo": 0,
      "qtd": "",
      "condicao": "",
      "special": ""
    },
    "duracao": {
      "value": 0,
      "units": "",
      "special": ""
    },
    "target": {
      "value": null,
      "width": null,
      "units": "",
      "type": ""
    },
    "range": {
      "value": null,
      "units": ""
    },
    "consume": {
      "type": "",
      "target": "",
      "amount": null,
      "mpMultiplier": false
    },
    "efeito": "",
    "alcance": "none",
    "alvo": "",
    "area": "",
    "resistencia": {
      "pericia": "",
      "atributo": "sab",
      "bonus": 0,
      "txt": ""
    },
    "rolls": [],
    "tipo": "classe",
    "subtipo": "Bucaneiro",
    "chatFlavor": "",
    "origin": "",
    "tags": [],
    "chatGif": ""
  },
  "ownership": {
    "default": 0
  },
  "_stats": {
    "systemId": "tormenta20",
    "systemVersion": "1.4.116",
    "coreVersion": "11.298",
    "createdTime": 1658361717638,
    "modifiedTime": 1684630371462,
    "lastModifiedBy": "ZWR5Tn3AhSIFqwp6"
  },
  "_key": "!items!hCngtWKB9x1FX0F1"
}
