{
  "name": "Atributos - Hynne",
  "type": "poder",
  "img": "systems/tormenta20/icons/racas/hynne.webp",
  "effects": [
    {
      "label": "Atributos - Hynne",
      "icon": "systems/tormenta20/icons/racas/hynne.webp",
      "origin": "Item.fLezjAZcNHYRx7rV",
      "tint": "#FFFFFF",
      "flags": {
        "tormenta20": {
          "onuse": false,
          "durationScene": false
        }
      },
      "duration": {
        "startTime": null,
        "seconds": null,
        "combat": null,
        "rounds": null,
        "turns": null,
        "startRound": null,
        "startTurn": null
      },
      "disabled": false,
      "_id": "HI65tXsIJK8edUPr",
      "changes": [
        {
          "key": "system.atributos.des.value",
          "mode": 2,
          "value": "2",
          "priority": null
        },
        {
          "key": "system.atributos.car.value",
          "mode": 2,
          "value": "1",
          "priority": null
        },
        {
          "key": "system.atributos.for.value",
          "mode": 2,
          "value": "-1",
          "priority": null
        }
      ],
      "transfer": true,
      "_key": "!items.effects!oXxtokUrHBrONCHg.HI65tXsIJK8edUPr"
    }
  ],
  "flags": {
    "core": {
      "sourceId": "Compendium.tormenta20.poderes.fLezjAZcNHYRx7rV"
    }
  },
  "system": {
    "description": {
      "value": "<p style=\"text-align: justify;\">Destreza +2, Carisma +1, For&ccedil;a -1.</p>",
      "chat": "",
      "unidentified": ""
    },
    "source": "T20, pg. 28 (JdA)",
    "ativacao": {
      "execucao": "",
      "custo": 0,
      "qtd": "",
      "condicao": "",
      "special": ""
    },
    "duracao": {
      "value": 0,
      "units": "",
      "special": ""
    },
    "target": {
      "value": null,
      "width": null,
      "units": "",
      "type": ""
    },
    "range": {
      "value": null,
      "units": ""
    },
    "consume": {
      "type": "",
      "target": "",
      "amount": null,
      "mpMultiplier": false
    },
    "efeito": "",
    "alcance": "none",
    "alvo": "",
    "area": "",
    "resistencia": {
      "pericia": "",
      "atributo": "sab",
      "bonus": 0,
      "txt": ""
    },
    "rolls": [],
    "tipo": "racial",
    "subtipo": "Hynne",
    "origin": "",
    "tags": [],
    "chatFlavor": "",
    "chatGif": ""
  },
  "_stats": {
    "systemId": "tormenta20",
    "systemVersion": "1.4.116",
    "coreVersion": "11.298",
    "createdTime": 1664306184749,
    "modifiedTime": 1684630371462,
    "lastModifiedBy": "ZWR5Tn3AhSIFqwp6"
  },
  "_id": "oXxtokUrHBrONCHg",
  "folder": "5QQ32VlTEvkqmLdn",
  "sort": 0,
  "ownership": {
    "default": 0,
    "tIn9sSkrT3mDWirx": 3
  },
  "_key": "!items!oXxtokUrHBrONCHg"
}
