{
  "_id": "qlYruPKHnlOLhkZa",
  "name": "Aura Antimagia",
  "type": "poder",
  "img": "systems/tormenta20/icons/classes/paladino.webp",
  "effects": [
    {
      "label": "Aura Antimagia.",
      "icon": "icons/svg/upgrade.svg",
      "origin": "Item.qlYruPKHnlOLhkZa",
      "tint": "#FFFFFF",
      "flags": {
        "tormenta20": {
          "onuse": true,
          "durationScene": false,
          "self": false,
          "attack": false,
          "skill": false,
          "ability": false,
          "power": true,
          "spell": false,
          "consumable": false,
          "items": "aura sagrada",
          "aumenta": false,
          "custo": ""
        }
      },
      "duration": {
        "startTime": null,
        "seconds": null,
        "combat": null,
        "rounds": null,
        "turns": null,
        "startRound": null,
        "startTurn": null
      },
      "disabled": false,
      "_id": "4fIt2PUWD0laHIyf",
      "changes": [],
      "transfer": true,
      "_key": "!items.effects!qlYruPKHnlOLhkZa.4fIt2PUWD0laHIyf"
    }
  ],
  "folder": "VwM7ZxttHPFuX6M4",
  "sort": 0,
  "flags": {
    "core": {
      "sourceId": "Compendium.tormenta20.poderes.qlYruPKHnlOLhkZa"
    }
  },
  "system": {
    "description": {
      "value": "<p style=\"text-align: justify;\">Enquanto sua aura estiver ativa, voc&ecirc; e os aliados dentro da aura podem rolar novamente qualquer teste de resist&ecirc;ncia contra magia rec&eacute;m realizado.</p>\n<p style=\"text-align: justify;\"><em>Pr&eacute;-requisito:</em> 14&deg; n&iacute;vel de paladino.</p>",
      "chat": "",
      "unidentified": ""
    },
    "source": "T20, pg. 82 (JdA)",
    "ativacao": {
      "execucao": "",
      "custo": 0,
      "qtd": "",
      "condicao": "",
      "special": ""
    },
    "duracao": {
      "value": 0,
      "units": "",
      "special": ""
    },
    "target": {
      "value": null,
      "width": null,
      "units": "",
      "type": ""
    },
    "range": {
      "value": null,
      "units": ""
    },
    "consume": {
      "type": "",
      "target": "",
      "amount": null,
      "mpMultiplier": false
    },
    "efeito": "",
    "alcance": "none",
    "alvo": "",
    "area": "",
    "resistencia": {
      "pericia": "",
      "atributo": "sab",
      "bonus": 0,
      "txt": ""
    },
    "rolls": [],
    "tipo": "classe",
    "subtipo": "Paladino",
    "chatFlavor": "",
    "origin": "",
    "tags": [],
    "chatGif": ""
  },
  "ownership": {
    "default": 0
  },
  "_stats": {
    "systemId": "tormenta20",
    "systemVersion": "1.4.116",
    "coreVersion": "11.298",
    "createdTime": 1664306185215,
    "modifiedTime": 1684630371462,
    "lastModifiedBy": "ZWR5Tn3AhSIFqwp6"
  },
  "_key": "!items!qlYruPKHnlOLhkZa"
}
