{
  "_id": "eGw7yqknnodmR6fW",
  "name": "Autoconfiança",
  "type": "poder",
  "img": "systems/tormenta20/icons/poderes/classes/especialistas/autoconfianca.webp",
  "effects": [
    {
      "_id": "hL2I13WFTog9LYyv",
      "changes": [
        {
          "key": "system.attributes.defesa.atributo",
          "mode": 5,
          "value": "car",
          "priority": null
        }
      ],
      "disabled": false,
      "duration": {
        "startTime": null,
        "seconds": null,
        "combat": null,
        "rounds": null,
        "turns": null,
        "startRound": null,
        "startTurn": null
      },
      "icon": "systems/tormenta20/icons/classes/nobre.webp",
      "label": "Autoconfiança",
      "origin": "Item.huVT35QunfCHuyce",
      "transfer": true,
      "flags": {
        "tormenta20": {
          "onuse": false,
          "durationScene": false
        }
      },
      "tint": null,
      "_key": "!items.effects!eGw7yqknnodmR6fW.hL2I13WFTog9LYyv"
    }
  ],
  "folder": "1gk4CeDo7oR1b0oD",
  "sort": 0,
  "flags": {
    "core": {
      "sourceId": "Compendium.tormenta20.poderes.eGw7yqknnodmR6fW"
    },
    "cf": null
  },
  "system": {
    "description": {
      "value": "<p style=\"text-align:justify;\">Você pode somar seu bônus de Carisma em vez de Destreza na Defesa (mas continua não podendo somar um bônus de atributo na Defesa quando usa armadura pesada).</p>",
      "chat": "",
      "unidentified": ""
    },
    "source": "T20, pg. 79 (JdA)",
    "ativacao": {
      "execucao": "",
      "custo": 0,
      "qtd": "",
      "condicao": "",
      "special": ""
    },
    "duracao": {
      "value": 0,
      "units": "",
      "special": ""
    },
    "target": {
      "value": null,
      "width": null,
      "units": "",
      "type": ""
    },
    "range": {
      "value": null,
      "units": ""
    },
    "consume": {
      "type": "",
      "target": "",
      "amount": null,
      "mpMultiplier": false
    },
    "efeito": "",
    "alcance": "none",
    "alvo": "",
    "area": "",
    "resistencia": {
      "pericia": "",
      "atributo": "sab",
      "bonus": 0,
      "txt": ""
    },
    "rolls": [],
    "tipo": "ability",
    "subtipo": "Nobre",
    "chatFlavor": "",
    "origin": "",
    "tags": [],
    "chatGif": ""
  },
  "ownership": {
    "default": 0
  },
  "_stats": {
    "systemId": "tormenta20",
    "systemVersion": "1.4.116",
    "coreVersion": "11.298",
    "createdTime": 1664306184748,
    "modifiedTime": 1684630371462,
    "lastModifiedBy": "ZWR5Tn3AhSIFqwp6"
  },
  "_key": "!items!eGw7yqknnodmR6fW"
}
