{
  "folder": "vexWaYlAiymaSSpI",
  "name": "Bardo",
  "sorting": "a",
  "type": "Item",
  "_id": "vXRLLa3BIKBZdiua",
  "sort": 0,
  "flags": {},
  "_stats": {
    "systemId": null,
    "systemVersion": null,
    "coreVersion": null,
    "createdTime": null,
    "modifiedTime": null,
    "lastModifiedBy": null
  },
  "_key": "!folders!vXRLLa3BIKBZdiua"
}
