{
  "_id": "sQFi9Zy0fsP0ePmZ",
  "name": "Brado Assustador",
  "type": "poder",
  "img": "systems/tormenta20/icons/classes/barbaro.webp",
  "effects": [
    {
      "label": "Vulnerável",
      "icon": "systems/tormenta20/icons/conditions/vulneravel.svg",
      "origin": "Item.5gTRzfbcPegqwCbr",
      "tint": "#FFFFFF",
      "flags": {
        "tormenta20": {
          "onuse": false,
          "durationScene": true
        }
      },
      "duration": {
        "rounds": 1,
        "startTime": null,
        "seconds": null,
        "combat": null,
        "turns": null,
        "startRound": null,
        "startTurn": null
      },
      "disabled": false,
      "_id": "UQ0UH6xI3b32l2LW",
      "changes": [],
      "transfer": false,
      "_key": "!items.effects!sQFi9Zy0fsP0ePmZ.UQ0UH6xI3b32l2LW"
    }
  ],
  "folder": "UhsYJ0BvPTkMyG53",
  "sort": 0,
  "flags": {
    "core": {
      "sourceId": "Compendium.tormenta20.poderes.sQFi9Zy0fsP0ePmZ"
    }
  },
  "system": {
    "description": {
      "value": "<p style=\"text-align: justify;\">Voc&ecirc; pode gastar uma a&ccedil;&atilde;o de movimento e 1 PM para soltar um berro feroz. Todos os inimigos em alcance curto ficam vulner&aacute;veis <a class=\"content-link\" draggable=\"true\" data-uuid=\"Compendium.tormenta20.condicoes.llEYr30KgWLnGA9w\" data-id=\"llEYr30KgWLnGA9w\" data-type=\"JournalEntry\" data-pack=\"tormenta20.condicoes\" data-tooltip=\"Registro de Di&aacute;rio\">Vulner&aacute;vel</a>&nbsp;at&eacute; o fim da cena. <em>Pr&eacute;-requisito</em>: treinado em Intimida&ccedil;&atilde;o. Medo.</p>\n<p style=\"text-align: justify;\">&nbsp;</p>\n<p style=\"text-align: justify;\">&nbsp;</p>",
      "chat": "",
      "unidentified": ""
    },
    "source": "T20, pg. 41 (JdA)",
    "ativacao": {
      "execucao": "move",
      "custo": 1,
      "qtd": "",
      "condicao": "",
      "special": ""
    },
    "duracao": {
      "value": 0,
      "units": "",
      "special": ""
    },
    "target": {
      "value": null,
      "width": null,
      "units": "",
      "type": ""
    },
    "range": {
      "value": null,
      "units": ""
    },
    "consume": {
      "type": "",
      "target": "",
      "amount": null,
      "mpMultiplier": false
    },
    "efeito": "",
    "alcance": "short",
    "alvo": "Inimigos no alcance",
    "area": "",
    "resistencia": {
      "pericia": "",
      "atributo": "car",
      "bonus": 0,
      "txt": ""
    },
    "rolls": [
      {
        "name": "Dano",
        "key": "dano0",
        "type": "dano",
        "parts": [
          [
            "",
            "",
            ""
          ]
        ],
        "versatil": ""
      }
    ],
    "tipo": "classe",
    "subtipo": "Bárbaro",
    "chatFlavor": "",
    "origin": "",
    "tags": [],
    "chatGif": ""
  },
  "ownership": {
    "default": 0
  },
  "_stats": {
    "systemId": "tormenta20",
    "systemVersion": "1.4.116",
    "coreVersion": "11.298",
    "createdTime": 1658361717754,
    "modifiedTime": 1684630371462,
    "lastModifiedBy": "ZWR5Tn3AhSIFqwp6"
  },
  "_key": "!items!sQFi9Zy0fsP0ePmZ"
}
