{
  "_id": "fhovFktP3UcW4OJJ",
  "name": "Camuflagem",
  "type": "poder",
  "img": "systems/tormenta20/icons/classes/cacador.webp",
  "effects": [],
  "folder": "iT3rUBmGhu5hbNic",
  "sort": 2300000,
  "flags": {
    "core": {
      "sourceId": "Compendium.tormenta20.poderes.fhovFktP3UcW4OJJ"
    }
  },
  "system": {
    "description": {
      "value": "<p style=\"text-align: justify;\">Voc&ecirc; pode gastar 2 PM para se esconder mesmo sem camuflagem ou cobertura dispon&iacute;vel.<em> Pr&eacute;-requisito:</em> 6&ordm; n&iacute;vel de ca&ccedil;ador.</p>",
      "chat": "",
      "unidentified": ""
    },
    "source": "T20, pg. 50 (JdA)",
    "ativacao": {
      "execucao": "",
      "custo": 2,
      "qtd": "",
      "condicao": "",
      "special": ""
    },
    "duracao": {
      "value": 0,
      "units": "",
      "special": ""
    },
    "target": {
      "value": null,
      "width": null,
      "units": "",
      "type": ""
    },
    "range": {
      "value": null,
      "units": ""
    },
    "consume": {
      "type": "",
      "target": "",
      "amount": null,
      "mpMultiplier": false
    },
    "efeito": "",
    "alcance": "none",
    "alvo": "",
    "area": "",
    "resistencia": {
      "pericia": "",
      "atributo": "sab",
      "bonus": 0,
      "txt": ""
    },
    "rolls": [],
    "tipo": "classe",
    "subtipo": "Caçador",
    "chatFlavor": "",
    "origin": "",
    "tags": [],
    "chatGif": ""
  },
  "ownership": {
    "default": 0
  },
  "_stats": {
    "systemId": "tormenta20",
    "systemVersion": "1.4.116",
    "coreVersion": "11.298",
    "createdTime": 1658361717637,
    "modifiedTime": 1684630426990,
    "lastModifiedBy": "ZWR5Tn3AhSIFqwp6"
  },
  "_key": "!items!fhovFktP3UcW4OJJ"
}
