{
  "_id": "2pPEzPSySI3EpsPS",
  "name": "Coração da Selva",
  "type": "poder",
  "img": "systems/tormenta20/icons/classes/druida.webp",
  "effects": [
    {
      "label": "Coração da Selva: +2 na CD e +1 de perda de vida por dado de dano nos efeitos de veneno.",
      "icon": "icons/svg/upgrade.svg",
      "origin": "Item.2pPEzPSySI3EpsPS",
      "tint": "#FFFFFF",
      "flags": {
        "tormenta20": {
          "onuse": true,
          "durationScene": false,
          "self": false,
          "attack": false,
          "skill": false,
          "ability": false,
          "power": false,
          "spell": false,
          "consumable": true,
          "items": "",
          "aumenta": true,
          "custo": ""
        }
      },
      "duration": {
        "startTime": null,
        "seconds": null,
        "combat": null,
        "rounds": null,
        "turns": null,
        "startRound": null,
        "startTurn": null
      },
      "disabled": true,
      "_id": "R4ZUxTtISiyUwfe1",
      "changes": [
        {
          "key": "dano",
          "mode": 2,
          "value": "1",
          "priority": 0
        }
      ],
      "transfer": true,
      "_key": "!items.effects!2pPEzPSySI3EpsPS.R4ZUxTtISiyUwfe1"
    }
  ],
  "folder": "8LraP5E2KHsZTAz8",
  "sort": 0,
  "flags": {
    "core": {
      "sourceId": "Compendium.tormenta20.poderes.2pPEzPSySI3EpsPS"
    }
  },
  "system": {
    "description": {
      "value": "<p style=\"text-align: justify;\">CD para resistir a seus efeitos de veneno aumenta em +2 e estes efeitos causam +1 de perda de vida por dado.</p>",
      "chat": "",
      "unidentified": ""
    },
    "source": "T20, pg. 62 (JdA)",
    "ativacao": {
      "execucao": "",
      "custo": 0,
      "qtd": "",
      "condicao": "",
      "special": ""
    },
    "duracao": {
      "value": 0,
      "units": "",
      "special": ""
    },
    "target": {
      "value": null,
      "width": null,
      "units": "",
      "type": ""
    },
    "range": {
      "value": null,
      "units": ""
    },
    "consume": {
      "type": "",
      "target": "",
      "amount": null,
      "mpMultiplier": false
    },
    "efeito": "",
    "alcance": "none",
    "alvo": "",
    "area": "",
    "resistencia": {
      "pericia": "",
      "atributo": "sab",
      "bonus": 0,
      "txt": ""
    },
    "rolls": [],
    "tipo": "classe",
    "subtipo": "Druida",
    "chatFlavor": "",
    "origin": "",
    "tags": [],
    "chatGif": ""
  },
  "ownership": {
    "default": 0
  },
  "_stats": {
    "systemId": "tormenta20",
    "systemVersion": "1.4.116",
    "coreVersion": "11.298",
    "createdTime": 1664306183302,
    "modifiedTime": 1684630371462,
    "lastModifiedBy": "ZWR5Tn3AhSIFqwp6"
  },
  "_key": "!items!2pPEzPSySI3EpsPS"
}
