{
  "_id": "c0uuRsgAbFmXmDJH",
  "name": "Criatura Artificial",
  "type": "poder",
  "img": "systems/tormenta20/icons/racas/golem.webp",
  "effects": [],
  "folder": "JbWoTw5WRQStJu6M",
  "sort": 0,
  "flags": {
    "core": {
      "sourceId": "Compendium.tormenta20.poderes.c0uuRsgAbFmXmDJH"
    }
  },
  "system": {
    "description": {
      "value": "<p style=\"text-align: justify;\">Voc&ecirc; &eacute; uma criatura do tipo construto. Recebe vis&atilde;o no escuro e imunidade a efeitos de cansa&ccedil;o, metab&oacute;licos e de veneno. Al&eacute;m disso, n&atilde;o precisa respirar, alimentar-se ou dormir, mas n&atilde;o se beneficia de cura mundana e de itens da categoria alimenta&ccedil;&atilde;o. Voc&ecirc; precisa ficar inerte por oito horas por dia para recarregar sua fonte de energia. Se fizer isso, recupera PV e PM por descanso em condi&ccedil;&otilde;es normais (golens n&atilde;o s&atilde;o afetados por condi&ccedil;&otilde;es boas ou ruins de descanso). Por fim, a per&iacute;cia cura n&atilde;o funciona em voc&ecirc;, mas Of&iacute;cios (artesanato) pode ser usada no lugar dela.&nbsp;</p>",
      "chat": "",
      "unidentified": ""
    },
    "source": "T20, pg. 27 (JdA)",
    "ativacao": {
      "execucao": "",
      "custo": 0,
      "qtd": "",
      "condicao": "",
      "special": ""
    },
    "duracao": {
      "value": 0,
      "units": "",
      "special": ""
    },
    "target": {
      "value": null,
      "width": null,
      "units": "",
      "type": ""
    },
    "range": {
      "value": null,
      "units": ""
    },
    "consume": {
      "type": "",
      "target": "",
      "amount": null,
      "mpMultiplier": false
    },
    "efeito": "",
    "alcance": "none",
    "alvo": "",
    "area": "",
    "resistencia": {
      "pericia": "",
      "atributo": "sab",
      "bonus": 0,
      "txt": ""
    },
    "rolls": [],
    "tipo": "racial",
    "subtipo": "Golem",
    "chatFlavor": "",
    "origin": "",
    "tags": [],
    "chatGif": ""
  },
  "ownership": {
    "default": 0
  },
  "_stats": {
    "systemId": "tormenta20",
    "systemVersion": "1.4.116",
    "coreVersion": "11.298",
    "createdTime": 1664306184741,
    "modifiedTime": 1684630371462,
    "lastModifiedBy": "ZWR5Tn3AhSIFqwp6"
  },
  "_key": "!items!c0uuRsgAbFmXmDJH"
}
