{
  "_id": "pTCZidM8hUslgx4u",
  "name": "Dom da Imortalidade",
  "type": "poder",
  "img": "systems/tormenta20/icons/poderes/concedidos-ressurreicao.webp",
  "effects": [],
  "folder": "He9KfwGwASRyosMP",
  "sort": 0,
  "flags": {
    "core": {
      "sourceId": "Compendium.tormenta20.poderes.pTCZidM8hUslgx4u"
    }
  },
  "system": {
    "description": {
      "value": "<p style=\"text-align: justify;\">Voc&ecirc; &eacute; imortal. Sempre que morre, n&atilde;o importando o motivo, volta &agrave; vida ap&oacute;s 3d6 dias. Voc&ecirc; n&atilde;o perde n&iacute;veis de experi&ecirc;ncia. Apenas paladinos podem escolher este poder. Um personagem pode ter Dom da Imortalidade ou Dom da Ressurrei&ccedil;&atilde;o, mas n&atilde;o ambos.</p>",
      "chat": "",
      "unidentified": ""
    },
    "source": "T20, pg. 133 (JdA)",
    "ativacao": {
      "execucao": "",
      "custo": 0,
      "qtd": "",
      "condicao": "",
      "special": ""
    },
    "duracao": {
      "value": 0,
      "units": "",
      "special": ""
    },
    "target": {
      "value": null,
      "width": null,
      "units": "",
      "type": ""
    },
    "range": {
      "value": null,
      "units": ""
    },
    "consume": {
      "type": "",
      "target": "",
      "amount": null,
      "mpMultiplier": false
    },
    "efeito": "",
    "alcance": "none",
    "alvo": "",
    "area": "",
    "resistencia": {
      "pericia": "",
      "atributo": "sab",
      "bonus": 0,
      "txt": ""
    },
    "rolls": [],
    "tipo": "concedido",
    "subtipo": "Ressurreição",
    "origin": "",
    "tags": [],
    "chatFlavor": "",
    "chatGif": ""
  },
  "ownership": {
    "default": 0
  },
  "_stats": {
    "systemId": "tormenta20",
    "systemVersion": "1.4.116",
    "coreVersion": "11.298",
    "createdTime": 1664306185211,
    "modifiedTime": 1684630371462,
    "lastModifiedBy": "ZWR5Tn3AhSIFqwp6"
  },
  "_key": "!items!pTCZidM8hUslgx4u"
}
