{
  "folder": "vexWaYlAiymaSSpI",
  "name": "Druida",
  "sorting": "a",
  "type": "Item",
  "_id": "8LraP5E2KHsZTAz8",
  "sort": 0,
  "flags": {},
  "_stats": {
    "systemId": null,
    "systemVersion": null,
    "coreVersion": null,
    "createdTime": null,
    "modifiedTime": null,
    "lastModifiedBy": null
  },
  "_key": "!folders!8LraP5E2KHsZTAz8"
}
