{
  "_id": "Y5QPCs5NpAyHuczB",
  "name": "Engenhoso",
  "type": "poder",
  "img": "systems/tormenta20/icons/racas/goblin.webp",
  "effects": [
    {
      "_id": "AM2U5mNB5TOhPM8J",
      "changes": [
        {
          "key": "roll",
          "mode": 2,
          "value": "2",
          "priority": 0
        }
      ],
      "disabled": true,
      "duration": {
        "startTime": null,
        "seconds": null,
        "combat": null,
        "rounds": null,
        "turns": null,
        "startRound": null,
        "startTurn": null
      },
      "icon": "icons/svg/upgrade.svg",
      "label": "Engenhoso: +2 se estiver usando a ferramenta necessária.",
      "origin": "Item.CM9jOjNsbP7hBWVP",
      "transfer": true,
      "flags": {
        "tormenta20": {
          "onuse": true,
          "skill": true,
          "self": false,
          "attack": false,
          "ability": false,
          "power": false,
          "spell": false,
          "consumable": false,
          "aumenta": false,
          "custo": "",
          "durationScene": false,
          "items": ""
        }
      },
      "tint": null,
      "_key": "!items.effects!Y5QPCs5NpAyHuczB.AM2U5mNB5TOhPM8J"
    }
  ],
  "folder": "dlQytstdFJCCmHM7",
  "sort": 0,
  "flags": {
    "core": {
      "sourceId": "Compendium.tormenta20.poderes.Y5QPCs5NpAyHuczB"
    },
    "cf": null
  },
  "system": {
    "description": {
      "value": "<p style=\"text-align: justify;\">Voc&ecirc; n&atilde;o sofre penalidades em testes de per&iacute;cia por n&atilde;o usar ferramentas. Se usar a ferramenta necess&aacute;ria, recebe +2 no teste de per&iacute;cia.</p>",
      "chat": "",
      "unidentified": ""
    },
    "source": "T20, pg. 23 (JdA)",
    "ativacao": {
      "execucao": "",
      "custo": 0,
      "qtd": "",
      "condicao": "",
      "special": ""
    },
    "duracao": {
      "value": 0,
      "units": "",
      "special": ""
    },
    "target": {
      "value": null,
      "width": null,
      "units": "",
      "type": ""
    },
    "range": {
      "value": null,
      "units": ""
    },
    "consume": {
      "type": "",
      "target": "",
      "amount": null,
      "mpMultiplier": false
    },
    "efeito": "",
    "alcance": "none",
    "alvo": "",
    "area": "",
    "resistencia": {
      "pericia": "",
      "atributo": "sab",
      "bonus": 0,
      "txt": ""
    },
    "rolls": [],
    "tipo": "racial",
    "subtipo": "Goblin",
    "chatFlavor": "",
    "origin": "",
    "tags": [],
    "chatGif": ""
  },
  "ownership": {
    "default": 0
  },
  "_stats": {
    "systemId": "tormenta20",
    "systemVersion": "1.4.116",
    "coreVersion": "11.298",
    "createdTime": 1664306184726,
    "modifiedTime": 1684630371462,
    "lastModifiedBy": "ZWR5Tn3AhSIFqwp6"
  },
  "_key": "!items!Y5QPCs5NpAyHuczB"
}
