{
  "_id": "On6DFwWTValJhmHm",
  "name": "Escudo Mágico",
  "type": "poder",
  "img": "systems/tormenta20/icons/poderes/concedidos-magia.webp",
  "effects": [
    {
      "label": "Escudo Mágico",
      "icon": "systems/tormenta20/icons/poderes/concedidos-magia.webp",
      "origin": "Item.On6DFwWTValJhmHm",
      "tint": "#FFFFFF",
      "flags": {
        "tormenta20": {
          "onuse": false,
          "durationScene": false
        }
      },
      "duration": {
        "rounds": 1,
        "startTime": null,
        "seconds": null,
        "combat": null,
        "turns": null,
        "startRound": null,
        "startTurn": null
      },
      "disabled": false,
      "_id": "ETAlKTKQ4Xrg93pK",
      "changes": [
        {
          "key": "system.attributes.defesa.bonus",
          "mode": 2,
          "value": "1",
          "priority": null
        }
      ],
      "transfer": false,
      "_key": "!items.effects!On6DFwWTValJhmHm.ETAlKTKQ4Xrg93pK"
    },
    {
      "label": "aumenta o bônus de defesa em +1.",
      "icon": "icons/svg/upgrade.svg",
      "origin": "Item.On6DFwWTValJhmHm",
      "tint": "#FFFFFF",
      "flags": {
        "tormenta20": {
          "onuse": true,
          "durationScene": false,
          "self": true,
          "attack": false,
          "skill": false,
          "ability": false,
          "power": false,
          "spell": false,
          "consumable": false,
          "items": "",
          "aumenta": true,
          "custo": ""
        }
      },
      "duration": {
        "startTime": null,
        "seconds": null,
        "combat": null,
        "rounds": null,
        "turns": null,
        "startRound": null,
        "startTurn": null
      },
      "disabled": true,
      "_id": "QQA6dwcO9A52WXRC",
      "changes": [
        {
          "key": "system.attributes.defesa.bonus",
          "mode": 2,
          "value": "1",
          "priority": 0
        }
      ],
      "transfer": false,
      "_key": "!items.effects!On6DFwWTValJhmHm.QQA6dwcO9A52WXRC"
    }
  ],
  "folder": "Kye2KzNfCgJW92Kb",
  "sort": 0,
  "flags": {
    "core": {
      "sourceId": "Compendium.tormenta20.poderes.On6DFwWTValJhmHm"
    }
  },
  "system": {
    "description": {
      "value": "<p style=\"text-align: justify;\">Quando lan&ccedil;a uma magia, voc&ecirc; recebe um b&ocirc;nus na Defesa igual ao c&iacute;rculo da magia lan&ccedil;ada at&eacute; o in&iacute;cio do seu pr&oacute;ximo turno.</p>",
      "chat": "",
      "unidentified": ""
    },
    "source": "T20, pg. 133 (JdA)",
    "ativacao": {
      "execucao": "",
      "custo": 0,
      "qtd": "",
      "condicao": "",
      "special": ""
    },
    "duracao": {
      "value": 0,
      "units": "",
      "special": ""
    },
    "target": {
      "value": null,
      "width": null,
      "units": "",
      "type": ""
    },
    "range": {
      "value": null,
      "units": ""
    },
    "consume": {
      "type": "",
      "target": "",
      "amount": null,
      "mpMultiplier": false
    },
    "efeito": "",
    "alcance": "none",
    "alvo": "",
    "area": "",
    "resistencia": {
      "pericia": "",
      "atributo": "sab",
      "bonus": 0,
      "txt": ""
    },
    "rolls": [],
    "tipo": "concedido",
    "subtipo": "Magia",
    "origin": "",
    "tags": [],
    "chatFlavor": "",
    "chatGif": ""
  },
  "ownership": {
    "default": 0
  },
  "_stats": {
    "systemId": "tormenta20",
    "systemVersion": "1.4.116",
    "coreVersion": "11.298",
    "createdTime": 1664306184257,
    "modifiedTime": 1684630371462,
    "lastModifiedBy": "ZWR5Tn3AhSIFqwp6"
  },
  "_key": "!items!On6DFwWTValJhmHm"
}
