{
  "_id": "seHht1EYivTWatKh",
  "name": "Espada Solar",
  "type": "poder",
  "img": "systems/tormenta20/icons/poderes/concedidos-deus-sol.webp",
  "effects": [
    {
      "label": "Espada Solar",
      "icon": "systems/tormenta20/icons/poderes/concedidos-deus-sol.webp",
      "origin": "Item.seHht1EYivTWatKh",
      "tint": "#FFFFFF",
      "flags": {
        "tormenta20": {
          "onuse": false,
          "durationScene": true
        }
      },
      "duration": {
        "rounds": 1,
        "startTime": null,
        "seconds": null,
        "combat": null,
        "turns": null,
        "startRound": null,
        "startTurn": null
      },
      "disabled": false,
      "_id": "UbFpwFepfsegecLM",
      "changes": [
        {
          "key": "system.modificadores.dano.cac",
          "mode": 2,
          "value": "1d6",
          "priority": null
        }
      ],
      "transfer": false,
      "_key": "!items.effects!seHht1EYivTWatKh.UbFpwFepfsegecLM"
    }
  ],
  "folder": "zose22Lb5Fcz5t8J",
  "sort": 0,
  "flags": {
    "core": {
      "sourceId": "Compendium.tormenta20.poderes.seHht1EYivTWatKh"
    }
  },
  "system": {
    "description": {
      "value": "<p style=\"text-align: justify;\">Voc&ecirc; pode gastar 1 PM para fazer uma arma corpo a corpo de corte que esteja empunhando causar +1d6 de dano por fogo at&eacute; o fim da cena.</p>",
      "chat": "",
      "unidentified": ""
    },
    "source": "T20, pg. 133 (JdA)",
    "ativacao": {
      "execucao": "",
      "custo": 1,
      "qtd": "",
      "condicao": "",
      "special": ""
    },
    "duracao": {
      "value": 0,
      "units": "",
      "special": ""
    },
    "target": {
      "value": null,
      "width": null,
      "units": "",
      "type": ""
    },
    "range": {
      "value": null,
      "units": ""
    },
    "consume": {
      "type": "",
      "target": "",
      "amount": null,
      "mpMultiplier": false
    },
    "efeito": "",
    "alcance": "none",
    "alvo": "",
    "area": "",
    "resistencia": {
      "pericia": "",
      "atributo": "sab",
      "bonus": 0,
      "txt": ""
    },
    "rolls": [],
    "tipo": "concedido",
    "subtipo": "Sol",
    "origin": "",
    "tags": [],
    "chatFlavor": "",
    "chatGif": ""
  },
  "ownership": {
    "default": 0
  },
  "_stats": {
    "systemId": "tormenta20",
    "systemVersion": "1.4.116",
    "coreVersion": "11.298",
    "createdTime": 1664306185647,
    "modifiedTime": 1684630371462,
    "lastModifiedBy": "ZWR5Tn3AhSIFqwp6"
  },
  "_key": "!items!seHht1EYivTWatKh"
}
