{
  "_id": "KFGQMJDKyccD7Fie",
  "name": "Especialização em Armadura (Guerreiro)",
  "type": "poder",
  "img": "systems/tormenta20/icons/classes/guerreiro.webp",
  "effects": [
    {
      "label": "Especialização em Armadura",
      "icon": "systems/tormenta20/icons/classes/guerreiro.webp",
      "origin": "Item.KFGQMJDKyccD7Fie",
      "tint": "#FFFFFF",
      "flags": {
        "tormenta20": {
          "onuse": false,
          "durationScene": false
        }
      },
      "duration": {
        "startTime": null,
        "seconds": null,
        "combat": null,
        "rounds": null,
        "turns": null,
        "startRound": null,
        "startTurn": null
      },
      "disabled": false,
      "_id": "92BaZGglROJpXZ7I",
      "changes": [
        {
          "key": "system.tracos.resistencias.dano.value",
          "mode": 2,
          "value": "5",
          "priority": null
        }
      ],
      "transfer": true,
      "_key": "!items.effects!KFGQMJDKyccD7Fie.92BaZGglROJpXZ7I"
    }
  ],
  "folder": "LJQ1SKk2Y0QmZI03",
  "sort": 0,
  "flags": {
    "core": {
      "sourceId": "Compendium.tormenta20.poderes.KPN2DuNAQZ7ncCnb"
    }
  },
  "system": {
    "description": {
      "value": "<p style=\"text-align: justify;\"><span style=\"color: #191813; font-family: Roboto, sans-serif;\">Voc&ecirc; recebe resist&ecirc;ncia a dano 5 se estiver usando uma armadura pesada.&nbsp;</span><em style=\"box-sizing: border-box; user-select: text; color: #191813; font-family: Roboto, sans-serif;\">Pr&eacute;-requisito:</em><span style=\"color: #191813; font-family: Roboto, sans-serif;\">&nbsp;12&ordm; n&iacute;vel de guerreiro.</span></p>",
      "chat": "",
      "unidentified": ""
    },
    "source": "T20, pg. 65 (JdA)",
    "ativacao": {
      "execucao": "",
      "custo": 0,
      "qtd": "",
      "condicao": "",
      "special": ""
    },
    "duracao": {
      "value": 0,
      "units": "",
      "special": ""
    },
    "target": {
      "value": null,
      "width": null,
      "units": "",
      "type": ""
    },
    "range": {
      "value": null,
      "units": ""
    },
    "consume": {
      "type": "",
      "target": "",
      "amount": null,
      "mpMultiplier": false
    },
    "efeito": "",
    "alcance": "none",
    "alvo": "",
    "area": "",
    "resistencia": {
      "pericia": "",
      "atributo": "sab",
      "bonus": 0,
      "txt": ""
    },
    "rolls": [],
    "tipo": "classe",
    "subtipo": "Guerreiro",
    "chatFlavor": "",
    "origin": "",
    "tags": [],
    "chatGif": ""
  },
  "ownership": {
    "default": 0
  },
  "_stats": {
    "systemId": "tormenta20",
    "systemVersion": "1.4.116",
    "coreVersion": "11.298",
    "createdTime": 1664306184240,
    "modifiedTime": 1684630371462,
    "lastModifiedBy": "ZWR5Tn3AhSIFqwp6"
  },
  "_key": "!items!KFGQMJDKyccD7Fie"
}
