{
  "_id": "4Uwm4gBdl8CIGGbX",
  "name": "Flagelo dos Mares",
  "type": "poder",
  "img": "systems/tormenta20/icons/classes/bucaneiro.webp",
  "effects": [],
  "folder": "86kIqRb842xHRnBV",
  "sort": 0,
  "flags": {
    "core": {
      "sourceId": "Compendium.tormenta20.poderes.4Uwm4gBdl8CIGGbX"
    }
  },
  "system": {
    "description": {
      "value": "<p style=\"text-align: justify;\">Voc&ecirc; aprende e pode lan&ccedil;ar Amedrontar (atributo-chave Carisma). Esta n&atilde;o &eacute; uma habilidade m&aacute;gica e prov&eacute;m de sua capacidade de incutir medo em seus inimigos.</p>\n<p style=\"text-align: justify;\"><em>Pr&eacute;-requisito:</em> treinado em Intimida&ccedil;&atilde;o.</p>\n<p style=\"text-align: justify;\">&nbsp;</p>\n<p style=\"text-align: justify;\">&nbsp;</p>",
      "chat": "",
      "unidentified": ""
    },
    "source": "T20, pg. 48 (JdA)",
    "ativacao": {
      "execucao": "",
      "custo": 0,
      "qtd": "",
      "condicao": "",
      "special": ""
    },
    "duracao": {
      "value": 0,
      "units": "",
      "special": ""
    },
    "target": {
      "value": null,
      "width": null,
      "units": "",
      "type": ""
    },
    "range": {
      "value": null,
      "units": ""
    },
    "consume": {
      "type": "",
      "target": "",
      "amount": null,
      "mpMultiplier": false
    },
    "efeito": "",
    "alcance": "none",
    "alvo": "",
    "area": "",
    "resistencia": {
      "pericia": "",
      "atributo": "sab",
      "bonus": 0,
      "txt": ""
    },
    "rolls": [],
    "tipo": "classe",
    "subtipo": "Bucaneiro",
    "chatFlavor": "",
    "origin": "",
    "tags": [],
    "chatGif": ""
  },
  "ownership": {
    "default": 0
  },
  "_stats": {
    "systemId": "tormenta20",
    "systemVersion": "1.4.116",
    "coreVersion": "11.298",
    "createdTime": 1658361716789,
    "modifiedTime": 1684630371462,
    "lastModifiedBy": "ZWR5Tn3AhSIFqwp6"
  },
  "_key": "!items!4Uwm4gBdl8CIGGbX"
}
