{
  "_id": "TXja4zA1sQRnE65j",
  "name": "Fluxo de Mana",
  "type": "poder",
  "img": "systems/tormenta20/icons/classes/arcanista.webp",
  "effects": [
    {
      "label": "Fluxo de Mana: Permite manter duas magias sustentadas ao mesmo tempo.",
      "icon": "icons/svg/upgrade.svg",
      "origin": "Item.TXja4zA1sQRnE65j",
      "tint": "#FFFFFF",
      "flags": {
        "tormenta20": {
          "onuse": true,
          "durationScene": false,
          "self": false,
          "attack": false,
          "skill": false,
          "ability": false,
          "power": false,
          "spell": true,
          "consumable": false,
          "items": "",
          "aumenta": false,
          "custo": ""
        }
      },
      "duration": {
        "startTime": null,
        "seconds": null,
        "combat": null,
        "rounds": null,
        "turns": null,
        "startRound": null,
        "startTurn": null
      },
      "disabled": true,
      "_id": "iUU7phNvPgAs8Dn6",
      "changes": [],
      "transfer": true,
      "_key": "!items.effects!TXja4zA1sQRnE65j.iUU7phNvPgAs8Dn6"
    }
  ],
  "folder": "dB8yQeNYIsAMdhNN",
  "sort": 0,
  "flags": {
    "core": {
      "sourceId": "Compendium.tormenta20.poderes.TXja4zA1sQRnE65j"
    }
  },
  "system": {
    "description": {
      "value": "<p style=\"text-align: justify;\">Voc&ecirc; pode manter dois efeitos sustentados ativos simultaneamente com apenas uma a&ccedil;&atilde;o livre, pagando o custo de cada efeito separadamente. <em>Pr&eacute;-requisito:</em> 10&ordm; n&iacute;vel de arcanista.</p>\n<p style=\"text-align: justify;\">&nbsp;</p>\n<p>&nbsp;</p>",
      "chat": "",
      "unidentified": ""
    },
    "source": "T20, pg. 38 (JdA)",
    "ativacao": {
      "execucao": "",
      "custo": 0,
      "qtd": "",
      "condicao": "",
      "special": ""
    },
    "duracao": {
      "value": 0,
      "units": "",
      "special": ""
    },
    "target": {
      "value": null,
      "width": null,
      "units": "",
      "type": ""
    },
    "range": {
      "value": null,
      "units": ""
    },
    "consume": {
      "type": "",
      "target": "",
      "amount": null,
      "mpMultiplier": false
    },
    "efeito": "",
    "alcance": "none",
    "alvo": "",
    "area": "",
    "resistencia": {
      "pericia": "",
      "atributo": "sab",
      "bonus": 0,
      "txt": ""
    },
    "rolls": [],
    "tipo": "classe",
    "subtipo": "Arcanista",
    "tags": [
      "Arcanista"
    ],
    "origin": "",
    "chatFlavor": "",
    "chatGif": ""
  },
  "ownership": {
    "default": 0
  },
  "_stats": {
    "systemId": "tormenta20",
    "systemVersion": "1.4.116",
    "coreVersion": "11.298",
    "createdTime": 1664306184313,
    "modifiedTime": 1684630371462,
    "lastModifiedBy": "ZWR5Tn3AhSIFqwp6"
  },
  "_key": "!items!TXja4zA1sQRnE65j"
}
