{
  "_id": "9YhaQMZRmwP5X4GI",
  "name": "Fuga Formidável",
  "type": "poder",
  "img": "systems/tormenta20/icons/classes/ladino.webp",
  "effects": [
    {
      "label": "Fuga Formidável",
      "icon": "systems/tormenta20/icons/classes/ladino.webp",
      "origin": "Item.9YhaQMZRmwP5X4GI",
      "tint": "#FFFFFF",
      "flags": {
        "tormenta20": {
          "onuse": false,
          "durationScene": true
        }
      },
      "duration": {
        "rounds": 1,
        "startTime": null,
        "seconds": null,
        "combat": null,
        "turns": null,
        "startRound": null,
        "startTurn": null
      },
      "disabled": false,
      "_id": "gZQ8sbwZGSzjC6l6",
      "changes": [
        {
          "key": "system.attributes.movement.walk",
          "mode": 2,
          "value": "3",
          "priority": null
        },
        {
          "key": "system.pericias.acro.bonus",
          "mode": 2,
          "value": "5",
          "priority": null
        },
        {
          "key": "system.pericias.atle.bonus",
          "mode": 2,
          "value": "5",
          "priority": null
        }
      ],
      "transfer": false,
      "_key": "!items.effects!9YhaQMZRmwP5X4GI.gZQ8sbwZGSzjC6l6"
    }
  ],
  "folder": "E9EyD0Wrr8C91ZpV",
  "sort": 0,
  "flags": {
    "core": {
      "sourceId": "Compendium.tormenta20.poderes.9YhaQMZRmwP5X4GI"
    }
  },
  "system": {
    "description": {
      "value": "<p style=\"text-align: justify;\">Voc&ecirc; pode gastar uma a&ccedil;&atilde;o completa e 1 PM para analisar o lugar no qual est&aacute; (um castelo, um porto, a pra&ccedil;a de uma cidade...). At&eacute; o fim da cena, recebe +3m em seu deslocamento, +5 em <a class=\"content-link\" draggable=\"true\" data-uuid=\"Compendium.tormenta20.pericias.hWto9ixrLcAV5Pg9\" data-id=\"hWto9ixrLcAV5Pg9\" data-type=\"JournalEntry\" data-pack=\"tormenta20.pericias\" data-tooltip=\"Registro de Di&aacute;rio\">Acrobacia</a> e <a class=\"content-link\" draggable=\"true\" data-uuid=\"Compendium.tormenta20.pericias.ZMXVeEARJHe4WsWx\" data-id=\"ZMXVeEARJHe4WsWx\" data-type=\"JournalEntry\" data-pack=\"tormenta20.pericias\" data-tooltip=\"Registro de Di&aacute;rio\">Atletismo</a> e ignora penalidades em movimento por terreno dif&iacute;cil. Voc&ecirc; perde esses benef&iacute;cios se fizer uma a&ccedil;&atilde;o que n&atilde;o seja diretamente relacionada a fugir. Por exemplo, voc&ecirc; s&oacute; pode atacar um inimigo se ele estiver bloqueando seu caminho, agarrando-o etc. Voc&ecirc; pode fazer a&ccedil;&otilde;es para ajudar seus aliados, mas apenas se eles estiverem tentando escapar.</p>\n<p style=\"text-align: justify;\"><em>Pr&eacute;-requisito:</em> Int 1.</p>",
      "chat": "",
      "unidentified": ""
    },
    "source": "T20, pg. 73 (JdA)",
    "ativacao": {
      "execucao": "full",
      "custo": 1,
      "qtd": "",
      "condicao": "",
      "special": ""
    },
    "duracao": {
      "value": 0,
      "units": "scene",
      "special": ""
    },
    "target": {
      "value": null,
      "width": null,
      "units": "",
      "type": ""
    },
    "range": {
      "value": null,
      "units": ""
    },
    "consume": {
      "type": "",
      "target": "",
      "amount": null,
      "mpMultiplier": false
    },
    "efeito": "",
    "alcance": "none",
    "alvo": "",
    "area": "",
    "resistencia": {
      "pericia": "",
      "atributo": "sab",
      "bonus": 0,
      "txt": ""
    },
    "rolls": [],
    "tipo": "classe",
    "subtipo": "Ladino",
    "origin": "",
    "tags": [],
    "chatFlavor": "",
    "chatGif": ""
  },
  "ownership": {
    "default": 0
  },
  "_stats": {
    "systemId": "tormenta20",
    "systemVersion": "1.4.116",
    "coreVersion": "11.298",
    "createdTime": 1664306183397,
    "modifiedTime": 1684630371462,
    "lastModifiedBy": "ZWR5Tn3AhSIFqwp6"
  },
  "_key": "!items!9YhaQMZRmwP5X4GI"
}
