{
  "_id": "IsiEW9wrimHYgrAB",
  "name": "General",
  "type": "poder",
  "img": "systems/tormenta20/icons/classes/nobre.webp",
  "effects": [],
  "folder": "1gk4CeDo7oR1b0oD",
  "sort": 0,
  "flags": {
    "core": {
      "sourceId": "Compendium.tormenta20.poderes.IsiEW9wrimHYgrAB"
    }
  },
  "system": {
    "description": {
      "value": "<p style=\"text-align: justify;\">Quando voc&ecirc; usa o poder Estrategista, os aliados direcionados recebem 1d4 PM tempor&aacute;rios. Esses PM duram at&eacute; o fim do turno do aliado e n&atilde;o podem ser usados em efeitos que concedam PM.</p>\n<p style=\"text-align: justify;\"><em>Pr&eacute;-requisitos:</em> Estrategista, 12&ordm; n&iacute;vel de nobre.</p>",
      "chat": "",
      "unidentified": ""
    },
    "source": "T20, pg. 79 (JdA)",
    "ativacao": {
      "execucao": "",
      "custo": 0,
      "qtd": "",
      "condicao": "",
      "special": ""
    },
    "duracao": {
      "value": 0,
      "units": "",
      "special": ""
    },
    "target": {
      "value": null,
      "width": null,
      "units": "",
      "type": ""
    },
    "range": {
      "value": null,
      "units": ""
    },
    "consume": {
      "type": "",
      "target": "",
      "amount": null,
      "mpMultiplier": false
    },
    "efeito": "",
    "alcance": "none",
    "alvo": "",
    "area": "",
    "resistencia": {
      "pericia": "",
      "atributo": "sab",
      "bonus": 0,
      "txt": ""
    },
    "rolls": [],
    "tipo": "classe",
    "subtipo": "Nobre",
    "origin": "",
    "tags": [],
    "chatFlavor": "",
    "chatGif": ""
  },
  "ownership": {
    "default": 0
  },
  "_stats": {
    "systemId": "tormenta20",
    "systemVersion": "1.4.116",
    "coreVersion": "11.298",
    "createdTime": 1664306183908,
    "modifiedTime": 1684630371462,
    "lastModifiedBy": "ZWR5Tn3AhSIFqwp6"
  },
  "_key": "!items!IsiEW9wrimHYgrAB"
}
