{
  "folder": "QGUINw3j11V74Mmz",
  "name": "Goblin",
  "sorting": "a",
  "type": "Item",
  "_id": "dlQytstdFJCCmHM7",
  "sort": 0,
  "flags": {},
  "_stats": {
    "systemId": null,
    "systemVersion": null,
    "coreVersion": null,
    "createdTime": null,
    "modifiedTime": null,
    "lastModifiedBy": null
  },
  "_key": "!folders!dlQytstdFJCCmHM7"
}
