{
  "folder": "VzNpCz1wSE1Ln6lH",
  "name": "Honra",
  "sorting": "a",
  "type": "Item",
  "_id": "V5hYfhWEZtO9YVsO",
  "sort": 0,
  "flags": {},
  "_stats": {
    "systemId": null,
    "systemVersion": null,
    "coreVersion": null,
    "createdTime": null,
    "modifiedTime": null,
    "lastModifiedBy": null
  },
  "_key": "!folders!V5hYfhWEZtO9YVsO"
}
