{
  "folder": "QGUINw3j11V74Mmz",
  "name": "Hynne",
  "sorting": "a",
  "type": "Item",
  "_id": "5QQ32VlTEvkqmLdn",
  "sort": 0,
  "flags": {},
  "_stats": {
    "systemId": null,
    "systemVersion": null,
    "coreVersion": null,
    "createdTime": null,
    "modifiedTime": null,
    "lastModifiedBy": null
  },
  "_key": "!folders!5QQ32VlTEvkqmLdn"
}
