{
  "_id": "dyQ0t1RSQmmtxc4S",
  "name": "Julgamento Divino: Justiça",
  "type": "poder",
  "img": "systems/tormenta20/icons/classes/paladino.webp",
  "effects": [
    {
      "label": "Marcar Inimigo",
      "icon": "systems/tormenta20/icons/classes/paladino.webp",
      "origin": "Item.dyQ0t1RSQmmtxc4S",
      "tint": "#FFFFFF",
      "flags": {
        "tormenta20": {
          "onuse": false,
          "durationScene": true
        }
      },
      "duration": {
        "rounds": 1,
        "startTime": null,
        "seconds": null,
        "combat": null,
        "turns": null,
        "startRound": null,
        "startTurn": null
      },
      "disabled": false,
      "_id": "qZNLPmF5qH5Jp8AD",
      "changes": [],
      "transfer": false,
      "_key": "!items.effects!dyQ0t1RSQmmtxc4S.qZNLPmF5qH5Jp8AD"
    }
  ],
  "folder": "VwM7ZxttHPFuX6M4",
  "sort": 0,
  "flags": {
    "core": {
      "sourceId": "Compendium.tormenta20.poderes.dyQ0t1RSQmmtxc4S"
    }
  },
  "system": {
    "description": {
      "value": "<p style=\"text-align: justify;\">Voc&ecirc; pode gastar 2 PM para marcar um inimigo em alcance curto. A pr&oacute;xima vez que esse inimigo causar dano em voc&ecirc; ou em um de seus aliados, deve fazer um teste de Vontade (CD Car). Se falhar, sofre dano de luz igual &agrave; metade do dano que causou.</p>\n<p style=\"text-align: justify;\">&nbsp;</p>\n<p style=\"text-align: justify;\"><strong>Julgamentos Divinos</strong></p>\n<p style=\"text-align: justify;\">Alguns poderes do paladino s&atilde;o Julgamentos Divinos. Esses poderes compartilham as seguintes regras.</p>\n<p style=\"text-align: justify;\">&bull; Proferir um julgamento gasta uma a&ccedil;&atilde;o de movimento, a menos que a descri&ccedil;&atilde;o diga o contr&aacute;rio.</p>\n<p style=\"text-align: justify;\">&bull; Julgamentos que n&atilde;o t&ecirc;m um efeito instant&acirc;neo duram at&eacute; o fim da cena.</p>\n<p style=\"text-align: justify;\">&bull; Uma mesma criatura pode ser alvo de v&aacute;rios julgamentos diferentes, mas efeitos do mesmo julgamento n&atilde;o se acumulam.</p>",
      "chat": "",
      "unidentified": ""
    },
    "source": "",
    "ativacao": {
      "execucao": "",
      "custo": 2,
      "qtd": "",
      "condicao": "",
      "special": ""
    },
    "duracao": {
      "value": 0,
      "units": "",
      "special": ""
    },
    "target": {
      "value": null,
      "width": null,
      "units": "",
      "type": ""
    },
    "range": {
      "value": null,
      "units": ""
    },
    "consume": {
      "type": "",
      "target": "",
      "amount": null,
      "mpMultiplier": false
    },
    "efeito": "",
    "alcance": "none",
    "alvo": "",
    "area": "",
    "resistencia": {
      "pericia": "",
      "atributo": "car",
      "bonus": 0,
      "txt": "Vontade"
    },
    "rolls": [],
    "tipo": "classe",
    "subtipo": "Paladino",
    "origin": "",
    "tags": [],
    "chatFlavor": "",
    "chatGif": ""
  },
  "ownership": {
    "default": 0
  },
  "_stats": {
    "systemId": "tormenta20",
    "systemVersion": "1.4.116",
    "coreVersion": "11.298",
    "createdTime": 1664306184745,
    "modifiedTime": 1684630371462,
    "lastModifiedBy": "ZWR5Tn3AhSIFqwp6"
  },
  "_key": "!items!dyQ0t1RSQmmtxc4S"
}
