{
  "_id": "me2utFcHVX2UsXyN",
  "name": "Liderar pelo Exemplo",
  "type": "poder",
  "img": "systems/tormenta20/icons/classes/nobre.webp",
  "effects": [
    {
      "label": "Liderar Pelo Exemplo.",
      "icon": "icons/svg/upgrade.svg",
      "origin": "Item.me2utFcHVX2UsXyN",
      "tint": "#FFFFFF",
      "flags": {
        "tormenta20": {
          "onuse": true,
          "durationScene": false,
          "self": false,
          "attack": true,
          "skill": true,
          "ability": false,
          "power": false,
          "spell": false,
          "consumable": false,
          "items": "",
          "aumenta": false,
          "custo": "2"
        }
      },
      "duration": {
        "startTime": null,
        "seconds": null,
        "combat": null,
        "rounds": null,
        "turns": null,
        "startRound": null,
        "startTurn": null
      },
      "disabled": true,
      "_id": "Y1SPWRNPghwk0uce",
      "changes": [],
      "transfer": true,
      "_key": "!items.effects!me2utFcHVX2UsXyN.Y1SPWRNPghwk0uce"
    }
  ],
  "folder": "1gk4CeDo7oR1b0oD",
  "sort": 0,
  "flags": {
    "core": {
      "sourceId": "Compendium.tormenta20.poderes.me2utFcHVX2UsXyN"
    }
  },
  "system": {
    "description": {
      "value": "<p style=\"text-align: justify;\">Voc&ecirc; pode pagar 2 PM para servir de inspira&ccedil;&atilde;o. At&eacute; o in&iacute;cio de seu pr&oacute;ximo turno, sempre que voc&ecirc; passar em um teste de per&iacute;cia, aliados em alcance curto que fizerem um teste da mesma per&iacute;cia podem usar o resultado total do seu teste em vez de rolar o dado.</p>\n<p style=\"text-align: justify;\"><em>Pr&eacute;-requisito:</em> 6&ordm; n&iacute;vel de nobre.</p>",
      "chat": "",
      "unidentified": ""
    },
    "source": "T20, pg. 80 (JdA)",
    "ativacao": {
      "execucao": "",
      "custo": 2,
      "qtd": "",
      "condicao": "",
      "special": ""
    },
    "duracao": {
      "value": 0,
      "units": "",
      "special": ""
    },
    "target": {
      "value": null,
      "width": null,
      "units": "",
      "type": ""
    },
    "range": {
      "value": null,
      "units": ""
    },
    "consume": {
      "type": "",
      "target": "",
      "amount": null,
      "mpMultiplier": false
    },
    "efeito": "",
    "alcance": "none",
    "alvo": "",
    "area": "",
    "resistencia": {
      "pericia": "",
      "atributo": "sab",
      "bonus": 0,
      "txt": ""
    },
    "rolls": [],
    "tipo": "classe",
    "subtipo": "Nobre",
    "origin": "",
    "tags": [],
    "chatFlavor": "",
    "chatGif": ""
  },
  "ownership": {
    "default": 0
  },
  "_stats": {
    "systemId": "tormenta20",
    "systemVersion": "1.4.116",
    "coreVersion": "11.298",
    "createdTime": 1664306185148,
    "modifiedTime": 1684630371462,
    "lastModifiedBy": "ZWR5Tn3AhSIFqwp6"
  },
  "_key": "!items!me2utFcHVX2UsXyN"
}
