{
  "name": "Linhagem Rubra Básica",
  "type": "poder",
  "img": "systems/tormenta20/icons/poderes/classes/conjuradores/linhagem-rubra.webp",
  "effects": [],
  "folder": "dB8yQeNYIsAMdhNN",
  "sort": 0,
  "flags": {
    "core": {
      "sourceId": "Compendium.tormenta20.poderes.mxfiUS6qhgYrQdtT"
    }
  },
  "_id": "j7UGNfhrx5OonTZb",
  "system": {
    "description": {
      "value": "<p style=\"text-align: justify;\">Seu sangue foi corrompido pela Tormenta.</p>\n<ul>\n<li style=\"text-align: justify;\">B&aacute;sica. Voc&ecirc; recebe um poder da Tormenta. Al&eacute;m disso, pode perder outro atributo em vez de Carisma por poderes da Tormenta.</li>\n</ul>\n<p>&nbsp;</p>",
      "chat": "",
      "unidentified": ""
    },
    "source": "T20, pg. 39 (JdA)",
    "ativacao": {
      "execucao": "",
      "custo": 0,
      "qtd": "",
      "condicao": "",
      "special": ""
    },
    "duracao": {
      "value": 0,
      "units": "",
      "special": ""
    },
    "target": {
      "value": null,
      "width": null,
      "units": "",
      "type": ""
    },
    "range": {
      "value": null,
      "units": ""
    },
    "consume": {
      "type": "",
      "target": "",
      "amount": null,
      "mpMultiplier": false
    },
    "efeito": "",
    "alcance": "none",
    "alvo": "",
    "area": "",
    "resistencia": {
      "pericia": "",
      "atributo": "sab",
      "bonus": 0,
      "txt": ""
    },
    "rolls": [],
    "tipo": "ability",
    "subtipo": "Arcanista",
    "tags": [
      "Arcanista"
    ],
    "origin": "",
    "chatFlavor": "",
    "chatGif": ""
  },
  "ownership": {
    "default": 0,
    "0bS8PF9mUpBd2z0H": 3
  },
  "_stats": {
    "systemId": "tormenta20",
    "systemVersion": "1.4.116",
    "coreVersion": "11.298",
    "createdTime": 1664306185127,
    "modifiedTime": 1684630371462,
    "lastModifiedBy": "ZWR5Tn3AhSIFqwp6"
  },
  "_key": "!items!j7UGNfhrx5OonTZb"
}
