{
  "_id": "bqHFUy21nlVSAPxA",
  "name": "Magia Pungente",
  "type": "poder",
  "img": "systems/tormenta20/icons/classes/arcanista.webp",
  "effects": [
    {
      "_id": "6Jkq9yGAKDF4ehrP",
      "flags": {
        "t20": null,
        "tormenta20": {
          "onuse": true,
          "spell": true,
          "self": false,
          "attack": false,
          "skill": false,
          "ability": false,
          "power": false,
          "consumable": false,
          "aumenta": false,
          "custo": "1",
          "durationScene": false
        }
      },
      "changes": [
        {
          "key": "cd",
          "value": "2",
          "mode": 2,
          "priority": null
        }
      ],
      "disabled": true,
      "duration": {
        "startTime": null,
        "seconds": null,
        "combat": null,
        "rounds": null,
        "turns": null,
        "startRound": null,
        "startTurn": null
      },
      "icon": "icons/svg/upgrade.svg",
      "label": "Magia Pungente",
      "origin": "Item.hIt3DLcHe6OotSob",
      "tint": null,
      "transfer": true,
      "_key": "!items.effects!bqHFUy21nlVSAPxA.6Jkq9yGAKDF4ehrP"
    }
  ],
  "folder": "dB8yQeNYIsAMdhNN",
  "sort": 0,
  "flags": {
    "core": {
      "sourceId": "Compendium.tormenta20.poderes.bqHFUy21nlVSAPxA"
    }
  },
  "system": {
    "description": {
      "value": "<p style=\"text-align: justify;\">Quando lan&ccedil;a uma magia, voc&ecirc; pode pagar 1 PM para aumentar em +2 a CD para resistir a ela.</p>\n<p style=\"text-align: justify;\">&nbsp;</p>\n<p style=\"text-align: justify;\">&nbsp;</p>",
      "chat": "",
      "unidentified": ""
    },
    "source": "T20, pg. 38 (JdA)",
    "ativacao": {
      "execucao": "",
      "custo": 1,
      "qtd": "",
      "condicao": "",
      "special": ""
    },
    "duracao": {
      "value": 0,
      "units": "",
      "special": ""
    },
    "target": {
      "value": null,
      "width": null,
      "units": "",
      "type": ""
    },
    "range": {
      "value": null,
      "units": ""
    },
    "consume": {
      "type": "",
      "target": "",
      "amount": null,
      "mpMultiplier": false
    },
    "efeito": "",
    "alcance": "none",
    "alvo": "",
    "area": "",
    "resistencia": {
      "pericia": "",
      "atributo": "sab",
      "bonus": 0,
      "txt": ""
    },
    "rolls": [],
    "tipo": "classe",
    "subtipo": "Arcanista",
    "tags": [
      "Arcanista"
    ],
    "origin": "",
    "chatFlavor": "",
    "chatGif": ""
  },
  "ownership": {
    "default": 0
  },
  "_stats": {
    "systemId": "tormenta20",
    "systemVersion": "1.4.116",
    "coreVersion": "11.298",
    "createdTime": 1664306184741,
    "modifiedTime": 1684630371462,
    "lastModifiedBy": "ZWR5Tn3AhSIFqwp6"
  },
  "_key": "!items!bqHFUy21nlVSAPxA"
}
