{
  "name": "Piqueiro",
  "type": "poder",
  "img": "systems/tormenta20/icons/poderes/combate.webp",
  "effects": [],
  "flags": {
    "core": {
      "sourceId": "Compendium.tormenta20.poderes.7DU7ZlX5OiX257HF"
    }
  },
  "system": {
    "description": {
      "value": "<p style=\"text-align: justify;\">Uma vez por rodada, se estiver empunhando uma arma alongada e um inimigo entrar voluntariamente em seu alcance corpo a corpo, voc&ecirc; pode gastar 1 PM para fazer um ataque corpo a corpo contra este oponente com esta arma. Se o oponente tiver se aproximado fazendo uma investida, seu ataque causa dois dados de dano extra do mesmo tipo.</p>\n<p style=\"text-align: justify;\"><em>Pr&eacute;-requisito:</em> Estilo de Arma Longa.</p>",
      "chat": "",
      "unidentified": ""
    },
    "source": "T20, pg. 128 (JdA)",
    "ativacao": {
      "execucao": "reaction",
      "custo": 1,
      "qtd": "",
      "condicao": "",
      "special": ""
    },
    "duracao": {
      "value": 0,
      "units": "",
      "special": ""
    },
    "target": {
      "value": null,
      "width": null,
      "units": "",
      "type": ""
    },
    "range": {
      "value": null,
      "units": ""
    },
    "consume": {
      "type": "",
      "target": "",
      "amount": null,
      "mpMultiplier": false
    },
    "efeito": "",
    "alcance": "none",
    "alvo": "",
    "area": "",
    "resistencia": {
      "pericia": "",
      "atributo": "sab",
      "bonus": 0,
      "txt": ""
    },
    "rolls": [],
    "tipo": "geral",
    "subtipo": "Combate",
    "origin": "",
    "tags": [],
    "chatFlavor": "",
    "chatGif": ""
  },
  "_stats": {
    "systemId": "tormenta20",
    "systemVersion": "1.4.116",
    "coreVersion": "11.298",
    "createdTime": 1664306183325,
    "modifiedTime": 1684630371462,
    "lastModifiedBy": "ZWR5Tn3AhSIFqwp6"
  },
  "_id": "G44FbFJiXoeHW5Z6",
  "folder": "Rgbah8U70jOKi5DF",
  "sort": 0,
  "ownership": {
    "default": 0,
    "tIn9sSkrT3mDWirx": 3
  },
  "_key": "!items!G44FbFJiXoeHW5Z6"
}
