{
  "_id": "OuuBxkiipKEs4ycx",
  "name": "Presença Aristocrática",
  "type": "poder",
  "img": "systems/tormenta20/icons/classes/nobre.webp",
  "effects": [],
  "folder": "1gk4CeDo7oR1b0oD",
  "sort": 0,
  "flags": {
    "core": {
      "sourceId": "Compendium.tormenta20.poderes.OuuBxkiipKEs4ycx"
    }
  },
  "system": {
    "description": {
      "value": "<p style=\"text-align: justify;\">A partir do 5&ordm; n&iacute;vel, sempre que uma criatura inteligente tentar machuc&aacute;-lo (causar dano com um ataque, magia ou habilidade) voc&ecirc; pode gastar 2 PM. Se fizer isso, a criatura deve fazer um teste de Vontade (CD Car). Se falhar, n&atilde;o conseguir&aacute; machuc&aacute;-lo e perder&aacute; a a&ccedil;&atilde;o. Voc&ecirc; s&oacute; pode usar esta habilidade uma vez por cena contra cada criatura.</p>",
      "chat": "",
      "unidentified": ""
    },
    "source": "T20, pg. 80 (JdA)",
    "ativacao": {
      "execucao": "reaction",
      "custo": 2,
      "qtd": "",
      "condicao": "",
      "special": ""
    },
    "duracao": {
      "value": 0,
      "units": "",
      "special": ""
    },
    "target": {
      "value": null,
      "width": null,
      "units": "",
      "type": ""
    },
    "range": {
      "value": null,
      "units": ""
    },
    "consume": {
      "type": "",
      "target": "",
      "amount": null,
      "mpMultiplier": false
    },
    "efeito": "",
    "alcance": "none",
    "alvo": "",
    "area": "",
    "resistencia": {
      "pericia": "",
      "atributo": "car",
      "bonus": 0,
      "txt": "Vontade"
    },
    "rolls": [],
    "tipo": "ability",
    "subtipo": "Nobre",
    "origin": "",
    "tags": [],
    "chatFlavor": "",
    "chatGif": ""
  },
  "ownership": {
    "default": 0
  },
  "_stats": {
    "systemId": "tormenta20",
    "systemVersion": "1.4.116",
    "coreVersion": "11.298",
    "createdTime": 1664306184257,
    "modifiedTime": 1684630371462,
    "lastModifiedBy": "ZWR5Tn3AhSIFqwp6"
  },
  "_key": "!items!OuuBxkiipKEs4ycx"
}
