{
  "_id": "AdtKhdDbNfEfC9bd",
  "name": "Punguista",
  "type": "poder",
  "img": "systems/tormenta20/icons/poderes/origem.webp",
  "effects": [],
  "folder": "O7XebEr47qNV8g6X",
  "sort": 0,
  "flags": {
    "core": {
      "sourceId": "Compendium.tormenta20.poderes.AdtKhdDbNfEfC9bd"
    }
  },
  "system": {
    "description": {
      "value": "<p>Voc&ecirc; pode fazer testes de @UUID[Compendium.tormenta20.basico.gPPLzgFvC0JKi5UE.JournalEntryPage.Ic17BdCyk6Eb4fE5]{Ladinagem} para sustento (como a per&iacute;cia Of&iacute;cio), mas em apenas um dia. Se passar, recebe o dobro do dinheiro, mas, se falhar, pode ter problemas com a lei (a crit&eacute;rio do mestre).</p>",
      "chat": "",
      "unidentified": ""
    },
    "source": "T20, pg. 89 (JdA)",
    "ativacao": {
      "execucao": "",
      "custo": 0,
      "qtd": "",
      "condicao": "",
      "special": ""
    },
    "duracao": {
      "value": 0,
      "units": "",
      "special": ""
    },
    "target": {
      "value": null,
      "width": null,
      "units": "",
      "type": ""
    },
    "range": {
      "value": null,
      "units": ""
    },
    "consume": {
      "type": "",
      "target": "",
      "amount": null,
      "mpMultiplier": false
    },
    "efeito": "",
    "alcance": "none",
    "alvo": "",
    "area": "",
    "resistencia": {
      "pericia": "",
      "atributo": "sab",
      "bonus": 0,
      "txt": ""
    },
    "rolls": [],
    "tipo": "origem",
    "subtipo": "Criminoso",
    "origin": "",
    "tags": [],
    "chatFlavor": "",
    "chatGif": ""
  },
  "ownership": {
    "default": 0
  },
  "_stats": {
    "systemId": "tormenta20",
    "systemVersion": "1.4.116",
    "coreVersion": "11.298",
    "createdTime": 1664306183806,
    "modifiedTime": 1684630371462,
    "lastModifiedBy": "ZWR5Tn3AhSIFqwp6"
  },
  "_key": "!items!AdtKhdDbNfEfC9bd"
}
