{
  "_id": "959wpT3zgDErAGpY",
  "name": "Rejeição Divina",
  "type": "poder",
  "img": "systems/tormenta20/icons/poderes/concedidos-tormenta.webp",
  "effects": [
    {
      "label": "Rejeição Divina",
      "icon": "icons/svg/upgrade.svg",
      "origin": "Item.959wpT3zgDErAGpY",
      "tint": "#FFFFFF",
      "flags": {
        "tormenta20": {
          "onuse": true,
          "durationScene": false,
          "self": false,
          "attack": false,
          "skill": true,
          "ability": false,
          "power": false,
          "spell": false,
          "consumable": false,
          "items": "fortitude;reflexos;vontade",
          "aumenta": false,
          "custo": ""
        }
      },
      "duration": {
        "startTime": null,
        "seconds": null,
        "combat": null,
        "rounds": null,
        "turns": null,
        "startRound": null,
        "startTurn": null
      },
      "disabled": true,
      "_id": "QtheeTb9TiiZewal",
      "changes": [
        {
          "key": "roll",
          "mode": 2,
          "value": "5",
          "priority": 0
        }
      ],
      "transfer": true,
      "_key": "!items.effects!959wpT3zgDErAGpY.QtheeTb9TiiZewal"
    }
  ],
  "folder": "HjhUvn5HZU3mYJoL",
  "sort": 150000,
  "flags": {
    "core": {
      "sourceId": "Compendium.tormenta20.poderes.959wpT3zgDErAGpY"
    }
  },
  "system": {
    "description": {
      "value": "<p style=\"text-align: justify;\">Voc&ecirc; recebe resist&ecirc;ncia a magia divina +5.</p>",
      "chat": "",
      "unidentified": ""
    },
    "source": "T20, pg. 135 (JdA)",
    "ativacao": {
      "execucao": "",
      "custo": 0,
      "qtd": "",
      "condicao": "",
      "special": ""
    },
    "duracao": {
      "value": 0,
      "units": "",
      "special": ""
    },
    "target": {
      "value": null,
      "width": null,
      "units": "",
      "type": ""
    },
    "range": {
      "value": null,
      "units": ""
    },
    "consume": {
      "type": "",
      "target": "",
      "amount": null,
      "mpMultiplier": false
    },
    "efeito": "",
    "alcance": "none",
    "alvo": "",
    "area": "",
    "resistencia": {
      "pericia": "",
      "atributo": "sab",
      "bonus": 0,
      "txt": ""
    },
    "rolls": [],
    "tipo": "concedido",
    "subtipo": "Tormenta",
    "origin": "",
    "tags": [],
    "chatFlavor": "",
    "chatGif": ""
  },
  "ownership": {
    "default": 0
  },
  "_stats": {
    "systemId": "tormenta20",
    "systemVersion": "1.4.116",
    "coreVersion": "11.298",
    "createdTime": 1664306183332,
    "modifiedTime": 1684800490620,
    "lastModifiedBy": "ZWR5Tn3AhSIFqwp6"
  },
  "_key": "!items!959wpT3zgDErAGpY"
}
