{
  "name": "Síntese Rápida",
  "type": "poder",
  "img": "icons/commodities/tech/cog-brass.webp",
  "effects": [],
  "flags": {
    "scene-packer": {
      "sourceId": "Item.D0yEaW8O2v7PoN6D",
      "defaultPermission": 3,
      "hash": "d3af0c955ea97c9c6717d18bb7655a2dc3d07fb2"
    },
    "cf": null,
    "core": {
      "sourceId": "Compendium.world.world-arielton-1663050699947.mTJri7BFEFyac0aj"
    }
  },
  "system": {
    "description": {
      "value": "<p style=\"text-align: justify;\">Quando fabrica um item alqu&iacute;mico ou po&ccedil;&atilde;o, voc&ecirc; pode fabricar o dobro de doses no mesmo tempo (pagando o custo de mat&eacute;ria-prima de cada uma).</p>\n<p style=\"text-align: justify;\">Pr&eacute;-requisito: Alquimista Iniciado.</p>",
      "chat": "",
      "unidentified": ""
    },
    "source": "T20, pg. 70 (JdA)",
    "ativacao": {
      "execucao": "",
      "custo": 0,
      "qtd": "",
      "condicao": "",
      "special": ""
    },
    "duracao": {
      "value": 0,
      "units": "",
      "special": ""
    },
    "target": {
      "value": null,
      "width": null,
      "units": "",
      "type": ""
    },
    "range": {
      "value": null,
      "units": ""
    },
    "consume": {
      "type": "",
      "target": "",
      "amount": null,
      "mpMultiplier": false
    },
    "efeito": "",
    "alcance": "none",
    "alvo": "",
    "area": "",
    "resistencia": {
      "pericia": "",
      "atributo": "",
      "bonus": 0,
      "txt": ""
    },
    "rolls": [],
    "tipo": "classe",
    "subtipo": "inventor",
    "chatFlavor": "",
    "origin": "",
    "tags": [],
    "chatGif": ""
  },
  "_stats": {
    "systemId": "tormenta20",
    "systemVersion": "1.4.116",
    "coreVersion": "11.298",
    "createdTime": 1663051646952,
    "modifiedTime": 1684630371462,
    "lastModifiedBy": "ZWR5Tn3AhSIFqwp6"
  },
  "_id": "oTpjKYDPuRqirI9j",
  "folder": "iHjbUWZ9cRzIVZ3E",
  "sort": 0,
  "ownership": {
    "default": 0,
    "tIn9sSkrT3mDWirx": 3
  },
  "_key": "!items!oTpjKYDPuRqirI9j"
}
