{
  "_id": "tkixzUzqKytmZJW0",
  "name": "Sangue Ofídico",
  "type": "poder",
  "img": "systems/tormenta20/icons/poderes/concedidos-traicao.webp",
  "effects": [
    {
      "label": "Sangue Ofídico",
      "icon": "systems/tormenta20/icons/poderes/concedidos-traicao.webp",
      "origin": "Item.tkixzUzqKytmZJW0",
      "tint": "#FFFFFF",
      "flags": {
        "tormenta20": {
          "onuse": false,
          "durationScene": true
        }
      },
      "duration": {
        "startTime": null,
        "seconds": null,
        "combat": null,
        "rounds": null,
        "turns": null,
        "startRound": null,
        "startTurn": null
      },
      "disabled": false,
      "_id": "kz0qyMmEeYXOOtzn",
      "changes": [
        {
          "key": "system.tracos.resistencias.veneno.value",
          "mode": 2,
          "value": "5",
          "priority": null
        }
      ],
      "transfer": false,
      "_key": "!items.effects!tkixzUzqKytmZJW0.kz0qyMmEeYXOOtzn"
    },
    {
      "label": "Sangue Ofídico",
      "icon": "icons/svg/upgrade.svg",
      "origin": "Item.tkixzUzqKytmZJW0",
      "tint": "#FFFFFF",
      "flags": {
        "tormenta20": {
          "onuse": true,
          "durationScene": false,
          "self": false,
          "attack": false,
          "skill": false,
          "ability": false,
          "power": false,
          "spell": false,
          "consumable": true,
          "items": "",
          "aumenta": false,
          "custo": ""
        }
      },
      "duration": {
        "startTime": null,
        "seconds": null,
        "combat": null,
        "rounds": null,
        "turns": null,
        "startRound": null,
        "startTurn": null
      },
      "disabled": true,
      "_id": "oUgvcGZEJjVB7kFh",
      "changes": [
        {
          "key": "cd",
          "mode": 2,
          "value": "2",
          "priority": 0
        }
      ],
      "transfer": true,
      "_key": "!items.effects!tkixzUzqKytmZJW0.oUgvcGZEJjVB7kFh"
    }
  ],
  "folder": "s8308RXiyAhaEjoG",
  "sort": 0,
  "flags": {
    "core": {
      "sourceId": "Compendium.tormenta20.poderes.tkixzUzqKytmZJW0"
    }
  },
  "system": {
    "description": {
      "value": "<p style=\"text-align:justify;\">Você recebe resistência a veneno 5 e a CD para resistir aos seus venenos aumenta em +2.</p>",
      "chat": "",
      "unidentified": ""
    },
    "source": "T20, pg. 135 (JdA)",
    "ativacao": {
      "execucao": "",
      "custo": 0,
      "qtd": "",
      "condicao": "",
      "special": ""
    },
    "duracao": {
      "value": 0,
      "units": "",
      "special": ""
    },
    "target": {
      "value": null,
      "width": null,
      "units": "",
      "type": ""
    },
    "range": {
      "value": null,
      "units": ""
    },
    "consume": {
      "type": "",
      "target": "",
      "amount": null,
      "mpMultiplier": false
    },
    "efeito": "",
    "alcance": "none",
    "alvo": "",
    "area": "",
    "resistencia": {
      "pericia": "",
      "atributo": "sab",
      "bonus": 0,
      "txt": ""
    },
    "rolls": [],
    "tipo": "concedido",
    "subtipo": "Traição",
    "origin": "",
    "tags": [],
    "chatFlavor": "",
    "chatGif": ""
  },
  "ownership": {
    "default": 0
  },
  "_stats": {
    "systemId": "tormenta20",
    "systemVersion": "1.4.116",
    "coreVersion": "11.298",
    "createdTime": 1664306185651,
    "modifiedTime": 1684630371462,
    "lastModifiedBy": "ZWR5Tn3AhSIFqwp6"
  },
  "_key": "!items!tkixzUzqKytmZJW0"
}
