{
  "_id": "WPzGTcCS2SVX2m1h",
  "name": "Saqueador de Tumbas",
  "type": "poder",
  "img": "systems/tormenta20/icons/classes/ladino.webp",
  "effects": [
    {
      "label": "Saqueador de Tumbas: +5 em investigação para encontrar armadilhas e em testes de resistência contra elas.",
      "icon": "icons/svg/upgrade.svg",
      "origin": "Item.WPzGTcCS2SVX2m1h",
      "tint": "#FFFFFF",
      "flags": {
        "tormenta20": {
          "onuse": true,
          "durationScene": false,
          "self": false,
          "attack": false,
          "skill": true,
          "ability": false,
          "power": false,
          "spell": false,
          "consumable": false,
          "items": "Investigação;Fortitude;Reflexos;Vontade",
          "aumenta": false,
          "custo": "",
          "equipment": false
        }
      },
      "duration": {
        "startTime": null,
        "seconds": null,
        "combat": null,
        "rounds": null,
        "turns": null,
        "startRound": null,
        "startTurn": null
      },
      "disabled": true,
      "_id": "Te4WtpWdIUd89D0U",
      "changes": [
        {
          "key": "roll",
          "mode": 2,
          "value": "5",
          "priority": 0
        }
      ],
      "transfer": true,
      "_key": "!items.effects!WPzGTcCS2SVX2m1h.Te4WtpWdIUd89D0U"
    }
  ],
  "folder": "E9EyD0Wrr8C91ZpV",
  "sort": 0,
  "flags": {
    "core": {
      "sourceId": "Compendium.tormenta20.poderes.WPzGTcCS2SVX2m1h"
    }
  },
  "system": {
    "description": {
      "value": "<p style=\"text-align: justify;\">Voc&ecirc; recebe +5 em testes de @UUID[Compendium.tormenta20.pericias.ZAS0zJaPRJWg15ib]{Investiga&ccedil;&atilde;o}<span style=\"white-space: nowrap; background-color: rgb(221, 221, 221);\"> </span>para encontrar armadilhas e em testes de resist&ecirc;ncia contra elas. Al&eacute;m disso, gasta uma a&ccedil;&atilde;o padr&atilde;o para desabilitar mecanismos, em vez de 1d4 rodadas (veja a per&iacute;cia @UUID[Compendium.tormenta20.pericias.lcgrJelGuEGZ96C0]{Ladinagem}).</p>",
      "chat": "",
      "unidentified": ""
    },
    "source": "T20, pg. 74 (JdA)",
    "ativacao": {
      "execucao": "special",
      "custo": 0,
      "qtd": "",
      "condicao": "",
      "special": "Passivo, Padrão"
    },
    "duracao": {
      "value": 0,
      "units": "",
      "special": ""
    },
    "target": {
      "value": null,
      "width": null,
      "units": "",
      "type": ""
    },
    "range": {
      "value": null,
      "units": ""
    },
    "consume": {
      "type": "",
      "target": "",
      "amount": null,
      "mpMultiplier": false
    },
    "efeito": "",
    "alcance": "none",
    "alvo": "",
    "area": "",
    "resistencia": {
      "pericia": "",
      "atributo": "sab",
      "bonus": 0,
      "txt": ""
    },
    "rolls": [],
    "tipo": "classe",
    "subtipo": "Ladino",
    "origin": "",
    "tags": [],
    "chatFlavor": "",
    "chatGif": ""
  },
  "ownership": {
    "default": 0
  },
  "_stats": {
    "systemId": "tormenta20",
    "systemVersion": "1.4.116",
    "coreVersion": "11.298",
    "createdTime": 1664306184720,
    "modifiedTime": 1684630371462,
    "lastModifiedBy": "ZWR5Tn3AhSIFqwp6"
  },
  "_key": "!items!WPzGTcCS2SVX2m1h"
}
