{
  "_id": "xfgWUlAbj4PwvuPf",
  "name": "Saque Rápido",
  "type": "poder",
  "img": "systems/tormenta20/icons/poderes/combate.webp",
  "effects": [
    {
      "_id": "ZVQHsOxw5K6O8C1g",
      "flags": {
        "t20": null,
        "tormenta20": {
          "onuse": false,
          "durationScene": false
        }
      },
      "changes": [
        {
          "key": "system.pericias.inic.bonus",
          "mode": 2,
          "value": "2",
          "priority": null
        }
      ],
      "disabled": false,
      "duration": {
        "startTime": null,
        "seconds": null,
        "combat": null,
        "rounds": null,
        "turns": null,
        "startRound": null,
        "startTurn": null
      },
      "icon": "systems/tormenta20/icons/poderes/combate.webp",
      "label": "Saque Rápido",
      "origin": "Item.salHJB6BR1EApxNs",
      "tint": null,
      "transfer": true,
      "_key": "!items.effects!xfgWUlAbj4PwvuPf.ZVQHsOxw5K6O8C1g"
    }
  ],
  "folder": "Rgbah8U70jOKi5DF",
  "sort": 0,
  "flags": {
    "core": {
      "sourceId": "Compendium.tormenta20.poderes.xfgWUlAbj4PwvuPf"
    },
    "cf": null
  },
  "system": {
    "description": {
      "value": "<p style=\"text-align: justify;\">Voc&ecirc; recebe +2 em Iniciativa e pode sacar ou guardar itens como uma a&ccedil;&atilde;o livre (em vez de a&ccedil;&atilde;o de movimento). Al&eacute;m disso, a a&ccedil;&atilde;o que voc&ecirc; gasta para recarregar uma arma de disparo diminui em uma categoria (a&ccedil;&atilde;o completa para padr&atilde;o, padr&atilde;o para movimento, movimento para livre).</p>\n<p style=\"text-align: justify;\"><em>Pr&eacute;-requisito:</em> treinado em Iniciativa.</p>",
      "chat": "",
      "unidentified": ""
    },
    "source": "T20, pg. 129 (JdA)",
    "ativacao": {
      "execucao": "",
      "custo": 0,
      "qtd": "",
      "condicao": "",
      "special": ""
    },
    "duracao": {
      "value": 0,
      "units": "",
      "special": ""
    },
    "target": {
      "value": null,
      "width": null,
      "units": "",
      "type": ""
    },
    "range": {
      "value": null,
      "units": ""
    },
    "consume": {
      "type": "",
      "target": "",
      "amount": null,
      "mpMultiplier": false
    },
    "efeito": "",
    "alcance": "none",
    "alvo": "",
    "area": "",
    "resistencia": {
      "pericia": "",
      "atributo": "sab",
      "bonus": 0,
      "txt": ""
    },
    "rolls": [],
    "tipo": "geral",
    "subtipo": "Combate",
    "chatFlavor": "",
    "origin": "",
    "tags": [],
    "chatGif": ""
  },
  "ownership": {
    "default": 0
  },
  "_stats": {
    "systemId": "tormenta20",
    "systemVersion": "1.4.116",
    "coreVersion": "11.298",
    "createdTime": 1664306185702,
    "modifiedTime": 1684630371462,
    "lastModifiedBy": "ZWR5Tn3AhSIFqwp6"
  },
  "_key": "!items!xfgWUlAbj4PwvuPf"
}
