{
  "_id": "cprocYwfU9OSXgL1",
  "name": "Tranquilidade dos Lagos",
  "type": "poder",
  "img": "systems/tormenta20/icons/classes/druida.webp",
  "effects": [
    {
      "label": "Tranquilidade dos Lagos",
      "icon": "systems/tormenta20/icons/classes/druida.webp",
      "origin": "Item.cprocYwfU9OSXgL1",
      "tint": "#FFFFFF",
      "flags": {
        "tormenta20": {
          "onuse": false,
          "durationScene": false
        }
      },
      "duration": {
        "startTime": null,
        "seconds": null,
        "combat": null,
        "rounds": null,
        "turns": null,
        "startRound": null,
        "startTurn": null
      },
      "disabled": false,
      "_id": "aKRemBo6DMRbaSG2",
      "changes": [
        {
          "key": "system.pericias.vont.bonus",
          "mode": 2,
          "value": "2",
          "priority": null
        }
      ],
      "transfer": true,
      "_key": "!items.effects!cprocYwfU9OSXgL1.aKRemBo6DMRbaSG2"
    }
  ],
  "folder": "8LraP5E2KHsZTAz8",
  "sort": 0,
  "flags": {
    "core": {
      "sourceId": "Compendium.tormenta20.poderes.cprocYwfU9OSXgL1"
    }
  },
  "system": {
    "description": {
      "value": "<p style=\"text-align: justify;\">Voc&ecirc; recebe +2 em Vontade. Se estiver portando um recipiente com &aacute;gua (n&atilde;o precisa estar empunhando), uma vez por rodada, quando faz um teste de resist&ecirc;ncia, pode pagar 1 PM para refazer a rolagem.</p>",
      "chat": "",
      "unidentified": ""
    },
    "source": "T20, pg. 63 (JdA)",
    "ativacao": {
      "execucao": "",
      "custo": 1,
      "qtd": "",
      "condicao": "",
      "special": ""
    },
    "duracao": {
      "value": 0,
      "units": "",
      "special": ""
    },
    "target": {
      "value": null,
      "width": null,
      "units": "",
      "type": ""
    },
    "range": {
      "value": null,
      "units": ""
    },
    "consume": {
      "type": "",
      "target": "",
      "amount": null,
      "mpMultiplier": false
    },
    "efeito": "",
    "alcance": "none",
    "alvo": "",
    "area": "",
    "resistencia": {
      "pericia": "",
      "atributo": "sab",
      "bonus": 0,
      "txt": ""
    },
    "rolls": [],
    "tipo": "classe",
    "subtipo": "Druida",
    "origin": "",
    "tags": [],
    "chatFlavor": "",
    "chatGif": ""
  },
  "ownership": {
    "default": 0
  },
  "_stats": {
    "systemId": "tormenta20",
    "systemVersion": "1.4.116",
    "coreVersion": "11.298",
    "createdTime": 1664306184742,
    "modifiedTime": 1684630371462,
    "lastModifiedBy": "ZWR5Tn3AhSIFqwp6"
  },
  "_key": "!items!cprocYwfU9OSXgL1"
}
