{
  "_id": "GzCUpZohTh1j6BBX",
  "name": "Vendedor de Carcaças",
  "type": "poder",
  "img": "systems/tormenta20/icons/poderes/origem.webp",
  "effects": [],
  "folder": "O7XebEr47qNV8g6X",
  "sort": 0,
  "flags": {
    "core": {
      "sourceId": "Compendium.tormenta20.poderes.GzCUpZohTh1j6BBX"
    }
  },
  "system": {
    "description": {
      "value": "<p>Voc&ecirc; pode extrair recursos de criaturas em um minuto, em vez de uma hora, e recebe +5 no teste.</p>",
      "chat": "",
      "unidentified": ""
    },
    "source": "T20, pg. 92 (JdA)",
    "ativacao": {
      "execucao": "",
      "custo": 0,
      "qtd": "",
      "condicao": "",
      "special": ""
    },
    "duracao": {
      "value": 0,
      "units": "",
      "special": ""
    },
    "target": {
      "value": null,
      "width": null,
      "units": "",
      "type": ""
    },
    "range": {
      "value": null,
      "units": ""
    },
    "consume": {
      "type": "",
      "target": "",
      "amount": null,
      "mpMultiplier": false
    },
    "efeito": "",
    "alcance": "none",
    "alvo": "",
    "area": "",
    "resistencia": {
      "pericia": "",
      "atributo": "sab",
      "bonus": 0,
      "txt": ""
    },
    "rolls": [],
    "tipo": "origem",
    "subtipo": "Mateiro",
    "origin": "",
    "tags": [],
    "chatFlavor": "",
    "chatGif": ""
  },
  "ownership": {
    "default": 0
  },
  "_stats": {
    "systemId": "tormenta20",
    "systemVersion": "1.4.116",
    "coreVersion": "11.298",
    "createdTime": 1664306183900,
    "modifiedTime": 1684630371462,
    "lastModifiedBy": "ZWR5Tn3AhSIFqwp6"
  },
  "_key": "!items!GzCUpZohTh1j6BBX"
}
