{
  "_id": "JqIyfIszukoGImxz",
  "name": "Vontade de Ferro",
  "type": "poder",
  "img": "systems/tormenta20/icons/poderes/destino.webp",
  "effects": [
    {
      "_id": "jPNLjum4CTYOevtb",
      "flags": {
        "t20": null,
        "tormenta20": {
          "onuse": false,
          "durationScene": false
        }
      },
      "changes": [
        {
          "key": "system.pericias.vont.bonus",
          "mode": 2,
          "value": "2",
          "priority": null
        }
      ],
      "disabled": false,
      "duration": {
        "startTime": null,
        "seconds": null,
        "combat": null,
        "rounds": null,
        "turns": null,
        "startRound": null,
        "startTurn": null
      },
      "icon": "systems/tormenta20/icons/poderes/destino.webp",
      "label": "Vontade de Ferro",
      "origin": "Item.OP4Iu56wsJpBCE3K",
      "tint": null,
      "transfer": true,
      "_key": "!items.effects!JqIyfIszukoGImxz.jPNLjum4CTYOevtb"
    }
  ],
  "folder": "NvFFFNI6JHPuMkck",
  "sort": 0,
  "flags": {
    "core": {
      "sourceId": "Compendium.tormenta20.poderes.JqIyfIszukoGImxz"
    },
    "cf": null
  },
  "system": {
    "description": {
      "value": "<p style=\"text-align: justify;\">Voc&ecirc; recebe +1 PM para cada dois n&iacute;veis de personagem e +2 em Vontade.</p>\n<p style=\"text-align: justify;\"><em>Pr&eacute;-requisito:</em> Sab 1.</p>",
      "chat": "",
      "unidentified": ""
    },
    "source": "T20, pg. 131 (JdA)",
    "ativacao": {
      "execucao": "",
      "custo": 0,
      "qtd": "",
      "condicao": "",
      "special": ""
    },
    "duracao": {
      "value": 0,
      "units": "",
      "special": ""
    },
    "target": {
      "value": null,
      "width": null,
      "units": "",
      "type": ""
    },
    "range": {
      "value": null,
      "units": ""
    },
    "consume": {
      "type": "",
      "target": "",
      "amount": null,
      "mpMultiplier": false
    },
    "efeito": "",
    "alcance": "none",
    "alvo": "",
    "area": "",
    "resistencia": {
      "pericia": "",
      "atributo": "sab",
      "bonus": 0,
      "txt": ""
    },
    "rolls": [],
    "tipo": "geral",
    "subtipo": "Destino",
    "chatFlavor": "",
    "origin": "",
    "tags": [],
    "chatGif": ""
  },
  "ownership": {
    "default": 0
  },
  "_stats": {
    "systemId": "tormenta20",
    "systemVersion": "1.4.116",
    "coreVersion": "11.298",
    "createdTime": 1664306183911,
    "modifiedTime": 1684630371462,
    "lastModifiedBy": "ZWR5Tn3AhSIFqwp6"
  },
  "_key": "!items!JqIyfIszukoGImxz"
}
