{
  "name": "Lutar em Formação",
  "type": "poder",
  "img": "systems/tormenta20/icons/poderes/ameacas/forma.webp",
  "system": {
    "description": {
      "value": "<p style=\"text-align: justify;\">Se o recruta estiver adjacente a um aliado que tamb&eacute;m possua este poder, recebe +1 em testes de ataque e Defesa.</p>",
      "unidentified": ""
    },
    "source": "",
    "ativacao": {
      "execucao": "",
      "custo": 0,
      "qtd": "",
      "condicao": "",
      "special": ""
    },
    "duracao": {
      "value": 0,
      "units": "",
      "special": ""
    },
    "target": {
      "value": null,
      "width": null,
      "type": ""
    },
    "range": {
      "value": null,
      "units": ""
    },
    "consume": {
      "type": "",
      "target": "",
      "amount": null,
      "mpMultiplier": false
    },
    "efeito": "",
    "alcance": "none",
    "alvo": "",
    "area": "",
    "resistencia": {
      "pericia": "",
      "atributo": "",
      "bonus": 0,
      "txt": ""
    },
    "rolls": [],
    "tipo": "ability",
    "subtipo": "",
    "origin": "",
    "tags": [],
    "chatFlavor": "",
    "chatGif": ""
  },
  "effects": [
    {
      "label": "Lutar em Formação",
      "icon": "icons/environment/people/infantry-army.webp",
      "origin": "Item.uNwAhgYfnGrlr705",
      "tint": "#FFFFFF",
      "flags": {
        "tormenta20": {
          "onuse": false,
          "durationScene": false
        }
      },
      "duration": {
        "rounds": null,
        "startTime": null,
        "seconds": null,
        "combat": null,
        "turns": null,
        "startRound": null,
        "startTurn": null
      },
      "disabled": true,
      "_id": "rZ4AsGAxKpSs9lPO",
      "changes": [
        {
          "key": "system.modificadores.pericias.ataque",
          "mode": 2,
          "value": "1",
          "priority": null
        },
        {
          "key": "system.attributes.defesa.bonus",
          "mode": 2,
          "value": "1",
          "priority": null
        }
      ],
      "transfer": true,
      "_key": "!items.effects!uNwAhgYfnGrlr705.rZ4AsGAxKpSs9lPO"
    }
  ],
  "flags": {},
  "_stats": {
    "systemId": "tormenta20",
    "systemVersion": "1.4.101",
    "coreVersion": "10.288",
    "createdTime": 1666321513948,
    "modifiedTime": 1668270615330,
    "lastModifiedBy": "tIn9sSkrT3mDWirx"
  },
  "_id": "uNwAhgYfnGrlr705",
  "folder": null,
  "sort": 0,
  "ownership": {
    "default": 0,
    "tIn9sSkrT3mDWirx": 3
  },
  "_key": "!items!uNwAhgYfnGrlr705"
}
