{
  "name": "Veneno",
  "type": "poder",
  "img": "systems/tormenta20/icons/poderes/ameacas/veneno.webp",
  "system": {
    "description": {
      "value": "",
      "unidentified": ""
    },
    "source": "",
    "ativacao": {
      "execucao": "",
      "custo": 0,
      "qtd": "",
      "condicao": "",
      "special": ""
    },
    "duracao": {
      "value": 0,
      "units": "",
      "special": ""
    },
    "target": {
      "value": null,
      "width": null,
      "type": ""
    },
    "range": {
      "value": null,
      "units": ""
    },
    "consume": {
      "type": "",
      "target": "",
      "amount": null,
      "mpMultiplier": false
    },
    "efeito": "",
    "alcance": "none",
    "alvo": "",
    "area": "",
    "resistencia": {
      "pericia": "",
      "atributo": "",
      "bonus": 0,
      "txt": "Fortitude Varia"
    },
    "rolls": [
      {
        "name": "Dano",
        "key": "dano0",
        "type": "dano",
        "parts": [
          [
            "1d4",
            "perda",
            ""
          ]
        ],
        "versatil": ""
      }
    ],
    "tipo": "ability",
    "subtipo": "",
    "origin": "",
    "tags": [],
    "chatFlavor": "",
    "chatGif": ""
  },
  "effects": [
    {
      "label": "Veneno",
      "icon": "systems/tormenta20/icons/conditions/envenenado.svg",
      "origin": "Item.VWLwiM10pyEr7ZQq",
      "tint": "#FFFFFF",
      "flags": {
        "tormenta20": {
          "onuse": false,
          "durationScene": true
        }
      },
      "duration": {
        "rounds": 1,
        "startTime": null,
        "seconds": null,
        "combat": null,
        "turns": null,
        "startRound": null,
        "startTurn": null
      },
      "disabled": false,
      "_id": "KOklYtxVLCZmrIMF",
      "changes": [
        {
          "key": "dano",
          "mode": 0,
          "value": "roll",
          "priority": null
        }
      ],
      "transfer": false,
      "_key": "!items.effects!VWLwiM10pyEr7ZQq.KOklYtxVLCZmrIMF"
    },
    {
      "label": "Fraco",
      "icon": "systems/tormenta20/icons/conditions/fraco.svg",
      "origin": "Item.VWLwiM10pyEr7ZQq",
      "tint": "#FFFFFF",
      "flags": {
        "tormenta20": {
          "onuse": false,
          "durationScene": true
        }
      },
      "duration": {
        "rounds": 1,
        "startTime": null,
        "seconds": null,
        "combat": null,
        "turns": null,
        "startRound": null,
        "startTurn": null
      },
      "disabled": false,
      "_id": "MhlvrqFjOpxLIi8c",
      "changes": [],
      "transfer": false,
      "_key": "!items.effects!VWLwiM10pyEr7ZQq.MhlvrqFjOpxLIi8c"
    }
  ],
  "flags": {},
  "_stats": {
    "systemId": "tormenta20",
    "systemVersion": "1.4.101",
    "coreVersion": "10.288",
    "createdTime": 1666320488703,
    "modifiedTime": 1668270615333,
    "lastModifiedBy": "tIn9sSkrT3mDWirx"
  },
  "_id": "VWLwiM10pyEr7ZQq",
  "folder": null,
  "sort": 0,
  "ownership": {
    "default": 0,
    "tIn9sSkrT3mDWirx": 3
  },
  "_key": "!items!VWLwiM10pyEr7ZQq"
}
