{
  "_id": "yDY9SyAksM37Lw0h",
  "name": "Centauro Xamã",
  "type": "npc",
  "img": "systems/tormenta20/icons/ameacas/centauro-xama.png",
  "items": [
    {
      "folder": "0V7x5o397UvG3xKP",
      "name": "Magias",
      "type": "poder",
      "img": "icons/magic/symbols/runes-star-magenta.webp",
      "system": {
        "description": {
          "value": "O centauro xamã lança magias como um clérigo de 3º nível (CD 17)",
          "unidentified": ""
        },
        "source": "",
        "ativacao": {
          "execucao": "",
          "custo": 0,
          "qtd": "",
          "condicao": "",
          "special": ""
        },
        "duracao": {
          "value": 0,
          "units": "",
          "special": ""
        },
        "target": {
          "value": null,
          "width": null,
          "type": ""
        },
        "range": {
          "value": null,
          "units": ""
        },
        "consume": {
          "type": "",
          "target": "",
          "amount": null,
          "mpMultiplier": false
        },
        "efeito": "",
        "alcance": "none",
        "alvo": "",
        "area": "",
        "resistencia": {
          "pericia": "",
          "atributo": "",
          "bonus": 0,
          "txt": ""
        },
        "rolls": [],
        "tipo": "racial",
        "subtipo": "",
        "origin": "",
        "tags": [],
        "chatFlavor": "",
        "chatGif": ""
      },
      "effects": [],
      "sort": 2100000,
      "ownership": {
        "default": 0,
        "tIn9sSkrT3mDWirx": 3
      },
      "flags": {},
      "_stats": {
        "systemId": "tormenta20",
        "systemVersion": "1.4.1004",
        "coreVersion": "10.286",
        "createdTime": 1666319236120,
        "modifiedTime": 1667007846885,
        "lastModifiedBy": "tIn9sSkrT3mDWirx"
      },
      "_id": "xL83OWwOqqw80wzl",
      "_key": "!actors.items!yDY9SyAksM37Lw0h.xL83OWwOqqw80wzl"
    },
    {
      "name": "Armamento da Natureza",
      "type": "magia",
      "img": "systems/tormenta20/icons/magias/armamento-da-natureza.webp",
      "effects": [
        {
          "_id": "bpitZzQKZ4vqJiXI",
          "flags": {
            "t20": null,
            "tormenta20": {
              "onuse": true,
              "self": true,
              "custo": "1",
              "aumenta": false,
              "attack": false,
              "skill": false,
              "ability": false,
              "power": false,
              "spell": false,
              "consumable": false,
              "durationScene": false
            }
          },
          "changes": [
            {
              "key": "system.modificadores.ataque.cac",
              "mode": 2,
              "value": "1",
              "priority": null
            },
            {
              "key": "system.modificadores.ataque.ad",
              "mode": 2,
              "value": "1",
              "priority": null
            }
          ],
          "disabled": true,
          "duration": {
            "startTime": null,
            "seconds": null,
            "combat": null,
            "rounds": null,
            "turns": null,
            "startRound": null,
            "startTurn": null
          },
          "icon": "icons/svg/upgrade.svg",
          "label": "fornece +1 nos testes de ataque com a arma.",
          "origin": "Item.j12hZf69LhObcibS",
          "transfer": false,
          "tint": null,
          "_key": "!actors.items.effects!yDY9SyAksM37Lw0h.ZRU1hyfFrQehd7AI.bpitZzQKZ4vqJiXI"
        },
        {
          "_id": "Psilqc9kzkJDsroj",
          "flags": {
            "t20": null,
            "tormenta20": {
              "onuse": true,
              "self": true,
              "custo": "2",
              "aumenta": false
            }
          },
          "changes": [
            {
              "key": "execucao",
              "mode": 5,
              "value": "",
              "priority": null
            }
          ],
          "disabled": true,
          "duration": {
            "startTime": null,
            "seconds": null,
            "combat": null,
            "rounds": null,
            "turns": null,
            "startRound": null,
            "startTurn": null
          },
          "icon": "icons/svg/upgrade.svg",
          "label": "muda a execução para ação de movimento.",
          "origin": "Item.j12hZf69LhObcibS",
          "transfer": false,
          "tint": null,
          "_key": "!actors.items.effects!yDY9SyAksM37Lw0h.ZRU1hyfFrQehd7AI.Psilqc9kzkJDsroj"
        },
        {
          "_id": "oiuYjM78cegM2I18",
          "flags": {
            "t20": null,
            "tormenta20": {
              "onuse": true,
              "self": true,
              "custo": "3",
              "aumenta": true,
              "attack": false,
              "skill": false,
              "ability": false,
              "power": false,
              "spell": false,
              "consumable": false,
              "durationScene": false
            }
          },
          "changes": [
            {
              "key": "system.modificadores.ataque.cac",
              "mode": 2,
              "value": "1",
              "priority": null
            },
            {
              "key": "system.modificadores.ataque.ad",
              "mode": 2,
              "value": "1",
              "priority": null
            }
          ],
          "disabled": true,
          "duration": {
            "startTime": null,
            "seconds": null,
            "combat": null,
            "rounds": null,
            "turns": null,
            "startRound": null,
            "startTurn": null
          },
          "icon": "icons/svg/upgrade.svg",
          "label": "aumenta o bônus nos testes de ataque em +1.",
          "origin": "Item.j12hZf69LhObcibS",
          "transfer": false,
          "tint": null,
          "_key": "!actors.items.effects!yDY9SyAksM37Lw0h.ZRU1hyfFrQehd7AI.oiuYjM78cegM2I18"
        },
        {
          "_id": "fNdlwClqGCE484dL",
          "flags": {
            "t20": null,
            "tormenta20": {
              "onuse": true,
              "self": true,
              "custo": "5",
              "aumenta": true
            }
          },
          "changes": [],
          "disabled": true,
          "duration": {
            "startTime": null,
            "seconds": null,
            "combat": null,
            "rounds": null,
            "turns": null,
            "startRound": null,
            "startTurn": null
          },
          "icon": "icons/svg/upgrade.svg",
          "label": "aumenta o dano da arma em mais um passo.",
          "origin": "Item.j12hZf69LhObcibS",
          "transfer": false,
          "tint": null,
          "_key": "!actors.items.effects!yDY9SyAksM37Lw0h.ZRU1hyfFrQehd7AI.fNdlwClqGCE484dL"
        },
        {
          "_id": "5PLkfZAb7QnlPYh1",
          "changes": [
            {
              "key": "system.modificadores.ataque.cac",
              "mode": 2,
              "value": "0",
              "priority": null
            },
            {
              "key": "system.modificadores.ataque.ad",
              "mode": 2,
              "value": "0",
              "priority": null
            }
          ],
          "disabled": false,
          "duration": {
            "rounds": 1,
            "startTime": null,
            "seconds": null,
            "combat": null,
            "turns": null,
            "startRound": null,
            "startTurn": null
          },
          "icon": "systems/tormenta20/icons/magias/armamento-da-natureza.webp",
          "label": "Bônus de Ataque",
          "origin": "Item.qOXSaAjO4yVPYpiT",
          "transfer": false,
          "flags": {
            "tormenta20": {
              "onuse": false,
              "durationScene": true
            }
          },
          "tint": null,
          "_key": "!actors.items.effects!yDY9SyAksM37Lw0h.ZRU1hyfFrQehd7AI.5PLkfZAb7QnlPYh1"
        }
      ],
      "flags": {
        "core": {
          "sourceId": "Item.GMd2abkDfzsmHa6P"
        }
      },
      "system": {
        "description": {
          "value": "<section class=\"secret\">Armamento da Natureza (Movimento, 3 PM) Uma das armas do xamã se torna mágica e seu dano aumenta em um passo (de 1d8 para 1d10)</section><p style=\"text-align: justify;\">Voc&ecirc; fortalece uma arma mundana primitiva (sem custo em T$, como bord&atilde;o, clava, funda ou tacape), uma arma natural ou um ataque desarmado. O dano da arma aumenta em um passo e ela &eacute; considerada m&aacute;gica. Ao lan&ccedil;ar a magia, voc&ecirc; pode mudar o tipo de dano da arma (escolhendo entre corte, impacto ou perfura&ccedil;&atilde;o).</p>",
          "unidentified": ""
        },
        "source": "T20, pg. 181 (JdA)",
        "ativacao": {
          "execucao": "action",
          "custo": 1,
          "qtd": "",
          "condicao": "",
          "special": ""
        },
        "duracao": {
          "value": 0,
          "units": "scene",
          "special": ""
        },
        "target": {
          "value": null,
          "width": null,
          "type": ""
        },
        "range": {
          "value": null,
          "units": ""
        },
        "consume": {
          "type": "",
          "target": "",
          "amount": null,
          "mpMultiplier": false
        },
        "efeito": "",
        "alcance": "touch",
        "alvo": "1 arma (veja texto)",
        "area": "",
        "resistencia": {
          "pericia": "",
          "atributo": "",
          "bonus": 0,
          "txt": ""
        },
        "rolls": [],
        "tipo": "div",
        "circulo": "1",
        "preparada": false,
        "escola": "tra",
        "chatFlavor": "",
        "origin": "",
        "tags": [],
        "chatGif": ""
      },
      "ownership": {
        "default": 0,
        "tIn9sSkrT3mDWirx": 3
      },
      "_stats": {
        "systemId": "tormenta20",
        "systemVersion": "1.4.1004",
        "coreVersion": "10.286",
        "createdTime": 1664310462807,
        "modifiedTime": 1667007846887,
        "lastModifiedBy": "tIn9sSkrT3mDWirx"
      },
      "folder": "Q3orpeLhY2OCbYq0",
      "sort": 0,
      "_id": "ZRU1hyfFrQehd7AI",
      "_key": "!actors.items!yDY9SyAksM37Lw0h.ZRU1hyfFrQehd7AI"
    },
    {
      "name": "Controlar Plantas",
      "type": "magia",
      "img": "systems/tormenta20/icons/magias/controlar-plantas.webp",
      "effects": [
        {
          "_id": "rZdJYsUgC0ebL7Sc",
          "flags": {
            "t20": null,
            "tormenta20": {
              "onuse": true,
              "self": true,
              "custo": "",
              "aumenta": false
            }
          },
          "changes": [
            {
              "key": "area",
              "value": "alvo de 1 planta",
              "mode": 5,
              "priority": null
            },
            {
              "key": "resistencia",
              "value": "nenhuma",
              "mode": 5,
              "priority": null
            }
          ],
          "disabled": true,
          "duration": {
            "startTime": null,
            "seconds": null,
            "combat": null,
            "rounds": null,
            "turns": null,
            "startRound": null,
            "startTurn": null
          },
          "icon": "icons/svg/upgrade.svg",
          "label": "muda a área para alvo de 1 planta e a resistência para nenhuma. Em vez do normal, você pode fazer a planta se mover como se fosse animada. Ela não pode causar dano ou atrapalhar a concentração de um conjurador.",
          "origin": "Compendium.tormenta20.magias.sSUOYxFZVrthYvfn",
          "transfer": false,
          "tint": null,
          "_key": "!actors.items.effects!yDY9SyAksM37Lw0h.imyqBuF2CQCfn5ew.rZdJYsUgC0ebL7Sc"
        },
        {
          "_id": "8XOjU7dESDfzOclq",
          "flags": {
            "t20": null,
            "tormenta20": {
              "onuse": true,
              "self": true,
              "custo": "1",
              "aumenta": false
            }
          },
          "changes": [
            {
              "key": "duracao",
              "value": "instantânea",
              "mode": 5,
              "priority": null
            }
          ],
          "disabled": true,
          "duration": {
            "startTime": null,
            "seconds": null,
            "combat": null,
            "rounds": null,
            "turns": null,
            "startRound": null,
            "startTurn": null
          },
          "icon": "icons/svg/upgrade.svg",
          "label": "muda a duração para instantânea. Em vez do normal, as plantas na área diminuem, como se tivessem sido podadas. Terreno difícil muda para terreno normal e não oferece camuflagem. Esse efeito dissipa o uso normal de Controlar Plantas.",
          "origin": "Compendium.tormenta20.magias.sSUOYxFZVrthYvfn",
          "transfer": false,
          "tint": null,
          "_key": "!actors.items.effects!yDY9SyAksM37Lw0h.imyqBuF2CQCfn5ew.8XOjU7dESDfzOclq"
        },
        {
          "_id": "fvTTXL2IlhpHs4nu",
          "flags": {
            "t20": null,
            "tormenta20": {
              "onuse": true,
              "self": true,
              "custo": "1",
              "aumenta": false
            }
          },
          "changes": [],
          "disabled": true,
          "duration": {
            "startTime": null,
            "seconds": null,
            "combat": null,
            "rounds": null,
            "turns": null,
            "startRound": null,
            "startTurn": null
          },
          "icon": "icons/svg/upgrade.svg",
          "label": "além do normal, criaturas que falhem na resistência também ficam imóveis.",
          "origin": "Compendium.tormenta20.magias.sSUOYxFZVrthYvfn",
          "transfer": false,
          "tint": null,
          "_key": "!actors.items.effects!yDY9SyAksM37Lw0h.imyqBuF2CQCfn5ew.fvTTXL2IlhpHs4nu"
        },
        {
          "_id": "OnXUprtI8dDsyccX",
          "flags": {
            "t20": null,
            "tormenta20": {
              "onuse": true,
              "self": true,
              "custo": "2",
              "aumenta": false
            }
          },
          "changes": [
            {
              "key": "alcance",
              "value": "pessoal",
              "mode": 5,
              "priority": null
            },
            {
              "key": "area",
              "value": "alvo (você)",
              "mode": 5,
              "priority": null
            },
            {
              "key": "resistencia",
              "value": "nenhuma",
              "mode": 5,
              "priority": null
            }
          ],
          "disabled": true,
          "duration": {
            "startTime": null,
            "seconds": null,
            "combat": null,
            "rounds": null,
            "turns": null,
            "startRound": null,
            "startTurn": null
          },
          "icon": "icons/svg/upgrade.svg",
          "label": "muda o alcance para pessoal, a área para alvo (você) e a resistência para nenhuma. Em vez do normal, você consegue se comunicar com plantas, que começam com atitude prestativa em relação a você. Além disso, você pode fazer testes de Diplomacia com plantas. Em geral, plantas têm uma percepção limitada de seus arredores e normalmente fornecem respostas simplórias.",
          "origin": "Compendium.tormenta20.magias.sSUOYxFZVrthYvfn",
          "transfer": false,
          "tint": null,
          "_key": "!actors.items.effects!yDY9SyAksM37Lw0h.imyqBuF2CQCfn5ew.OnXUprtI8dDsyccX"
        },
        {
          "_id": "xKnSC30V3Kzq8qjt",
          "changes": [],
          "disabled": false,
          "duration": {
            "rounds": 1,
            "startTime": null,
            "seconds": null,
            "combat": null,
            "turns": null,
            "startRound": null,
            "startTurn": null
          },
          "icon": "systems/tormenta20/icons/magias/controlar-plantas.webp",
          "label": "Falar com Plantas (Aprimoramento de +2 PM)",
          "origin": "Item.QS9vHEwxKu3OtdSL",
          "transfer": false,
          "flags": {
            "tormenta20": {
              "onuse": false,
              "durationScene": true
            }
          },
          "tint": null,
          "_key": "!actors.items.effects!yDY9SyAksM37Lw0h.imyqBuF2CQCfn5ew.xKnSC30V3Kzq8qjt"
        }
      ],
      "flags": {
        "core": {
          "sourceId": "Item.oV66MsZrmtBHAQus"
        }
      },
      "system": {
        "description": {
          "value": "<section class=\"secret\">Controlar Plantas (Padrão, 2 PM) Uma área quadrada de 9m de lado de vegetação em alcance curto se torna terreno difícil. Criaturas na área quando a magia é lançada ou no início de seus próprios turnos ficam enredadas e imóveis (Fortitude evita). Uma vítima pode se libertar com uma ação padrão e um teste de Acrobacia ou Atletismo</section><p style=\"text-align:justify;\">Esta magia só pode ser lançada em uma área com vegetação. As plantas se enroscam nas criaturas da área. Aquelas que falharem na resistência ficam enredadas. Uma vítima pode se libertar com uma ação padrão e um teste de Acrobacia ou Atletismo. Além disso, a área é considerada terreno difícil. No início de seus turnos, a vegetação tenta enredar novamente qualquer criatura na área, exigindo um novo teste de Reflexos.</p>",
          "unidentified": ""
        },
        "source": "T20, pg. 188 (JdA)",
        "ativacao": {
          "execucao": "action",
          "custo": 1,
          "qtd": "",
          "condicao": "",
          "special": ""
        },
        "duracao": {
          "value": 0,
          "units": "scene",
          "special": ""
        },
        "target": {
          "value": null,
          "width": null,
          "type": ""
        },
        "range": {
          "value": null,
          "units": ""
        },
        "consume": {
          "type": "",
          "target": "",
          "amount": null,
          "mpMultiplier": false
        },
        "efeito": "",
        "alcance": "short",
        "alvo": "",
        "area": "quadrado com 9m de lado",
        "resistencia": {
          "pericia": "",
          "atributo": "",
          "bonus": 0,
          "txt": "Reflexos anula"
        },
        "rolls": [],
        "tipo": "div",
        "circulo": "1",
        "preparada": false,
        "escola": "tra",
        "chatFlavor": "",
        "origin": "",
        "tags": [],
        "chatGif": ""
      },
      "ownership": {
        "default": 0,
        "tIn9sSkrT3mDWirx": 3
      },
      "_stats": {
        "systemId": "tormenta20",
        "systemVersion": "1.4.1004",
        "coreVersion": "10.286",
        "createdTime": 1664310462821,
        "modifiedTime": 1667007846901,
        "lastModifiedBy": "tIn9sSkrT3mDWirx"
      },
      "folder": "Q3orpeLhY2OCbYq0",
      "sort": 0,
      "_id": "imyqBuF2CQCfn5ew",
      "_key": "!actors.items!yDY9SyAksM37Lw0h.imyqBuF2CQCfn5ew"
    },
    {
      "name": "Curar Ferimentos",
      "type": "magia",
      "img": "systems/tormenta20/icons/magias/curar-ferimentos.webp",
      "effects": [
        {
          "_id": "E5Ynb8D45IFPkqGc",
          "flags": {
            "t20": null,
            "tormenta20": {
              "onuse": true,
              "self": true,
              "custo": "",
              "aumenta": false
            }
          },
          "changes": [
            {
              "key": "alvo",
              "value": "1 morto-vivo",
              "mode": 5,
              "priority": null
            }
          ],
          "disabled": true,
          "duration": {
            "startTime": null,
            "seconds": null,
            "combat": null,
            "rounds": null,
            "turns": null,
            "startRound": null,
            "startTurn": null
          },
          "icon": "icons/svg/upgrade.svg",
          "label": "muda o alvo para 1 morto-vivo. Em vez do normal, causa 1d8 pontos de dano de luz (Vontade reduz à metade).",
          "origin": "Compendium.tormenta20.magias.soVAGPRWQmKxOrPm",
          "transfer": false,
          "tint": null,
          "_key": "!actors.items.effects!yDY9SyAksM37Lw0h.LNJcwSRw886ytNOK.E5Ynb8D45IFPkqGc"
        },
        {
          "_id": "T7W1dpep8KKLNdPQ",
          "flags": {
            "t20": null,
            "tormenta20": {
              "onuse": true,
              "self": true,
              "custo": "1",
              "aumenta": true
            }
          },
          "changes": [
            {
              "key": "dano",
              "value": "1d8+1",
              "mode": 0,
              "priority": null
            }
          ],
          "disabled": true,
          "duration": {
            "startTime": null,
            "seconds": null,
            "combat": null,
            "rounds": null,
            "turns": null,
            "startRound": null,
            "startTurn": null
          },
          "icon": "icons/svg/upgrade.svg",
          "label": "aumenta a cura em +1d8+1.",
          "origin": "Compendium.tormenta20.magias.soVAGPRWQmKxOrPm",
          "transfer": false,
          "tint": null,
          "_key": "!actors.items.effects!yDY9SyAksM37Lw0h.LNJcwSRw886ytNOK.T7W1dpep8KKLNdPQ"
        },
        {
          "_id": "xncd3c6sRimZD4nY",
          "flags": {
            "t20": null,
            "tormenta20": {
              "onuse": true,
              "self": true,
              "custo": "2",
              "aumenta": false
            }
          },
          "changes": [],
          "disabled": true,
          "duration": {
            "startTime": null,
            "seconds": null,
            "combat": null,
            "rounds": null,
            "turns": null,
            "startRound": null,
            "startTurn": null
          },
          "icon": "icons/svg/upgrade.svg",
          "label": "também remove uma condição de fadiga do alvo.",
          "origin": "Compendium.tormenta20.magias.soVAGPRWQmKxOrPm",
          "transfer": false,
          "tint": null,
          "_key": "!actors.items.effects!yDY9SyAksM37Lw0h.LNJcwSRw886ytNOK.xncd3c6sRimZD4nY"
        },
        {
          "_id": "8NiPKz2Ks17aIGcT",
          "flags": {
            "t20": null,
            "tormenta20": {
              "onuse": true,
              "self": true,
              "custo": "2",
              "aumenta": false
            }
          },
          "changes": [
            {
              "key": "alcance",
              "value": "curto",
              "mode": 5,
              "priority": null
            }
          ],
          "disabled": true,
          "duration": {
            "startTime": null,
            "seconds": null,
            "combat": null,
            "rounds": null,
            "turns": null,
            "startRound": null,
            "startTurn": null
          },
          "icon": "icons/svg/upgrade.svg",
          "label": "muda o alcance para curto.",
          "origin": "Compendium.tormenta20.magias.soVAGPRWQmKxOrPm",
          "transfer": false,
          "tint": null,
          "_key": "!actors.items.effects!yDY9SyAksM37Lw0h.LNJcwSRw886ytNOK.8NiPKz2Ks17aIGcT"
        },
        {
          "_id": "lcjBzJa7QT1xtM5I",
          "flags": {
            "t20": null,
            "tormenta20": {
              "onuse": true,
              "self": true,
              "custo": "5",
              "aumenta": false
            }
          },
          "changes": [
            {
              "key": "alcance",
              "value": "curto",
              "mode": 5,
              "priority": null
            },
            {
              "key": "alvo",
              "value": "criaturas escolhidas",
              "mode": 5,
              "priority": null
            }
          ],
          "disabled": true,
          "duration": {
            "startTime": null,
            "seconds": null,
            "combat": null,
            "rounds": null,
            "turns": null,
            "startRound": null,
            "startTurn": null
          },
          "icon": "icons/svg/upgrade.svg",
          "label": "muda o alcance para curto e o alvo para criaturas escolhidas.",
          "origin": "Compendium.tormenta20.magias.soVAGPRWQmKxOrPm",
          "transfer": false,
          "tint": null,
          "_key": "!actors.items.effects!yDY9SyAksM37Lw0h.LNJcwSRw886ytNOK.lcjBzJa7QT1xtM5I"
        }
      ],
      "flags": {
        "core": {
          "sourceId": "Item.galK4UUS6FxYz22S"
        }
      },
      "system": {
        "description": {
          "value": "<section class=\"secret\">Curar Ferimentos (Padrão, 3 PM) Uma criatura adjacente cura 4d8+4 PV</section><p style=\"text-align: justify;\">Voc&ecirc; canaliza energia positiva que recupera 2d8+2 pontos de vida na criatura tocada.</p>",
          "unidentified": ""
        },
        "source": "T20, pg. 189 (JdA)",
        "ativacao": {
          "execucao": "action",
          "custo": 1,
          "qtd": "",
          "condicao": "",
          "special": ""
        },
        "duracao": {
          "value": 0,
          "units": "inst",
          "special": ""
        },
        "target": {
          "value": null,
          "width": null,
          "type": ""
        },
        "range": {
          "value": null,
          "units": ""
        },
        "consume": {
          "type": "",
          "target": "",
          "amount": null,
          "mpMultiplier": false
        },
        "efeito": "",
        "alcance": "touch",
        "alvo": "1 criatura",
        "area": "",
        "resistencia": {
          "pericia": "",
          "atributo": "",
          "bonus": 0,
          "txt": ""
        },
        "rolls": [
          {
            "name": "Cura",
            "key": "dano0",
            "type": "dano",
            "parts": [
              [
                "2d8+2",
                "",
                ""
              ]
            ],
            "versatil": ""
          }
        ],
        "tipo": "div",
        "circulo": "1",
        "preparada": false,
        "escola": "evo",
        "chatFlavor": "",
        "origin": "",
        "tags": [],
        "chatGif": ""
      },
      "ownership": {
        "default": 0,
        "tIn9sSkrT3mDWirx": 3
      },
      "_stats": {
        "systemId": "tormenta20",
        "systemVersion": "1.4.1004",
        "coreVersion": "10.286",
        "createdTime": 1664310462822,
        "modifiedTime": 1667007846912,
        "lastModifiedBy": "tIn9sSkrT3mDWirx"
      },
      "folder": "AOGmSz9kHvitzAbd",
      "sort": 0,
      "_id": "LNJcwSRw886ytNOK",
      "_key": "!actors.items!yDY9SyAksM37Lw0h.LNJcwSRw886ytNOK"
    },
    {
      "name": "Medo de Altura",
      "type": "poder",
      "img": "icons/magic/control/fear-fright-white.webp",
      "effects": [
        {
          "label": "Abalado",
          "icon": "systems/tormenta20/icons/conditions/abalado.svg",
          "origin": "Item.MxwKBFQrwYzRMB4p",
          "tint": "#FFFFFF",
          "flags": {
            "tormenta20": {
              "onuse": false,
              "durationScene": false
            }
          },
          "duration": {
            "rounds": 1,
            "startTime": null,
            "seconds": null,
            "combat": null,
            "turns": null,
            "startRound": null,
            "startTurn": null
          },
          "disabled": false,
          "_id": "aq3yIo9hCl7R0asc",
          "changes": [],
          "transfer": true,
          "_key": "!actors.items.effects!yDY9SyAksM37Lw0h.IseSV7ZmgqkbCKMx.aq3yIo9hCl7R0asc"
        }
      ],
      "flags": {
        "core": {
          "sourceId": "Compendium.tormenta20.poderes.xn9RfAp79NWrXSYI"
        }
      },
      "system": {
        "description": {
          "value": "Se estiver adjacente a uma queda de 3m ou mais de altura, o centauro fica abalado",
          "unidentified": ""
        },
        "source": "",
        "ativacao": {
          "execucao": "",
          "custo": 0,
          "qtd": "",
          "condicao": "",
          "special": ""
        },
        "duracao": {
          "value": 0,
          "units": "",
          "special": ""
        },
        "target": {
          "value": null,
          "width": null,
          "type": ""
        },
        "range": {
          "value": null,
          "units": ""
        },
        "consume": {
          "type": "",
          "target": "",
          "amount": null,
          "mpMultiplier": false
        },
        "efeito": "",
        "alcance": "none",
        "alvo": "",
        "area": "",
        "resistencia": {
          "pericia": "",
          "atributo": "",
          "bonus": 0,
          "txt": ""
        },
        "rolls": [],
        "tipo": "racial",
        "subtipo": "",
        "origin": "",
        "tags": [],
        "chatFlavor": "",
        "chatGif": ""
      },
      "ownership": {
        "default": 0,
        "tIn9sSkrT3mDWirx": 3
      },
      "_stats": {
        "systemId": "tormenta20",
        "systemVersion": "1.4.1004",
        "coreVersion": "10.286",
        "createdTime": 1664306185703,
        "modifiedTime": 1667007846913,
        "lastModifiedBy": "tIn9sSkrT3mDWirx"
      },
      "folder": "0V7x5o397UvG3xKP",
      "sort": 3900000,
      "_id": "IseSV7ZmgqkbCKMx",
      "_key": "!actors.items!yDY9SyAksM37Lw0h.IseSV7ZmgqkbCKMx"
    },
    {
      "name": "Voz da Natureza",
      "type": "poder",
      "img": "systems/tormenta20/icons/poderes/concedidos.webp",
      "effects": [
        {
          "label": "Voz da Natureza",
          "icon": "icons/svg/upgrade.svg",
          "origin": "Item.Y9MfowI3KydAdgND",
          "tint": "#FFFFFF",
          "flags": {
            "tormenta20": {
              "onuse": true,
              "durationScene": false,
              "self": false,
              "attack": false,
              "skill": false,
              "ability": false,
              "power": false,
              "spell": true,
              "consumable": false,
              "items": "acalmar animal",
              "aumenta": false,
              "custo": "-1"
            }
          },
          "duration": {
            "startTime": null,
            "seconds": null,
            "combat": null,
            "rounds": null,
            "turns": null,
            "startRound": null,
            "startTurn": null
          },
          "disabled": true,
          "_id": "L29rcIpx7HJbb2G7",
          "changes": [],
          "transfer": true,
          "_key": "!actors.items.effects!yDY9SyAksM37Lw0h.ly1323NFeEqHjiPY.L29rcIpx7HJbb2G7"
        }
      ],
      "flags": {
        "core": {
          "sourceId": "Compendium.tormenta20.poderes.Y9MfowI3KydAdgND"
        }
      },
      "system": {
        "description": {
          "value": "O centauro está sempre sob efeito da magia Voz Divina, apenas para falar com animais. e",
          "unidentified": ""
        },
        "source": "T20, pg. 136 (JdA)",
        "ativacao": {
          "execucao": "",
          "custo": 0,
          "qtd": "",
          "condicao": "",
          "special": ""
        },
        "duracao": {
          "value": 0,
          "units": "",
          "special": ""
        },
        "target": {
          "value": null,
          "width": null,
          "type": ""
        },
        "range": {
          "value": null,
          "units": ""
        },
        "consume": {
          "type": "",
          "target": "",
          "amount": null,
          "mpMultiplier": false
        },
        "efeito": "",
        "alcance": "none",
        "alvo": "",
        "area": "",
        "resistencia": {
          "pericia": "",
          "atributo": "",
          "bonus": 0,
          "txt": ""
        },
        "rolls": [],
        "tipo": "concedido",
        "subtipo": "Natureza",
        "origin": "",
        "tags": [],
        "chatFlavor": "",
        "chatGif": ""
      },
      "ownership": {
        "default": 0,
        "tIn9sSkrT3mDWirx": 3
      },
      "_stats": {
        "systemId": "tormenta20",
        "systemVersion": "1.4.1004",
        "coreVersion": "10.286",
        "createdTime": 1664306184729,
        "modifiedTime": 1667007846914,
        "lastModifiedBy": "tIn9sSkrT3mDWirx"
      },
      "folder": "JExAK28LKdW8vhik",
      "sort": 0,
      "_id": "ly1323NFeEqHjiPY",
      "_key": "!actors.items!yDY9SyAksM37Lw0h.ly1323NFeEqHjiPY"
    },
    {
      "name": "Bordão",
      "type": "arma",
      "img": "systems/tormenta20/icons/itens/equipamentos/bordao.webp",
      "effects": [],
      "flags": {
        "core": {
          "sourceId": "Compendium.tormenta20.equipamentos.HyJBwTLK0vY5F1Vp"
        }
      },
      "system": {
        "description": {
          "value": "<section class=\"secret\">Bordão</section><p style=\"text-align: justify;\">Um cajado apreciado por viajantes e camponeses por sua praticidade e f&aacute;cil acesso (seu pre&ccedil;o &eacute; zero). O bord&atilde;o &eacute; uma arma <em>dupla</em></p>",
          "chat": "",
          "unidentified": ""
        },
        "source": "T20, pg. 147 (JdA)",
        "equipado": 0,
        "equipado2": {
          "slot": 0,
          "type": "hand"
        },
        "carregado": true,
        "peso": 2,
        "espacos": 2,
        "qtd": 1,
        "preco": 0,
        "pv": {
          "value": 0,
          "min": 0,
          "max": 0
        },
        "rd": 0,
        "rolls": [
          {
            "name": "Ataque",
            "key": "ataque0",
            "type": "ataque",
            "parts": [
              [
                "1d20",
                "",
                ""
              ],
              [
                "luta",
                "",
                ""
              ],
              [
                "+11",
                "",
                ""
              ]
            ]
          },
          {
            "name": "Dano",
            "key": "dano1",
            "type": "dano",
            "parts": [
              [
                "1d8+4",
                "impacto",
                ""
              ],
              [
                "",
                "",
                ""
              ]
            ],
            "versatil": ""
          }
        ],
        "criticoM": 20,
        "criticoX": 2,
        "alcance": "",
        "tipoUso": "sim",
        "propriedades": {
          "ada": false,
          "agi": false,
          "alo": false,
          "arr": false,
          "dst": false,
          "dms": false,
          "dup": true,
          "lev": false,
          "mun": false,
          "ver": false,
          "adaptavel": false,
          "agil": false,
          "alongada": false,
          "arremesso": false,
          "ataqueDistancia": false,
          "duasMaos": true,
          "dupla": true,
          "leve": false,
          "municao": false,
          "versatil": false,
          "des": false,
          "hib": false
        },
        "encantos": {
          "arremesso": false,
          "lancinante": false,
          "lancinating": false
        },
        "ativacao": {
          "custo": null,
          "condicao": "",
          "execucao": "",
          "qtd": "",
          "special": ""
        },
        "chatFlavor": "",
        "consume": {
          "type": "",
          "target": "",
          "amount": null,
          "mpMultiplier": false
        },
        "origin": "",
        "tags": [],
        "chatGif": "",
        "upgrades": {
          "melhoria1": "",
          "melhoria2": "",
          "melhoria3": "",
          "melhoria4": "",
          "material": "",
          "encanto1": "",
          "encanto2": "",
          "encanto3": ""
        },
        "melhorias": {},
        "proficiencia": "simples",
        "proposito": "corpo-a-corpo",
        "empunhadura": "duas",
        "size": "aumentada",
        "ataques": 0
      },
      "ownership": {
        "default": 0,
        "tIn9sSkrT3mDWirx": 3
      },
      "_stats": {
        "systemId": "tormenta20",
        "systemVersion": "1.4.203d2",
        "coreVersion": "11.315",
        "createdTime": 1664312772399,
        "modifiedTime": 1700236615801,
        "lastModifiedBy": "5frcpPVF3cVfLwZA"
      },
      "folder": "brhICwdHcOUqvMPi",
      "sort": 3200000,
      "_id": "XXPFQzFSadVLeNJo",
      "_key": "!actors.items!yDY9SyAksM37Lw0h.XXPFQzFSadVLeNJo"
    },
    {
      "name": "Cascos",
      "type": "arma",
      "sort": 250000,
      "flags": {
        "core": {
          "sourceId": "Compendium.tormenta20.equipamentos.NFepeG0ojjq3Xggs"
        },
        "tormenta20": {
          "version": "1.3.0.0"
        }
      },
      "img": "icons/commodities/bones/hooves-cloven-brown.webp",
      "effects": [],
      "folder": "43511xoe42co6Cd5",
      "system": {
        "description": {
          "value": "<section class=\"secret\">cascos</section>",
          "chat": "",
          "unidentified": ""
        },
        "source": "",
        "equipado": 0,
        "equipado2": {
          "slot": 0,
          "type": "hand"
        },
        "carregado": true,
        "peso": 0,
        "espacos": 0,
        "qtd": 0,
        "preco": 0,
        "pv": {
          "value": 0,
          "min": 0,
          "max": 0
        },
        "rd": 0,
        "rolls": [
          {
            "name": "Ataque",
            "key": "ataque0",
            "type": "ataque",
            "parts": [
              [
                "1d20",
                "",
                ""
              ],
              [
                "luta",
                "",
                ""
              ],
              [
                "+11",
                "",
                ""
              ]
            ]
          },
          {
            "name": "Dano",
            "key": "dano1",
            "type": "dano",
            "parts": [
              [
                "1d8+4",
                "impacto",
                ""
              ],
              [
                "",
                "",
                ""
              ]
            ],
            "versatil": ""
          }
        ],
        "criticoM": 20,
        "criticoX": 2,
        "alcance": "",
        "tipoUso": "sim",
        "propriedades": {
          "ada": false,
          "agi": true,
          "alo": false,
          "arr": false,
          "dst": false,
          "dms": false,
          "dup": false,
          "lev": false,
          "mun": false,
          "ver": false,
          "adaptavel": false,
          "agil": false,
          "alongada": false,
          "arremesso": false,
          "ataqueDistancia": false,
          "duasMaos": false,
          "dupla": false,
          "leve": true,
          "municao": false,
          "versatil": false,
          "des": false,
          "hib": false
        },
        "encantos": {
          "arremesso": false,
          "lancinante": false,
          "lancinating": false
        },
        "chatFlavor": "",
        "ativacao": {
          "custo": null,
          "condicao": "",
          "execucao": "",
          "qtd": "",
          "special": ""
        },
        "origin": "",
        "tags": [],
        "consume": {
          "amount": null,
          "type": "",
          "target": "",
          "mpMultiplier": false
        },
        "chatGif": "",
        "upgrades": {
          "melhoria1": "",
          "melhoria2": "",
          "melhoria3": "",
          "melhoria4": "",
          "material": "",
          "encanto1": "",
          "encanto2": "",
          "encanto3": ""
        },
        "melhorias": {},
        "proficiencia": "natural",
        "proposito": "corpo-a-corpo",
        "empunhadura": "leve",
        "size": "normal",
        "ataques": 0
      },
      "ownership": {
        "default": 0,
        "tIn9sSkrT3mDWirx": 3
      },
      "_stats": {
        "systemId": "tormenta20",
        "systemVersion": "1.4.203d2",
        "coreVersion": "11.315",
        "createdTime": 1665456459182,
        "modifiedTime": 1700236608185,
        "lastModifiedBy": "5frcpPVF3cVfLwZA"
      },
      "_id": "HgzVqnjvJjpdfw6Q",
      "_key": "!actors.items!yDY9SyAksM37Lw0h.HgzVqnjvJjpdfw6Q"
    },
    {
      "folder": "AiwawZwp0Sxn63nF",
      "name": "Símbolo Sagrado",
      "type": "equipamento",
      "img": "systems/tormenta20/icons/itens/gerais/simbolo-sagrado.webp",
      "system": {
        "description": {
          "value": "<p>Um medalh&atilde;o de madeira ou metal com o s&iacute;mbolo de uma divindade. Voc&ecirc; precisa estar vestindo (normalmente com uma corrente ao redor do pesco&ccedil;o) ou empunhando um s&iacute;mbolo sagrado para usar qualquer poder concedido.</p>",
          "unidentified": ""
        },
        "source": "T20, pg. 157 (JdA)",
        "equipado": true,
        "carregado": true,
        "peso": 0,
        "espacos": 1,
        "qtd": 1,
        "preco": 5,
        "pv": {
          "value": 0,
          "min": 0,
          "max": 0
        },
        "rd": 0,
        "tipo": "traje",
        "armadura": {
          "value": 0,
          "penalidade": 0,
          "maxAtr": 0
        },
        "origin": "",
        "tags": [],
        "chatFlavor": "",
        "ativacao": {
          "custo": null,
          "condicao": "",
          "execucao": "",
          "qtd": "",
          "special": ""
        },
        "rolls": [],
        "chatGif": "",
        "upgrades": {
          "melhoria1": "",
          "melhoria2": "",
          "melhoria3": "",
          "melhoria4": "",
          "material": "",
          "encanto1": "",
          "encanto2": "",
          "encanto3": ""
        },
        "melhorias": {},
        "encantos": {}
      },
      "effects": [],
      "sort": 0,
      "ownership": {
        "default": 0,
        "RzS5vw1t6rOSWsrq": 3,
        "tIn9sSkrT3mDWirx": 3
      },
      "flags": {
        "core": {
          "sourceId": "Item.GN5S9awu41thdvCn"
        }
      },
      "_stats": {
        "systemId": "tormenta20",
        "systemVersion": "1.4.1004",
        "coreVersion": "10.286",
        "createdTime": 1665712733997,
        "modifiedTime": 1667028140232,
        "lastModifiedBy": "tIn9sSkrT3mDWirx"
      },
      "_id": "TMuiyBI9gOQm4z3G",
      "_key": "!actors.items!yDY9SyAksM37Lw0h.TMuiyBI9gOQm4z3G"
    }
  ],
  "effects": [
    {
      "label": "Abalado",
      "icon": "systems/tormenta20/icons/conditions/abalado.svg",
      "origin": "Actor.yDY9SyAksM37Lw0h.Item.IseSV7ZmgqkbCKMx",
      "tint": "#FFFFFF",
      "flags": {
        "tormenta20": {
          "onuse": false,
          "durationScene": false
        }
      },
      "duration": {
        "rounds": 1,
        "startTime": 0,
        "seconds": null,
        "combat": null,
        "turns": null,
        "startRound": null,
        "startTurn": null
      },
      "disabled": false,
      "_id": "7MWj3E5TstX4BXZA",
      "changes": [],
      "transfer": false,
      "_key": "!actors.effects!yDY9SyAksM37Lw0h.7MWj3E5TstX4BXZA"
    },
    {
      "label": "Voz da Natureza",
      "icon": "icons/svg/upgrade.svg",
      "origin": "Actor.yDY9SyAksM37Lw0h.Item.ly1323NFeEqHjiPY",
      "tint": "#FFFFFF",
      "flags": {
        "tormenta20": {
          "onuse": true,
          "durationScene": false,
          "self": false,
          "attack": false,
          "skill": false,
          "ability": false,
          "power": false,
          "spell": true,
          "consumable": false,
          "items": "acalmar animal",
          "aumenta": false,
          "custo": "-1"
        }
      },
      "duration": {
        "startTime": 0,
        "seconds": null,
        "combat": null,
        "rounds": null,
        "turns": null,
        "startRound": null,
        "startTurn": null
      },
      "disabled": true,
      "_id": "Tk5awcOL98NgFGVD",
      "changes": [],
      "transfer": false,
      "_key": "!actors.effects!yDY9SyAksM37Lw0h.Tk5awcOL98NgFGVD"
    }
  ],
  "folder": "Du7lCUo0cmGGsOJZ",
  "sort": 100001,
  "flags": {
    "editing": false,
    "tormenta20": {
      "sheet": {},
      "lvlconfig": {
        "pv": {},
        "pm": {}
      },
      "version": "1.3.0.0"
    },
    "core": {
      "sourceId": "Compendium.tormenta20.ameacas.yDY9SyAksM37Lw0h"
    }
  },
  "system": {
    "atributos": {
      "for": {
        "value": 0,
        "bonus": 0,
        "base": 4,
        "racial": 0
      },
      "des": {
        "value": 0,
        "bonus": 0,
        "base": 1,
        "racial": 0
      },
      "con": {
        "value": 0,
        "bonus": 0,
        "base": 3,
        "racial": 0
      },
      "int": {
        "value": 0,
        "bonus": 0,
        "base": -1,
        "racial": 0
      },
      "sab": {
        "value": 0,
        "bonus": 0,
        "base": 4,
        "racial": 0
      },
      "car": {
        "value": 0,
        "bonus": 0,
        "base": 0,
        "racial": 0
      }
    },
    "attributes": {
      "cd": 17,
      "pv": {
        "value": 35,
        "min": -500,
        "max": 35,
        "temp": 0
      },
      "pm": {
        "value": 20,
        "min": 0,
        "max": 20,
        "temp": 0
      },
      "movement": {
        "burrow": 0,
        "climb": 0,
        "fly": 0,
        "swim": 0,
        "walk": 12,
        "unit": "m",
        "hover": false,
        "notes": ""
      },
      "defesa": {
        "base": 21,
        "value": 0,
        "outros": 0,
        "atributo": "des",
        "pda": 0,
        "bonus": [],
        "condi": 0
      },
      "sentidos": {
        "value": [],
        "custom": ""
      },
      "conjuracao": "int",
      "nivel": {
        "value": 1,
        "xp": {
          "value": 0,
          "pct": 0,
          "proximo": 0
        }
      },
      "nd": "3",
      "carga": {
        "value": 0,
        "base": 10,
        "bonus": [],
        "max": 0,
        "pct": 0,
        "encumbered": false
      },
      "treino": 0
    },
    "detalhes": {
      "biography": {
        "value": "",
        "public": ""
      },
      "raca": "centauro",
      "tipo": "hum",
      "alinhamento": "",
      "divindade": "",
      "nd": "",
      "equipamento": "",
      "resistencias": "",
      "tesouro": "Metade.",
      "role": "special",
      "origem": "",
      "ataquescac": "Bordão +11 (1d8+4) e cascos +11 (1d8+4)."
    },
    "tracos": {
      "tamanho": "gra",
      "resistencias": {
        "perda": {
          "value": 0,
          "base": 0,
          "bonus": [],
          "imunidade": false,
          "vulnerabilidade": false
        },
        "acido": {
          "value": 0,
          "base": 0,
          "bonus": [],
          "imunidade": false,
          "vulnerabilidade": false
        },
        "corte": {
          "value": 0,
          "base": 0,
          "bonus": [],
          "imunidade": false,
          "vulnerabilidade": false
        },
        "eletricidade": {
          "value": 0,
          "base": 0,
          "bonus": [],
          "imunidade": false,
          "vulnerabilidade": false
        },
        "essencia": {
          "value": 0,
          "base": 0,
          "bonus": [],
          "imunidade": false,
          "vulnerabilidade": false
        },
        "fogo": {
          "value": 0,
          "base": 0,
          "bonus": [],
          "imunidade": false,
          "vulnerabilidade": false
        },
        "frio": {
          "value": 0,
          "base": 0,
          "bonus": [],
          "imunidade": false,
          "vulnerabilidade": false
        },
        "impacto": {
          "value": 0,
          "base": 0,
          "bonus": [],
          "imunidade": false,
          "vulnerabilidade": false
        },
        "luz": {
          "value": 0,
          "base": 0,
          "bonus": [],
          "imunidade": false,
          "vulnerabilidade": false
        },
        "psiquico": {
          "value": 0,
          "base": 0,
          "bonus": [],
          "imunidade": false,
          "vulnerabilidade": false
        },
        "perfuracao": {
          "value": 0,
          "base": 0,
          "bonus": [],
          "imunidade": false,
          "vulnerabilidade": false
        },
        "trevas": {
          "value": 0,
          "base": 0,
          "bonus": [],
          "imunidade": false,
          "vulnerabilidade": false
        },
        "dano": {
          "value": 0,
          "imunidade": false,
          "vulnerabilidade": false
        }
      },
      "ic": {
        "value": [],
        "custom": ""
      },
      "idiomas": {
        "value": [
          "comum"
        ]
      }
    },
    "dinheiro": {
      "tl": 0,
      "to": 0,
      "tp": 0,
      "tc": 0
    },
    "resources": {
      "primary": {
        "value": 0,
        "max": 0,
        "label": ""
      },
      "secondary": {
        "value": 0,
        "max": 0,
        "label": ""
      },
      "tertiary": {
        "value": 0,
        "max": 0,
        "label": ""
      },
      "deathsave": {
        "value": 0,
        "max": 3,
        "label": ""
      },
      "shadow": {
        "value": 0,
        "max": 5,
        "label": ""
      },
      "catarse": {
        "value": 0,
        "max": 3,
        "label": ""
      }
    },
    "pericias": {
      "acro": {
        "value": 0,
        "atributo": "des",
        "outros": 0,
        "treinado": false,
        "st": false,
        "pda": false,
        "size": false,
        "condi": 0,
        "bonus": [],
        "custom": false,
        "label": "",
        "nome": ""
      },
      "ades": {
        "value": 0,
        "atributo": "car",
        "outros": 0,
        "treinado": false,
        "st": false,
        "pda": false,
        "size": false,
        "condi": 0,
        "bonus": [],
        "custom": false,
        "label": "",
        "nome": ""
      },
      "atle": {
        "value": 0,
        "atributo": "for",
        "outros": 0,
        "treinado": false,
        "st": false,
        "pda": false,
        "size": false,
        "condi": 0,
        "bonus": [],
        "custom": false,
        "label": "",
        "nome": ""
      },
      "atua": {
        "value": 0,
        "atributo": "car",
        "outros": 0,
        "treinado": false,
        "st": false,
        "pda": false,
        "size": false,
        "condi": 0,
        "bonus": [],
        "custom": false,
        "label": "",
        "nome": ""
      },
      "cava": {
        "value": 0,
        "atributo": "des",
        "outros": 0,
        "treinado": false,
        "st": false,
        "pda": false,
        "size": false,
        "condi": 0,
        "bonus": [],
        "custom": false,
        "label": "",
        "nome": ""
      },
      "conh": {
        "value": 0,
        "atributo": "int",
        "outros": 0,
        "treinado": false,
        "st": false,
        "pda": false,
        "size": false,
        "condi": 0,
        "bonus": [],
        "custom": false,
        "label": "",
        "nome": ""
      },
      "cura": {
        "value": 0,
        "atributo": "sab",
        "outros": 0,
        "treinado": false,
        "st": false,
        "pda": false,
        "size": false,
        "condi": 0,
        "bonus": [],
        "custom": false,
        "label": "",
        "nome": ""
      },
      "dipl": {
        "value": 0,
        "atributo": "car",
        "outros": 0,
        "treinado": false,
        "st": false,
        "pda": false,
        "size": false,
        "condi": 0,
        "bonus": [],
        "custom": false,
        "label": "",
        "nome": ""
      },
      "enga": {
        "value": 0,
        "atributo": "car",
        "outros": 0,
        "treinado": false,
        "st": false,
        "pda": false,
        "size": false,
        "condi": 0,
        "bonus": [],
        "custom": false,
        "label": "",
        "nome": ""
      },
      "fort": {
        "value": 9,
        "atributo": "con",
        "outros": 9,
        "treinado": false,
        "st": false,
        "pda": false,
        "size": false,
        "condi": 0,
        "bonus": [],
        "custom": false,
        "label": "",
        "nome": ""
      },
      "furt": {
        "value": 0,
        "atributo": "des",
        "outros": 0,
        "treinado": false,
        "st": false,
        "pda": false,
        "size": false,
        "condi": 0,
        "bonus": [],
        "custom": false,
        "label": "",
        "nome": ""
      },
      "guer": {
        "value": 0,
        "atributo": "int",
        "outros": 0,
        "treinado": false,
        "st": false,
        "pda": false,
        "size": false,
        "condi": 0,
        "bonus": [],
        "custom": false,
        "label": "",
        "nome": ""
      },
      "inic": {
        "value": 4,
        "atributo": "des",
        "outros": 0,
        "treinado": true,
        "st": false,
        "pda": false,
        "size": false,
        "condi": 0,
        "bonus": [],
        "custom": false,
        "label": "",
        "nome": ""
      },
      "inti": {
        "value": 0,
        "atributo": "car",
        "outros": 0,
        "treinado": false,
        "st": false,
        "pda": false,
        "size": false,
        "condi": 0,
        "bonus": [],
        "custom": false,
        "label": "",
        "nome": ""
      },
      "intu": {
        "value": 0,
        "atributo": "sab",
        "outros": 0,
        "treinado": false,
        "label": "",
        "st": false,
        "pda": false,
        "bonus": [],
        "size": false,
        "condi": 0,
        "custom": false,
        "nome": ""
      },
      "inve": {
        "value": 0,
        "atributo": "int",
        "outros": 0,
        "treinado": false,
        "st": false,
        "pda": false,
        "size": false,
        "condi": 0,
        "bonus": [],
        "custom": false,
        "label": "",
        "nome": ""
      },
      "joga": {
        "value": 0,
        "atributo": "car",
        "outros": 0,
        "treinado": false,
        "st": false,
        "pda": false,
        "size": false,
        "condi": 0,
        "bonus": [],
        "custom": false,
        "label": "",
        "nome": ""
      },
      "ladi": {
        "value": 0,
        "atributo": "des",
        "outros": 0,
        "treinado": false,
        "st": false,
        "pda": false,
        "size": false,
        "condi": 0,
        "bonus": [],
        "custom": false,
        "label": "",
        "nome": ""
      },
      "luta": {
        "value": 0,
        "atributo": "for",
        "outros": 0,
        "treinado": false,
        "st": false,
        "pda": false,
        "size": false,
        "condi": 0,
        "bonus": [],
        "custom": false,
        "label": "",
        "nome": ""
      },
      "mist": {
        "value": 0,
        "atributo": "int",
        "outros": 0,
        "treinado": false,
        "st": false,
        "pda": false,
        "size": false,
        "condi": 0,
        "bonus": [],
        "custom": false,
        "label": "",
        "nome": ""
      },
      "nobr": {
        "value": 0,
        "atributo": "int",
        "outros": 0,
        "treinado": false,
        "st": false,
        "pda": false,
        "size": false,
        "condi": 0,
        "bonus": [],
        "custom": false,
        "label": "",
        "nome": ""
      },
      "ofi0": {
        "value": 0,
        "atributo": "int",
        "outros": 0,
        "treinado": false,
        "st": false,
        "pda": false,
        "size": false,
        "condi": 0,
        "bonus": [],
        "custom": false,
        "label": "",
        "nome": ""
      },
      "perc": {
        "value": 8,
        "atributo": "sab",
        "outros": 1,
        "treinado": true,
        "st": false,
        "pda": false,
        "size": false,
        "condi": 0,
        "bonus": [],
        "custom": false,
        "label": "",
        "nome": ""
      },
      "pilo": {
        "value": 0,
        "atributo": "des",
        "outros": 0,
        "treinado": false,
        "st": false,
        "pda": false,
        "size": false,
        "condi": 0,
        "bonus": [],
        "custom": false,
        "label": "",
        "nome": ""
      },
      "pont": {
        "value": 0,
        "atributo": "des",
        "outros": 0,
        "treinado": false,
        "st": false,
        "pda": false,
        "size": false,
        "condi": 0,
        "bonus": [],
        "custom": false,
        "label": "",
        "nome": ""
      },
      "refl": {
        "value": 4,
        "atributo": "des",
        "outros": 4,
        "treinado": false,
        "st": false,
        "pda": false,
        "size": false,
        "condi": 0,
        "bonus": [],
        "custom": false,
        "label": "",
        "nome": ""
      },
      "reli": {
        "value": 8,
        "atributo": "sab",
        "outros": 1,
        "treinado": true,
        "st": false,
        "pda": false,
        "size": false,
        "condi": 0,
        "bonus": [],
        "custom": false,
        "label": "",
        "nome": ""
      },
      "sobr": {
        "value": 10,
        "atributo": "sab",
        "outros": 3,
        "treinado": true,
        "st": false,
        "pda": false,
        "size": false,
        "condi": 0,
        "bonus": [],
        "custom": false,
        "label": "",
        "nome": ""
      },
      "vont": {
        "value": 15,
        "atributo": "sab",
        "outros": 15,
        "treinado": false,
        "st": false,
        "pda": false,
        "size": false,
        "condi": 0,
        "bonus": [],
        "custom": false,
        "label": "",
        "nome": ""
      },
      "_pc0": {
        "value": 0,
        "atributo": "for",
        "outros": 0,
        "treinado": false,
        "st": false,
        "pda": false,
        "size": false,
        "condi": 0,
        "bonus": [],
        "custom": false,
        "label": "",
        "nome": ""
      }
    },
    "modificadores": {
      "atributos": {
        "geral": [
          ""
        ],
        "fisicos": [
          ""
        ],
        "mentais": [
          ""
        ],
        "for": [
          ""
        ],
        "des": [
          ""
        ],
        "con": [
          ""
        ],
        "int": [
          ""
        ],
        "sab": [
          ""
        ],
        "car": [
          ""
        ]
      },
      "dano": {
        "geral": [
          ""
        ],
        "cac": [
          ""
        ],
        "ad": [
          ""
        ],
        "mag": [
          ""
        ],
        "alq": [
          ""
        ]
      },
      "custoPM": "0",
      "pericias": {
        "geral": [
          ""
        ],
        "semataque": [
          ""
        ],
        "ataque": [
          ""
        ],
        "resistencia": [
          ""
        ],
        "atr": {
          "for": [
            ""
          ],
          "des": [
            ""
          ],
          "con": [
            ""
          ],
          "int": [
            ""
          ],
          "sab": [
            ""
          ],
          "car": [
            ""
          ]
        }
      },
      "ataque": {
        "geral": [],
        "cac": [],
        "ad": []
      }
    },
    "builder": {
      "attributes": {
        "cr": "",
        "size": "",
        "attack": {
          "value": 0,
          "cr": ""
        },
        "damage": {
          "value": 0,
          "cr": ""
        },
        "defense": {
          "value": 0,
          "cr": ""
        },
        "fort": {
          "value": 0,
          "rank": 2,
          "cr": ""
        },
        "refl": {
          "value": 0,
          "rank": 1,
          "cr": ""
        },
        "vont": {
          "value": 0,
          "rank": 0,
          "cr": ""
        },
        "topsave": {
          "value": 0,
          "cr": ""
        },
        "midsave": {
          "value": 0,
          "cr": ""
        },
        "botsave": {
          "value": 0,
          "cr": ""
        },
        "hp": {
          "value": 0,
          "cr": ""
        },
        "mp": {
          "value": 0,
          "cr": ""
        },
        "dc": {
          "value": 0,
          "cr": ""
        }
      },
      "details": {
        "concept": "",
        "creatureType": "",
        "role": "",
        "treasure": ""
      }
    }
  },
  "ownership": {
    "default": 0
  },
  "prototypeToken": {
    "flags": {
      "perfect-vision": {
        "visionRules": "default",
        "monoVisionColor": "",
        "sightLimit": null,
        "_version": 1
      }
    },
    "name": "Centauro",
    "displayName": 0,
    "width": 2,
    "height": 2,
    "lockRotation": false,
    "rotation": 0,
    "actorLink": false,
    "disposition": -1,
    "displayBars": 0,
    "bar1": {
      "attribute": "attributes.pv"
    },
    "bar2": {
      "attribute": "attributes.pm"
    },
    "randomImg": false,
    "alpha": 1,
    "light": {
      "dim": 0,
      "bright": 0,
      "angle": 360,
      "color": null,
      "alpha": 1,
      "animation": {
        "speed": 5,
        "intensity": 5,
        "type": null,
        "reverse": false
      },
      "coloration": 1,
      "attenuation": 0.5,
      "luminosity": 0.5,
      "saturation": 0,
      "contrast": 0,
      "shadows": 0,
      "darkness": {
        "min": 0,
        "max": 1
      }
    },
    "texture": {
      "src": "systems/tormenta20/icons/ameacas/centauro-xama.png",
      "tint": null,
      "scaleX": 1.2,
      "scaleY": 1.2,
      "offsetX": 0,
      "offsetY": 0,
      "rotation": 0
    },
    "sight": {
      "angle": 360,
      "enabled": false,
      "range": 0,
      "brightness": 1,
      "visionMode": "basic",
      "color": null,
      "attenuation": 0.1,
      "saturation": 0,
      "contrast": 0
    },
    "detectionModes": [],
    "appendNumber": false,
    "prependAdjective": false
  },
  "_stats": {
    "systemId": "tormenta20",
    "systemVersion": "1.4.203d2",
    "coreVersion": "11.315",
    "createdTime": 1661997946042,
    "modifiedTime": 1700236615801,
    "lastModifiedBy": "5frcpPVF3cVfLwZA"
  },
  "_key": "!actors!yDY9SyAksM37Lw0h"
}
