{
  "_id": "XxD1i2mq6QdiJmzP",
  "name": "Engenho de Guerra Goblin",
  "type": "npc",
  "img": "systems/tormenta20/icons/ameacas/engenho-de-guerra-goblin.png",
  "items": [
    {
      "type": "poder",
      "name": "Arsenal de Engenhocas",
      "img": "icons/svg/item-bag.svg",
      "system": {
        "description": {
          "value": "O engenho de guerra possui várias engenhocas operadas por sua frenética tripulação. Sempre que esta habilidade é usada, role 1d6 quatro vezes. O resultado de cada dado indica qual engenhoca é ativada. Resultados repetidos são desperdiçados — isso significa que mais de um goblin tentou usar uma mesma engenhoca, perdendo sua ação",
          "unidentified": ""
        },
        "source": "",
        "ativacao": {
          "execucao": "action",
          "custo": 0,
          "qtd": "",
          "condicao": "",
          "special": ""
        },
        "duracao": {
          "value": 0,
          "units": "",
          "special": ""
        },
        "target": {
          "value": null,
          "width": null,
          "type": ""
        },
        "range": {
          "value": null,
          "units": ""
        },
        "consume": {
          "type": "",
          "target": "",
          "amount": null,
          "mpMultiplier": false
        },
        "efeito": "",
        "alcance": "none",
        "alvo": "",
        "area": "",
        "resistencia": {
          "pericia": "",
          "atributo": "",
          "bonus": 0,
          "txt": ""
        },
        "rolls": [
          {
            "name": "Engenhoca 1",
            "key": "formula0",
            "type": "formula",
            "parts": [
              [
                "1d6",
                "",
                ""
              ]
            ],
            "versatil": ""
          },
          {
            "name": "Engenhoca 2",
            "key": "formula1",
            "type": "formula",
            "parts": [
              [
                "1d6",
                "",
                ""
              ]
            ],
            "versatil": ""
          },
          {
            "name": "Engenhoca 3",
            "key": "formula2",
            "type": "formula",
            "parts": [
              [
                "1d6",
                "",
                ""
              ]
            ],
            "versatil": ""
          },
          {
            "name": "Engenhoca 4",
            "key": "formula3",
            "type": "formula",
            "parts": [
              [
                "1d6",
                "",
                ""
              ]
            ],
            "versatil": ""
          }
        ],
        "tipo": "ability",
        "subtipo": "",
        "origin": "",
        "tags": [],
        "chatFlavor": "",
        "chatGif": ""
      },
      "effects": [],
      "folder": null,
      "sort": 0,
      "ownership": {
        "default": 0,
        "tIn9sSkrT3mDWirx": 3
      },
      "flags": {},
      "_stats": {
        "systemId": "tormenta20",
        "systemVersion": "1.4.1004",
        "coreVersion": "10.286",
        "createdTime": 1667017477874,
        "modifiedTime": 1667017626922,
        "lastModifiedBy": "tIn9sSkrT3mDWirx"
      },
      "_id": "fLrTOrcVfEABDcbN",
      "_key": "!actors.items!XxD1i2mq6QdiJmzP.fLrTOrcVfEABDcbN"
    },
    {
      "type": "poder",
      "name": "Canhão elétrico 1",
      "img": "icons/weapons/guns/gun-green.webp",
      "system": {
        "description": {
          "value": "<p style=\"text-align: justify;\">O engenho dispara um raio em uma linha com alcance m&eacute;dio. Criaturas na &aacute;rea sofrem 8d8 pontos de dano de eletricidade</p>",
          "unidentified": ""
        },
        "source": "",
        "ativacao": {
          "execucao": "",
          "custo": 0,
          "qtd": "",
          "condicao": "",
          "special": ""
        },
        "duracao": {
          "value": 0,
          "units": "",
          "special": ""
        },
        "target": {
          "value": null,
          "width": null,
          "type": ""
        },
        "range": {
          "value": null,
          "units": ""
        },
        "consume": {
          "type": "",
          "target": "",
          "amount": null,
          "mpMultiplier": false
        },
        "efeito": "",
        "alcance": "medium",
        "alvo": "",
        "area": "linha",
        "resistencia": {
          "pericia": "",
          "atributo": "",
          "bonus": 0,
          "txt": ""
        },
        "rolls": [
          {
            "name": "Dano",
            "key": "dano0",
            "type": "dano",
            "parts": [
              [
                "8d8",
                "eletricidade",
                ""
              ]
            ],
            "versatil": ""
          }
        ],
        "tipo": "ability",
        "subtipo": "",
        "origin": "",
        "tags": [],
        "chatFlavor": "",
        "chatGif": ""
      },
      "effects": [],
      "folder": null,
      "sort": 0,
      "ownership": {
        "default": 0,
        "tIn9sSkrT3mDWirx": 3
      },
      "flags": {},
      "_stats": {
        "systemId": "tormenta20",
        "systemVersion": "1.4.1004",
        "coreVersion": "10.286",
        "createdTime": 1667017477874,
        "modifiedTime": 1667018378235,
        "lastModifiedBy": "tIn9sSkrT3mDWirx"
      },
      "_id": "qeQTpUD6Kixxwous",
      "_key": "!actors.items!XxD1i2mq6QdiJmzP.qeQTpUD6Kixxwous"
    },
    {
      "type": "poder",
      "name": "Balestra ácida 2",
      "img": "icons/skills/ranged/arrow-gem-flying-poisoned-green.webp",
      "system": {
        "description": {
          "value": "<p>O engenho dispara um virote de &aacute;cido em uma criatura em alcance m&eacute;dio. O alvo sofre 8d6 pontos de dano de &aacute;cido, mais [[/r 4d6]] pontos de dano de &aacute;cido no in&iacute;cio de seu pr&oacute;ximo turno</p>",
          "unidentified": ""
        },
        "source": "",
        "ativacao": {
          "execucao": "",
          "custo": 0,
          "qtd": "",
          "condicao": "",
          "special": ""
        },
        "duracao": {
          "value": 0,
          "units": "",
          "special": ""
        },
        "target": {
          "value": null,
          "width": null,
          "type": ""
        },
        "range": {
          "value": null,
          "units": ""
        },
        "consume": {
          "type": "",
          "target": "",
          "amount": null,
          "mpMultiplier": false
        },
        "efeito": "",
        "alcance": "medium",
        "alvo": "",
        "area": "",
        "resistencia": {
          "pericia": "",
          "atributo": "",
          "bonus": 0,
          "txt": ""
        },
        "rolls": [
          {
            "name": "Dano",
            "key": "dano0",
            "type": "dano",
            "parts": [
              [
                "8d6",
                "acido",
                ""
              ]
            ],
            "versatil": ""
          }
        ],
        "tipo": "ability",
        "subtipo": "",
        "origin": "",
        "tags": [],
        "chatFlavor": "",
        "chatGif": ""
      },
      "effects": [],
      "folder": null,
      "sort": 0,
      "ownership": {
        "default": 0,
        "tIn9sSkrT3mDWirx": 3
      },
      "flags": {},
      "_stats": {
        "systemId": "tormenta20",
        "systemVersion": "1.4.1004",
        "coreVersion": "10.286",
        "createdTime": 1667017477875,
        "modifiedTime": 1667018383834,
        "lastModifiedBy": "tIn9sSkrT3mDWirx"
      },
      "_id": "VRjQZsBB6WlTcaah",
      "_key": "!actors.items!XxD1i2mq6QdiJmzP.VRjQZsBB6WlTcaah"
    },
    {
      "type": "poder",
      "name": "Foles 3",
      "img": "icons/commodities/tech/furnace-modern.webp",
      "system": {
        "description": {
          "value": "<p>O engenho dispara labaredas em um cone de alcance curto. Criaturas na &aacute;rea sofrem 6d6 pontos de dano de fogo e ficam em chamas</p>",
          "unidentified": ""
        },
        "source": "",
        "ativacao": {
          "execucao": "",
          "custo": 0,
          "qtd": "",
          "condicao": "",
          "special": ""
        },
        "duracao": {
          "value": 0,
          "units": "",
          "special": ""
        },
        "target": {
          "value": null,
          "width": null,
          "type": ""
        },
        "range": {
          "value": null,
          "units": ""
        },
        "consume": {
          "type": "",
          "target": "",
          "amount": null,
          "mpMultiplier": false
        },
        "efeito": "",
        "alcance": "short",
        "alvo": "",
        "area": "cone 9m",
        "resistencia": {
          "pericia": "",
          "atributo": "",
          "bonus": 0,
          "txt": ""
        },
        "rolls": [
          {
            "name": "Dano",
            "key": "dano0",
            "type": "dano",
            "parts": [
              [
                "6d6",
                "fogo",
                ""
              ]
            ],
            "versatil": ""
          }
        ],
        "tipo": "ability",
        "subtipo": "",
        "origin": "",
        "tags": [],
        "chatFlavor": "",
        "chatGif": ""
      },
      "effects": [],
      "folder": null,
      "sort": 0,
      "ownership": {
        "default": 0,
        "tIn9sSkrT3mDWirx": 3
      },
      "flags": {},
      "_stats": {
        "systemId": "tormenta20",
        "systemVersion": "1.4.1004",
        "coreVersion": "10.286",
        "createdTime": 1667017477875,
        "modifiedTime": 1667018387170,
        "lastModifiedBy": "tIn9sSkrT3mDWirx"
      },
      "_id": "Ev84iq6B6bvRBwKv",
      "_key": "!actors.items!XxD1i2mq6QdiJmzP.Ev84iq6B6bvRBwKv"
    },
    {
      "type": "poder",
      "name": "Lâmina giratória 4",
      "img": "icons/environment/traps/saw-steel-grey.webp",
      "system": {
        "description": {
          "value": "<p>O engenho faz um ataque corpo a corpo em cada criatura adjacente&nbsp; (ataque +20, dano 4d6+10<br>corte, 19, corte).</p>",
          "unidentified": ""
        },
        "source": "",
        "ativacao": {
          "execucao": "",
          "custo": 0,
          "qtd": "",
          "condicao": "",
          "special": ""
        },
        "duracao": {
          "value": 0,
          "units": "",
          "special": ""
        },
        "target": {
          "value": null,
          "width": null,
          "type": ""
        },
        "range": {
          "value": null,
          "units": ""
        },
        "consume": {
          "type": "",
          "target": "",
          "amount": null,
          "mpMultiplier": false
        },
        "efeito": "",
        "alcance": "none",
        "alvo": "",
        "area": "",
        "resistencia": {
          "pericia": "",
          "atributo": "",
          "bonus": 0,
          "txt": ""
        },
        "rolls": [],
        "tipo": "ability",
        "subtipo": "",
        "origin": "",
        "tags": [],
        "chatFlavor": "",
        "chatGif": ""
      },
      "effects": [],
      "folder": null,
      "sort": 0,
      "ownership": {
        "default": 0,
        "tIn9sSkrT3mDWirx": 3
      },
      "flags": {},
      "_stats": {
        "systemId": "tormenta20",
        "systemVersion": "1.4.1004",
        "coreVersion": "10.286",
        "createdTime": 1667017477876,
        "modifiedTime": 1667018369476,
        "lastModifiedBy": "tIn9sSkrT3mDWirx"
      },
      "_id": "5XVsCVdDfL0OG8WG",
      "_key": "!actors.items!XxD1i2mq6QdiJmzP.5XVsCVdDfL0OG8WG"
    },
    {
      "type": "poder",
      "name": "Poça de óleo 5",
      "img": "icons/commodities/tech/smoke-bomb-yellow.webp",
      "system": {
        "description": {
          "value": "<p>O engenho vaza &oacute;leo escorregadio e inflam&aacute;vel. Todas as criaturas em alcance curto ficam vulner&aacute;veis a fogo at&eacute; se limparem e caem no ch&atilde;o. Um teste de Reflexos contra CD 22 evita ambos os efeitos</p>",
          "unidentified": ""
        },
        "source": "",
        "ativacao": {
          "execucao": "",
          "custo": 0,
          "qtd": "",
          "condicao": "",
          "special": ""
        },
        "duracao": {
          "value": 0,
          "units": "",
          "special": ""
        },
        "target": {
          "value": null,
          "width": null,
          "type": ""
        },
        "range": {
          "value": null,
          "units": ""
        },
        "consume": {
          "type": "",
          "target": "",
          "amount": null,
          "mpMultiplier": false
        },
        "efeito": "",
        "alcance": "none",
        "alvo": "",
        "area": "",
        "resistencia": {
          "pericia": "",
          "atributo": "",
          "bonus": 0,
          "txt": "Reflexos evita"
        },
        "rolls": [],
        "tipo": "ability",
        "subtipo": "",
        "origin": "",
        "tags": [],
        "chatFlavor": "",
        "chatGif": ""
      },
      "effects": [],
      "folder": null,
      "sort": 0,
      "ownership": {
        "default": 0,
        "tIn9sSkrT3mDWirx": 3
      },
      "flags": {},
      "_stats": {
        "systemId": "tormenta20",
        "systemVersion": "1.4.1004",
        "coreVersion": "10.286",
        "createdTime": 1667017477876,
        "modifiedTime": 1667018437305,
        "lastModifiedBy": "tIn9sSkrT3mDWirx"
      },
      "_id": "TLX9unucnb9Yxmf6",
      "_key": "!actors.items!XxD1i2mq6QdiJmzP.TLX9unucnb9Yxmf6"
    },
    {
      "type": "poder",
      "name": "Reparos emergenciais 6",
      "img": "icons/skills/trades/construction-carpentry-hammer-gray.webp",
      "system": {
        "description": {
          "value": "<p>O engenho recupera 20 PV</p>",
          "unidentified": ""
        },
        "source": "",
        "ativacao": {
          "execucao": "",
          "custo": 0,
          "qtd": "",
          "condicao": "",
          "special": ""
        },
        "duracao": {
          "value": 0,
          "units": "",
          "special": ""
        },
        "target": {
          "value": null,
          "width": null,
          "type": ""
        },
        "range": {
          "value": null,
          "units": ""
        },
        "consume": {
          "type": "",
          "target": "",
          "amount": null,
          "mpMultiplier": false
        },
        "efeito": "",
        "alcance": "self",
        "alvo": "",
        "area": "",
        "resistencia": {
          "pericia": "",
          "atributo": "",
          "bonus": 0,
          "txt": ""
        },
        "rolls": [
          {
            "name": "Dano",
            "key": "dano0",
            "type": "dano",
            "parts": [
              [
                "20",
                "curapv",
                ""
              ]
            ],
            "versatil": ""
          }
        ],
        "tipo": "ability",
        "subtipo": "",
        "origin": "",
        "tags": [],
        "chatFlavor": "",
        "chatGif": ""
      },
      "effects": [],
      "folder": null,
      "sort": 0,
      "ownership": {
        "default": 0,
        "tIn9sSkrT3mDWirx": 3
      },
      "flags": {},
      "_stats": {
        "systemId": "tormenta20",
        "systemVersion": "1.4.1004",
        "coreVersion": "10.286",
        "createdTime": 1667017477878,
        "modifiedTime": 1667018601849,
        "lastModifiedBy": "tIn9sSkrT3mDWirx"
      },
      "_id": "42QosFv9yTSEXLE8",
      "_key": "!actors.items!XxD1i2mq6QdiJmzP.42QosFv9yTSEXLE8"
    },
    {
      "type": "poder",
      "name": "Tripulação",
      "img": "icons/svg/item-bag.svg",
      "system": {
        "description": {
          "value": "<p>Se o engenho de guerra for destru&iacute;do, 1d6 goblins salteadores escapam de seus escombros e surgem no in&iacute;cio da rodada seguinte.</p>",
          "unidentified": ""
        },
        "source": "",
        "ativacao": {
          "execucao": "",
          "custo": 0,
          "qtd": "",
          "condicao": "",
          "special": ""
        },
        "duracao": {
          "value": 0,
          "units": "",
          "special": ""
        },
        "target": {
          "value": null,
          "width": null,
          "type": ""
        },
        "range": {
          "value": null,
          "units": ""
        },
        "consume": {
          "type": "",
          "target": "",
          "amount": null,
          "mpMultiplier": false
        },
        "efeito": "",
        "alcance": "none",
        "alvo": "",
        "area": "",
        "resistencia": {
          "pericia": "",
          "atributo": "",
          "bonus": 0,
          "txt": ""
        },
        "rolls": [],
        "tipo": "ability",
        "subtipo": "",
        "origin": "",
        "tags": [],
        "chatFlavor": "",
        "chatGif": ""
      },
      "effects": [],
      "folder": null,
      "sort": 0,
      "ownership": {
        "default": 0,
        "tIn9sSkrT3mDWirx": 3
      },
      "flags": {},
      "_stats": {
        "systemId": "tormenta20",
        "systemVersion": "1.4.1004",
        "coreVersion": "10.286",
        "createdTime": 1667017477879,
        "modifiedTime": 1667018652860,
        "lastModifiedBy": "tIn9sSkrT3mDWirx"
      },
      "_id": "Dyb99h9p99b1jnbd",
      "_key": "!actors.items!XxD1i2mq6QdiJmzP.Dyb99h9p99b1jnbd"
    },
    {
      "_id": "WDCtZjkjFCUMIzJH",
      "name": "Lâmina Giratória",
      "type": "arma",
      "img": "icons/environment/traps/saw-steel-grey.webp",
      "effects": [],
      "flags": {
        "core": {
          "sourceId": "Compendium.tormenta20.equipamentos.boM5sIgADaFaQ3xG"
        }
      },
      "system": {
        "description": {
          "value": "<p style=\"text-align: justify;\">O engenho faz um ataque corpo a corpo em cada criatura adjacente (ataque +20, dano 4d6+10 corte, 19).</p>",
          "chat": "",
          "unidentified": ""
        },
        "source": "",
        "equipado": 0,
        "equipado2": {
          "slot": 0,
          "type": "hand"
        },
        "carregado": true,
        "peso": 1,
        "espacos": 1,
        "qtd": 1,
        "preco": 10,
        "pv": {
          "value": 0,
          "min": 0,
          "max": 0
        },
        "rd": 0,
        "rolls": [
          {
            "name": "Ataque",
            "key": "ataque0",
            "type": "ataque",
            "parts": [
              [
                "1d20",
                "",
                ""
              ],
              [
                "luta",
                "",
                ""
              ],
              [
                "20",
                "",
                ""
              ]
            ]
          },
          {
            "name": "Dano",
            "key": "dano1",
            "type": "dano",
            "parts": [
              [
                "4d6+10",
                "corte",
                ""
              ],
              [
                "",
                "",
                ""
              ]
            ],
            "versatil": ""
          }
        ],
        "criticoM": 19,
        "criticoX": 2,
        "alcance": "",
        "tipoUso": "sim",
        "propriedades": {
          "ada": false,
          "agi": false,
          "alo": false,
          "arr": false,
          "dst": false,
          "dms": false,
          "dup": false,
          "lev": false,
          "mun": false,
          "ver": false,
          "adaptavel": false,
          "agil": false,
          "alongada": false,
          "arremesso": false,
          "ataqueDistancia": false,
          "duasMaos": false,
          "dupla": false,
          "leve": true,
          "municao": false,
          "versatil": false,
          "des": false,
          "hib": false
        },
        "encantos": {
          "arremesso": false,
          "lancinante": false,
          "lancinating": false
        },
        "ativacao": {
          "custo": null,
          "condicao": "",
          "execucao": "",
          "qtd": "",
          "special": ""
        },
        "chatFlavor": "",
        "consume": {
          "type": "",
          "target": "",
          "amount": null,
          "mpMultiplier": false
        },
        "origin": "",
        "tags": [],
        "chatGif": "",
        "upgrades": {
          "melhoria1": "",
          "melhoria2": "",
          "melhoria3": "",
          "melhoria4": "",
          "material": "",
          "encanto1": "",
          "encanto2": "",
          "encanto3": ""
        },
        "melhorias": {},
        "proficiencia": "simples",
        "proposito": "corpo-a-corpo",
        "empunhadura": "leve",
        "size": "normal",
        "ataques": 0
      },
      "ownership": {
        "default": 0,
        "tIn9sSkrT3mDWirx": 3
      },
      "_stats": {
        "systemId": "tormenta20",
        "systemVersion": "1.4.203d2",
        "coreVersion": "11.315",
        "createdTime": 1664312772410,
        "modifiedTime": 1700237016200,
        "lastModifiedBy": "5frcpPVF3cVfLwZA"
      },
      "folder": "brhICwdHcOUqvMPi",
      "sort": 2300000,
      "_key": "!actors.items!XxD1i2mq6QdiJmzP.WDCtZjkjFCUMIzJH"
    }
  ],
  "effects": [],
  "folder": "2PtsNLIrBn4IvrTS",
  "sort": 100001,
  "flags": {
    "exportSource": {
      "world": "andreverse-t20",
      "system": "tormenta20",
      "coreVersion": "0.6.6",
      "systemVersion": "0.9.71"
    },
    "editing": false,
    "tormenta20": {
      "sheet": {},
      "lvlconfig": {
        "pv": {},
        "pm": {}
      },
      "version": "1.3.0.0"
    },
    "core": {
      "sourceId": "Compendium.tormenta20.ameacas.XxD1i2mq6QdiJmzP"
    }
  },
  "system": {
    "atributos": {
      "for": {
        "value": 0,
        "bonus": 0,
        "base": 10,
        "racial": 0
      },
      "des": {
        "value": 0,
        "bonus": 0,
        "base": 0,
        "racial": 0
      },
      "con": {
        "value": 0,
        "bonus": 0,
        "base": 7,
        "racial": 0
      },
      "int": {
        "value": 0,
        "bonus": 0,
        "base": 0,
        "racial": 0
      },
      "sab": {
        "value": 0,
        "bonus": 0,
        "base": 0,
        "racial": 0
      },
      "car": {
        "value": 0,
        "bonus": 0,
        "base": -5,
        "racial": 0
      }
    },
    "attributes": {
      "cd": 22,
      "pv": {
        "value": 246,
        "min": -500,
        "max": 246,
        "temp": 0
      },
      "pm": {
        "value": 0,
        "min": 0,
        "max": 0,
        "temp": 0
      },
      "movement": {
        "burrow": 0,
        "climb": 0,
        "fly": 0,
        "swim": 0,
        "walk": 12,
        "unit": "m",
        "hover": false,
        "notes": ""
      },
      "defesa": {
        "base": 25,
        "value": 0,
        "outros": 0,
        "atributo": "des",
        "pda": 0,
        "bonus": [],
        "condi": 0
      },
      "sentidos": {
        "value": [
          "escuro"
        ],
        "custom": ""
      },
      "conjuracao": "int",
      "nivel": {
        "value": 1,
        "xp": {
          "value": 0,
          "pct": 0,
          "proximo": 0
        }
      },
      "nd": "6",
      "carga": {
        "value": 0,
        "base": 10,
        "bonus": [],
        "max": 0,
        "pct": 0,
        "encumbered": false
      },
      "treino": 0
    },
    "detalhes": {
      "biography": {
        "value": "",
        "public": ""
      },
      "raca": "",
      "tipo": "con",
      "alinhamento": "",
      "divindade": "",
      "nd": "",
      "equipamento": "",
      "resistencias": "redução de dano 10",
      "tesouro": "Padrão.",
      "role": "solo",
      "origem": ""
    },
    "tracos": {
      "tamanho": "eno",
      "resistencias": {
        "perda": {
          "value": 0,
          "base": 0,
          "bonus": [],
          "imunidade": false,
          "vulnerabilidade": false
        },
        "acido": {
          "value": 0,
          "base": 0,
          "bonus": [],
          "imunidade": false,
          "vulnerabilidade": false
        },
        "corte": {
          "value": 0,
          "base": 0,
          "bonus": [],
          "imunidade": false,
          "vulnerabilidade": false
        },
        "eletricidade": {
          "value": 0,
          "base": 0,
          "bonus": [],
          "imunidade": false,
          "vulnerabilidade": false
        },
        "essencia": {
          "value": 0,
          "base": 0,
          "bonus": [],
          "imunidade": false,
          "vulnerabilidade": false
        },
        "fogo": {
          "value": 0,
          "base": 0,
          "bonus": [],
          "imunidade": false,
          "vulnerabilidade": false
        },
        "frio": {
          "value": 0,
          "base": 0,
          "bonus": [],
          "imunidade": false,
          "vulnerabilidade": false
        },
        "impacto": {
          "value": 0,
          "base": 0,
          "bonus": [],
          "imunidade": false,
          "vulnerabilidade": false
        },
        "luz": {
          "value": 0,
          "base": 0,
          "bonus": [],
          "imunidade": false,
          "vulnerabilidade": false
        },
        "psiquico": {
          "value": 0,
          "base": 0,
          "bonus": [],
          "imunidade": false,
          "vulnerabilidade": false
        },
        "perfuracao": {
          "value": 0,
          "base": 0,
          "bonus": [],
          "imunidade": false,
          "vulnerabilidade": false
        },
        "trevas": {
          "value": 0,
          "base": 0,
          "bonus": [],
          "imunidade": false,
          "vulnerabilidade": false
        },
        "dano": {
          "value": 10,
          "imunidade": false,
          "vulnerabilidade": false
        }
      },
      "ic": {
        "value": [],
        "custom": ""
      },
      "idiomas": {
        "value": [
          "comum"
        ]
      }
    },
    "dinheiro": {
      "tl": 0,
      "to": 0,
      "tp": 0,
      "tc": 0
    },
    "resources": {
      "primary": {
        "value": 0,
        "max": 0,
        "label": ""
      },
      "secondary": {
        "value": 0,
        "max": 0,
        "label": ""
      },
      "tertiary": {
        "value": 0,
        "max": 0,
        "label": ""
      },
      "deathsave": {
        "value": 0,
        "max": 3,
        "label": ""
      },
      "shadow": {
        "value": 0,
        "max": 5,
        "label": ""
      },
      "catarse": {
        "value": 0,
        "max": 3,
        "label": ""
      }
    },
    "pericias": {
      "acro": {
        "value": 0,
        "atributo": "des",
        "outros": 0,
        "treinado": false,
        "st": false,
        "pda": false,
        "size": false,
        "condi": 0,
        "bonus": [],
        "custom": false,
        "label": "",
        "nome": ""
      },
      "ades": {
        "value": 0,
        "atributo": "car",
        "outros": 0,
        "treinado": false,
        "st": false,
        "pda": false,
        "size": false,
        "condi": 0,
        "bonus": [],
        "custom": false,
        "label": "",
        "nome": ""
      },
      "atle": {
        "value": 0,
        "atributo": "for",
        "outros": 0,
        "treinado": false,
        "st": false,
        "pda": false,
        "size": false,
        "condi": 0,
        "bonus": [],
        "custom": false,
        "label": "",
        "nome": ""
      },
      "atua": {
        "value": 0,
        "atributo": "car",
        "outros": 0,
        "treinado": false,
        "st": false,
        "pda": false,
        "size": false,
        "condi": 0,
        "bonus": [],
        "custom": false,
        "label": "",
        "nome": ""
      },
      "cava": {
        "value": 0,
        "atributo": "des",
        "outros": 0,
        "treinado": false,
        "st": false,
        "pda": false,
        "size": false,
        "condi": 0,
        "bonus": [],
        "custom": false,
        "label": "",
        "nome": ""
      },
      "conh": {
        "value": 0,
        "atributo": "int",
        "outros": 0,
        "treinado": false,
        "st": false,
        "pda": false,
        "size": false,
        "condi": 0,
        "bonus": [],
        "custom": false,
        "label": "",
        "nome": ""
      },
      "cura": {
        "value": 0,
        "atributo": "sab",
        "outros": 0,
        "treinado": false,
        "st": false,
        "pda": false,
        "size": false,
        "condi": 0,
        "bonus": [],
        "custom": false,
        "label": "",
        "nome": ""
      },
      "dipl": {
        "value": 0,
        "atributo": "car",
        "outros": 0,
        "treinado": false,
        "st": false,
        "pda": false,
        "size": false,
        "condi": 0,
        "bonus": [],
        "custom": false,
        "label": "",
        "nome": ""
      },
      "enga": {
        "value": 0,
        "atributo": "car",
        "outros": 0,
        "treinado": false,
        "st": false,
        "pda": false,
        "size": false,
        "condi": 0,
        "bonus": [],
        "custom": false,
        "label": "",
        "nome": ""
      },
      "fort": {
        "value": 18,
        "atributo": "con",
        "outros": 18,
        "treinado": false,
        "st": false,
        "pda": false,
        "size": false,
        "condi": 0,
        "bonus": [],
        "custom": false,
        "label": "",
        "nome": ""
      },
      "furt": {
        "value": 0,
        "atributo": "des",
        "outros": 0,
        "treinado": false,
        "st": false,
        "pda": false,
        "size": false,
        "condi": 0,
        "bonus": [],
        "custom": false,
        "label": "",
        "nome": ""
      },
      "guer": {
        "value": 0,
        "atributo": "int",
        "outros": 0,
        "treinado": false,
        "st": false,
        "pda": false,
        "size": false,
        "condi": 0,
        "bonus": [],
        "custom": false,
        "label": "",
        "nome": ""
      },
      "inic": {
        "value": 3,
        "atributo": "des",
        "outros": 0,
        "treinado": false,
        "st": false,
        "pda": false,
        "size": false,
        "condi": 0,
        "bonus": [],
        "custom": false,
        "label": "",
        "nome": ""
      },
      "inti": {
        "value": 0,
        "atributo": "car",
        "outros": 0,
        "treinado": false,
        "st": false,
        "pda": false,
        "size": false,
        "condi": 0,
        "bonus": [],
        "custom": false,
        "label": "",
        "nome": ""
      },
      "intu": {
        "value": 0,
        "atributo": "sab",
        "outros": 0,
        "treinado": false,
        "label": "",
        "st": false,
        "pda": false,
        "bonus": [],
        "size": false,
        "condi": 0,
        "custom": false,
        "nome": ""
      },
      "inve": {
        "value": 0,
        "atributo": "int",
        "outros": 0,
        "treinado": false,
        "st": false,
        "pda": false,
        "size": false,
        "condi": 0,
        "bonus": [],
        "custom": false,
        "label": "",
        "nome": ""
      },
      "joga": {
        "value": 0,
        "atributo": "car",
        "outros": 0,
        "treinado": false,
        "st": false,
        "pda": false,
        "size": false,
        "condi": 0,
        "bonus": [],
        "custom": false,
        "label": "",
        "nome": ""
      },
      "ladi": {
        "value": 0,
        "atributo": "des",
        "outros": 0,
        "treinado": false,
        "st": false,
        "pda": false,
        "size": false,
        "condi": 0,
        "bonus": [],
        "custom": false,
        "label": "",
        "nome": ""
      },
      "luta": {
        "value": 0,
        "atributo": "for",
        "outros": 0,
        "treinado": false,
        "st": false,
        "pda": false,
        "size": false,
        "condi": 0,
        "bonus": [],
        "custom": false,
        "label": "",
        "nome": ""
      },
      "mist": {
        "value": 0,
        "atributo": "int",
        "outros": 0,
        "treinado": false,
        "st": false,
        "pda": false,
        "size": false,
        "condi": 0,
        "bonus": [],
        "custom": false,
        "label": "",
        "nome": ""
      },
      "nobr": {
        "value": 0,
        "atributo": "int",
        "outros": 0,
        "treinado": false,
        "st": false,
        "pda": false,
        "size": false,
        "condi": 0,
        "bonus": [],
        "custom": false,
        "label": "",
        "nome": ""
      },
      "ofi0": {
        "value": 0,
        "atributo": "int",
        "outros": 0,
        "treinado": false,
        "st": false,
        "pda": false,
        "size": false,
        "condi": 0,
        "bonus": [],
        "custom": false,
        "label": "",
        "nome": ""
      },
      "perc": {
        "value": 5,
        "atributo": "sab",
        "outros": 0,
        "treinado": true,
        "st": false,
        "pda": false,
        "size": false,
        "condi": 0,
        "bonus": [],
        "custom": false,
        "label": "",
        "nome": ""
      },
      "pilo": {
        "value": 0,
        "atributo": "des",
        "outros": 0,
        "treinado": false,
        "st": false,
        "pda": false,
        "size": false,
        "condi": 0,
        "bonus": [],
        "custom": false,
        "label": "",
        "nome": ""
      },
      "pont": {
        "value": 0,
        "atributo": "des",
        "outros": 0,
        "treinado": false,
        "st": false,
        "pda": false,
        "size": false,
        "condi": 0,
        "bonus": [],
        "custom": false,
        "label": "",
        "nome": ""
      },
      "refl": {
        "value": 6,
        "atributo": "des",
        "outros": 6,
        "treinado": false,
        "st": false,
        "pda": false,
        "size": false,
        "condi": 0,
        "bonus": [],
        "custom": false,
        "label": "",
        "nome": ""
      },
      "reli": {
        "value": 0,
        "atributo": "sab",
        "outros": 0,
        "treinado": false,
        "st": false,
        "pda": false,
        "size": false,
        "condi": 0,
        "bonus": [],
        "custom": false,
        "label": "",
        "nome": ""
      },
      "sobr": {
        "value": 0,
        "atributo": "sab",
        "outros": 0,
        "treinado": false,
        "st": false,
        "pda": false,
        "size": false,
        "condi": 0,
        "bonus": [],
        "custom": false,
        "label": "",
        "nome": ""
      },
      "vont": {
        "value": 12,
        "atributo": "sab",
        "outros": 12,
        "treinado": false,
        "st": false,
        "pda": false,
        "size": false,
        "condi": 0,
        "bonus": [],
        "custom": false,
        "label": "",
        "nome": ""
      },
      "_pc0": {
        "value": 0,
        "atributo": "for",
        "outros": 0,
        "treinado": false,
        "st": false,
        "pda": false,
        "size": false,
        "condi": 0,
        "bonus": [],
        "custom": false,
        "label": "",
        "nome": ""
      }
    },
    "modificadores": {
      "atributos": {
        "geral": [
          ""
        ],
        "fisicos": [
          ""
        ],
        "mentais": [
          ""
        ],
        "for": [
          ""
        ],
        "des": [
          ""
        ],
        "con": [
          ""
        ],
        "int": [
          ""
        ],
        "sab": [
          ""
        ],
        "car": [
          ""
        ]
      },
      "dano": {
        "geral": [
          ""
        ],
        "cac": [
          ""
        ],
        "ad": [
          ""
        ],
        "mag": [
          ""
        ],
        "alq": [
          ""
        ]
      },
      "custoPM": "0",
      "pericias": {
        "geral": [
          ""
        ],
        "semataque": [
          ""
        ],
        "ataque": [
          ""
        ],
        "resistencia": [
          ""
        ],
        "atr": {
          "for": [
            ""
          ],
          "des": [
            ""
          ],
          "con": [
            ""
          ],
          "int": [
            ""
          ],
          "sab": [
            ""
          ],
          "car": [
            ""
          ]
        }
      },
      "ataque": {
        "geral": [],
        "cac": [],
        "ad": []
      }
    },
    "builder": {
      "attributes": {
        "cr": "",
        "size": "",
        "attack": {
          "value": 0,
          "cr": ""
        },
        "damage": {
          "value": 0,
          "cr": ""
        },
        "defense": {
          "value": 0,
          "cr": ""
        },
        "fort": {
          "value": 0,
          "rank": 2,
          "cr": ""
        },
        "refl": {
          "value": 0,
          "rank": 1,
          "cr": ""
        },
        "vont": {
          "value": 0,
          "rank": 0,
          "cr": ""
        },
        "topsave": {
          "value": 0,
          "cr": ""
        },
        "midsave": {
          "value": 0,
          "cr": ""
        },
        "botsave": {
          "value": 0,
          "cr": ""
        },
        "hp": {
          "value": 0,
          "cr": ""
        },
        "mp": {
          "value": 0,
          "cr": ""
        },
        "dc": {
          "value": 0,
          "cr": ""
        }
      },
      "details": {
        "concept": "",
        "creatureType": "",
        "role": "",
        "treasure": ""
      }
    }
  },
  "ownership": {
    "default": 0
  },
  "prototypeToken": {
    "flags": {},
    "name": "Engenho de Guerra Goblin",
    "displayName": 50,
    "width": 3,
    "height": 3,
    "lockRotation": false,
    "rotation": 0,
    "actorLink": false,
    "disposition": -1,
    "displayBars": 0,
    "bar1": {
      "attribute": "attributes.pv"
    },
    "bar2": {
      "attribute": "attributes.pm"
    },
    "randomImg": false,
    "alpha": 1,
    "light": {
      "dim": 0,
      "bright": 0,
      "angle": 360,
      "color": null,
      "alpha": 1,
      "animation": {
        "speed": 5,
        "intensity": 5,
        "type": null,
        "reverse": false
      },
      "coloration": 1,
      "attenuation": 0.5,
      "luminosity": 0.5,
      "saturation": 0,
      "contrast": 0,
      "shadows": 0,
      "darkness": {
        "min": 0,
        "max": 1
      }
    },
    "texture": {
      "src": "systems/tormenta20/icons/ameacas/engenho-de-guerra-goblin.png",
      "tint": null,
      "scaleX": 1.5,
      "scaleY": 1.5,
      "offsetX": 0,
      "offsetY": 0,
      "rotation": 0
    },
    "sight": {
      "angle": 360,
      "enabled": true,
      "range": 30,
      "brightness": 1,
      "visionMode": "basic",
      "color": null,
      "attenuation": 0.1,
      "saturation": 0,
      "contrast": 0
    },
    "detectionModes": [],
    "appendNumber": false,
    "prependAdjective": false
  },
  "_stats": {
    "systemId": "tormenta20",
    "systemVersion": "1.4.203d2",
    "coreVersion": "11.315",
    "createdTime": 1661997945971,
    "modifiedTime": 1700237016200,
    "lastModifiedBy": "5frcpPVF3cVfLwZA"
  },
  "_key": "!actors!XxD1i2mq6QdiJmzP"
}
