{
  "_id": "Tgy5IZKg9Mt1zgmp",
  "name": "Hobgoblin Soldado",
  "type": "npc",
  "img": "systems/tormenta20/icons/ameacas/hobgoblin-soldado.png",
  "items": [
    {
      "name": "Espada longa",
      "type": "arma",
      "img": "systems/tormenta20/icons/itens/equipamentos/espada-longa.webp",
      "effects": [],
      "flags": {
        "core": {
          "sourceId": "Compendium.tormenta20.equipamentos.LirOBCaOzAEWQpFk"
        }
      },
      "system": {
        "description": {
          "value": "<section class=\"secret\">Espada longa</section><p style=\"text-align:justify;\">Arma típica de soldados e guerreiros, esta espada de dois gumes tem lâmina reta medindo entre 80cm e 1m.</p>",
          "chat": "",
          "unidentified": ""
        },
        "source": "T20, pg. 148 (JdA)",
        "equipado": 0,
        "equipado2": {
          "slot": 0,
          "type": "hand"
        },
        "carregado": true,
        "peso": 2,
        "espacos": 1,
        "qtd": 1,
        "preco": 15,
        "pv": {
          "value": 0,
          "min": 0,
          "max": 0
        },
        "rd": 0,
        "rolls": [
          {
            "name": "Ataque",
            "key": "ataque0",
            "type": "ataque",
            "parts": [
              [
                "1d20",
                "",
                ""
              ],
              [
                "luta",
                "",
                ""
              ],
              [
                "+15",
                "",
                ""
              ]
            ]
          },
          {
            "name": "Dano",
            "key": "dano1",
            "type": "dano",
            "parts": [
              [
                "1d8+15",
                "corte",
                ""
              ],
              [
                "",
                "",
                ""
              ]
            ],
            "versatil": ""
          }
        ],
        "criticoM": 19,
        "criticoX": 2,
        "alcance": "",
        "tipoUso": "sim",
        "propriedades": {
          "ada": false,
          "agi": false,
          "alo": false,
          "arr": false,
          "dst": false,
          "dms": false,
          "dup": false,
          "lev": false,
          "mun": false,
          "ver": false,
          "adaptavel": false,
          "agil": false,
          "alongada": false,
          "arremesso": false,
          "ataqueDistancia": false,
          "duasMaos": false,
          "dupla": false,
          "leve": false,
          "municao": false,
          "versatil": false,
          "des": false,
          "hib": false
        },
        "encantos": {
          "arremesso": false,
          "lancinante": false,
          "lancinating": false
        },
        "ativacao": {
          "custo": null,
          "condicao": "",
          "execucao": "",
          "qtd": "",
          "special": ""
        },
        "chatFlavor": "",
        "consume": {
          "type": "",
          "target": "",
          "amount": null,
          "mpMultiplier": false
        },
        "origin": "",
        "tags": [],
        "chatGif": "",
        "upgrades": {
          "melhoria1": "",
          "melhoria2": "",
          "melhoria3": "",
          "melhoria4": "",
          "material": "",
          "encanto1": "",
          "encanto2": "",
          "encanto3": ""
        },
        "melhorias": {},
        "proficiencia": "marcial",
        "proposito": "corpo-a-corpo",
        "empunhadura": "uma",
        "size": "normal",
        "ataques": 0
      },
      "ownership": {
        "default": 0,
        "tIn9sSkrT3mDWirx": 3
      },
      "_stats": {
        "systemId": "tormenta20",
        "systemVersion": "1.4.203d2",
        "coreVersion": "11.315",
        "createdTime": 1664312772402,
        "modifiedTime": 1700236480532,
        "lastModifiedBy": "5frcpPVF3cVfLwZA"
      },
      "folder": "brhICwdHcOUqvMPi",
      "sort": 2200000,
      "_id": "Kvg3qTN6CIqZBEOG",
      "_key": "!actors.items!Tgy5IZKg9Mt1zgmp.Kvg3qTN6CIqZBEOG"
    },
    {
      "name": "Arco longo",
      "type": "arma",
      "img": "systems/tormenta20/icons/itens/equipamentos/arco-longo.webp",
      "effects": [],
      "flags": {
        "core": {
          "sourceId": "Compendium.tormenta20.equipamentos.B1hiWU8eEI1NHwcv"
        }
      },
      "system": {
        "description": {
          "value": "<section class=\"secret\">Arco longo</section><p style=\"text-align: justify;\">Este arco refor&ccedil;ado tem a altura de uma pessoa. Ao contr&aacute;rio da vers&atilde;o curta, &eacute; primariamente uma arma de guerra. Por ter uma puxada pesada, permite que voc&ecirc; aplique sua For&ccedil;a &agrave;s rolagens de dano (ao contr&aacute;rio de outras armas de disparo). Por&eacute;m, um arco longo n&atilde;o pode ser usado se voc&ecirc; estiver montado</p>",
          "chat": "",
          "unidentified": ""
        },
        "source": "T20, pg. 146 (JdA)",
        "equipado": 0,
        "equipado2": {
          "slot": 0,
          "type": "hand"
        },
        "carregado": true,
        "peso": 1.5,
        "espacos": 2,
        "qtd": 1,
        "preco": 100,
        "pv": {
          "value": 0,
          "min": 0,
          "max": 0
        },
        "rd": 0,
        "rolls": [
          {
            "name": "Ataque",
            "key": "ataque0",
            "type": "ataque",
            "parts": [
              [
                "1d20",
                "",
                ""
              ],
              [
                "pont",
                "",
                ""
              ],
              [
                "+11",
                "",
                ""
              ]
            ]
          },
          {
            "name": "Dano",
            "key": "dano1",
            "type": "dano",
            "parts": [
              [
                "1d8+6",
                "perfuracao",
                ""
              ],
              [
                "",
                "",
                ""
              ]
            ],
            "versatil": ""
          }
        ],
        "criticoM": 20,
        "criticoX": 2,
        "alcance": "medium",
        "tipoUso": "sim",
        "propriedades": {
          "ada": false,
          "agi": false,
          "alo": false,
          "arr": false,
          "dst": false,
          "dms": false,
          "dup": false,
          "lev": false,
          "mun": false,
          "ver": false,
          "adaptavel": false,
          "agil": false,
          "alongada": false,
          "arremesso": false,
          "ataqueDistancia": true,
          "duasMaos": true,
          "dupla": false,
          "leve": false,
          "municao": true,
          "versatil": false,
          "des": false,
          "hib": false
        },
        "encantos": {
          "arremesso": false,
          "lancinante": false,
          "lancinating": false
        },
        "ativacao": {
          "custo": null,
          "condicao": "",
          "execucao": "",
          "qtd": "",
          "special": ""
        },
        "chatFlavor": "",
        "consume": {
          "type": "",
          "target": "",
          "amount": null,
          "mpMultiplier": false
        },
        "origin": "",
        "tags": [],
        "chatGif": "",
        "upgrades": {
          "melhoria1": "",
          "melhoria2": "",
          "melhoria3": "",
          "melhoria4": "",
          "material": "",
          "encanto1": "",
          "encanto2": "",
          "encanto3": ""
        },
        "melhorias": {},
        "proficiencia": "marcial",
        "proposito": "disparo",
        "empunhadura": "duas",
        "size": "normal",
        "ataques": 0
      },
      "ownership": {
        "default": 0,
        "tIn9sSkrT3mDWirx": 3
      },
      "_stats": {
        "systemId": "tormenta20",
        "systemVersion": "1.4.203d2",
        "coreVersion": "11.315",
        "createdTime": 1664312772394,
        "modifiedTime": 1700236485878,
        "lastModifiedBy": "5frcpPVF3cVfLwZA"
      },
      "folder": "brhICwdHcOUqvMPi",
      "sort": 3500000,
      "_id": "WZvwjihIPyBQ17T0",
      "_key": "!actors.items!Tgy5IZKg9Mt1zgmp.WZvwjihIPyBQ17T0"
    },
    {
      "_id": "1yyyoQzENEQwDFZK",
      "name": "Cota de malha",
      "type": "equipamento",
      "img": "systems/tormenta20/icons/itens/equipamentos/cota-malha.webp",
      "effects": [],
      "flags": {
        "core": {
          "sourceId": "Compendium.tormenta20.equipamentos.wvwi8zPSP8mRx7LO"
        }
      },
      "system": {
        "description": {
          "value": "<p style=\"text-align:justify;\">Longa veste de anéis metálicos interligados, formando uma malha flexível e resistente, que vai até os joelhos.</p>",
          "unidentified": ""
        },
        "source": "T20, pg. 154 (JdA)",
        "equipado": true,
        "carregado": true,
        "peso": 20,
        "espacos": 5,
        "qtd": 1,
        "preco": 150,
        "pv": {
          "value": 0,
          "min": 0,
          "max": 0
        },
        "rd": 0,
        "tipo": "pesada",
        "armadura": {
          "value": 6,
          "penalidade": -2,
          "maxAtr": 0
        },
        "rolls": [],
        "origin": "",
        "tags": [],
        "chatFlavor": "",
        "chatGif": "",
        "ativacao": {
          "custo": 0,
          "condicao": "",
          "execucao": "",
          "qtd": "",
          "special": ""
        },
        "upgrades": {
          "melhoria1": "",
          "melhoria2": "",
          "melhoria3": "",
          "melhoria4": "",
          "material": "",
          "encanto1": "",
          "encanto2": "",
          "encanto3": ""
        },
        "melhorias": {},
        "encantos": {}
      },
      "ownership": {
        "default": 0,
        "tIn9sSkrT3mDWirx": 3
      },
      "_stats": {
        "systemId": "tormenta20",
        "systemVersion": "1.4.1004",
        "coreVersion": "10.286",
        "createdTime": 1664312773033,
        "modifiedTime": 1667015952966,
        "lastModifiedBy": "tIn9sSkrT3mDWirx"
      },
      "folder": "rsvFZjPiYXV5s7IN",
      "sort": 125000,
      "_key": "!actors.items!Tgy5IZKg9Mt1zgmp.1yyyoQzENEQwDFZK"
    },
    {
      "_id": "Hq9M0XRmaYaqYaul",
      "name": "Escudo pesado",
      "type": "equipamento",
      "img": "systems/tormenta20/icons/itens/equipamentos/escudo-pesado.webp",
      "effects": [],
      "flags": {
        "core": {
          "sourceId": "Compendium.tormenta20.equipamentos.1yGTB9tyXXSaN1wS"
        }
      },
      "system": {
        "description": {
          "value": "<p style=\"text-align:justify;\">Normalmente feito de aço, este escudo é preso ao antebraço  e  também  deve  ser  empunhado com firmeza, impedindo o usuário de usar aquela mão.</p>",
          "unidentified": ""
        },
        "source": "T20, pg. 154 (JdA)",
        "equipado": true,
        "carregado": true,
        "peso": 7,
        "espacos": 2,
        "qtd": 1,
        "preco": 15,
        "pv": {
          "value": 0,
          "min": 0,
          "max": 0
        },
        "rd": 0,
        "tipo": "escudo",
        "armadura": {
          "value": 2,
          "penalidade": -2,
          "maxAtr": 0
        },
        "rolls": [],
        "origin": "",
        "tags": [],
        "chatFlavor": "",
        "chatGif": "",
        "ativacao": {
          "custo": 0,
          "condicao": "",
          "execucao": "",
          "qtd": "",
          "special": ""
        },
        "upgrades": {
          "melhoria1": "",
          "melhoria2": "",
          "melhoria3": "",
          "melhoria4": "",
          "material": "",
          "encanto1": "",
          "encanto2": "",
          "encanto3": ""
        },
        "melhorias": {},
        "encantos": {}
      },
      "ownership": {
        "default": 0,
        "tIn9sSkrT3mDWirx": 3
      },
      "_stats": {
        "systemId": "tormenta20",
        "systemVersion": "1.4.1004",
        "coreVersion": "10.286",
        "createdTime": 1664312772390,
        "modifiedTime": 1667015956681,
        "lastModifiedBy": "tIn9sSkrT3mDWirx"
      },
      "folder": "rsvFZjPiYXV5s7IN",
      "sort": 101563,
      "_key": "!actors.items!Tgy5IZKg9Mt1zgmp.Hq9M0XRmaYaqYaul"
    },
    {
      "_id": "peJTblIP6DMNa9kP",
      "name": "Flechas",
      "type": "consumivel",
      "img": "systems/tormenta20/icons/itens/equipamentos/flecha.webp",
      "effects": [],
      "flags": {
        "core": {
          "sourceId": "Compendium.tormenta20.equipamentos.UI59UM7vpFaHRc18"
        }
      },
      "system": {
        "description": {
          "value": "<p style=\"text-align: justify;\">Uma aljava com 20 flechas, hastes de madeira com ponta met&aacute;lica e penas para estabilizar o voo. Recarregar um arco com uma flecha &eacute; uma a&ccedil;&atilde;o livre</p>",
          "unidentified": ""
        },
        "source": "T20, pg. 151 (JdA)",
        "carregado": true,
        "peso": 0.075,
        "espacos": 0.05,
        "qtd": 20,
        "preco": 1,
        "pv": {
          "value": 0,
          "min": 0,
          "max": 0
        },
        "rd": 0,
        "ativacao": {
          "execucao": "",
          "custo": 0,
          "qtd": "",
          "condicao": "",
          "special": ""
        },
        "duracao": {
          "value": 0,
          "units": "",
          "special": ""
        },
        "target": {
          "value": null,
          "width": null,
          "type": ""
        },
        "range": {
          "value": null,
          "units": ""
        },
        "consume": {
          "type": "",
          "target": "",
          "amount": null,
          "mpMultiplier": false
        },
        "efeito": "",
        "alcance": "none",
        "alvo": "",
        "area": "",
        "resistencia": {
          "pericia": "",
          "atributo": "",
          "bonus": 0,
          "txt": ""
        },
        "rolls": [],
        "tipo": "ammo",
        "chatFlavor": "",
        "origin": "",
        "tags": [],
        "chatGif": "",
        "upgrades": {
          "melhoria1": "",
          "melhoria2": "",
          "melhoria3": "",
          "melhoria4": "",
          "material": "",
          "encanto1": "",
          "encanto2": "",
          "encanto3": ""
        },
        "melhorias": {},
        "encantos": {},
        "subtipo": ""
      },
      "ownership": {
        "default": 0,
        "tIn9sSkrT3mDWirx": 3
      },
      "_stats": {
        "systemId": "tormenta20",
        "systemVersion": "1.4.1004",
        "coreVersion": "10.286",
        "createdTime": 1664312772407,
        "modifiedTime": 1667015959979,
        "lastModifiedBy": "tIn9sSkrT3mDWirx"
      },
      "folder": "I6NNvV3PwdDmfJ2K",
      "sort": 200000,
      "_key": "!actors.items!Tgy5IZKg9Mt1zgmp.peJTblIP6DMNa9kP"
    }
  ],
  "effects": [],
  "folder": "HaKm5o3jKqN2gqzC",
  "sort": 100001,
  "flags": {
    "exportSource": {
      "world": "andreverse-t20",
      "system": "tormenta20",
      "coreVersion": "0.6.6",
      "systemVersion": "0.9.71"
    },
    "editing": false,
    "tormenta20": {
      "sheet": {},
      "lvlconfig": {
        "pv": {},
        "pm": {}
      },
      "version": "1.3.0.0"
    },
    "core": {
      "sourceId": "Compendium.tormenta20.ameacas.Tgy5IZKg9Mt1zgmp"
    }
  },
  "system": {
    "atributos": {
      "for": {
        "value": 0,
        "bonus": 0,
        "base": 4,
        "racial": 0
      },
      "des": {
        "value": 0,
        "bonus": 0,
        "base": 2,
        "racial": 0
      },
      "con": {
        "value": 0,
        "bonus": 0,
        "base": 1,
        "racial": 0
      },
      "int": {
        "value": 0,
        "bonus": 0,
        "base": 0,
        "racial": 0
      },
      "sab": {
        "value": 0,
        "bonus": 0,
        "base": 0,
        "racial": 0
      },
      "car": {
        "value": 0,
        "bonus": 0,
        "base": -1,
        "racial": 0
      }
    },
    "attributes": {
      "cd": 10,
      "pv": {
        "value": 18,
        "min": -500,
        "max": 18,
        "temp": 0
      },
      "pm": {
        "value": 0,
        "min": 0,
        "max": 0,
        "temp": 0
      },
      "movement": {
        "burrow": 0,
        "climb": 0,
        "fly": 0,
        "swim": 0,
        "walk": 6,
        "unit": "m",
        "hover": false,
        "notes": ""
      },
      "defesa": {
        "base": 19,
        "value": 0,
        "outros": 0,
        "atributo": "des",
        "pda": 0,
        "bonus": [],
        "condi": 0
      },
      "sentidos": {
        "value": [
          "escuro"
        ],
        "custom": ""
      },
      "conjuracao": "int",
      "nivel": {
        "value": 1,
        "xp": {
          "value": 0,
          "pct": 0,
          "proximo": 0
        }
      },
      "nd": "2",
      "carga": {
        "value": 0,
        "base": 10,
        "bonus": [],
        "max": 0,
        "pct": 0,
        "encumbered": false
      },
      "treino": 0
    },
    "detalhes": {
      "biography": {
        "value": "",
        "public": ""
      },
      "raca": "hobgoblin",
      "tipo": "hum",
      "alinhamento": "",
      "divindade": "",
      "nd": "",
      "equipamento": "",
      "resistencias": "",
      "tesouro": "Padrão.",
      "role": "lackey",
      "origem": "",
      "ataquescac": "Espada longa +15 (1d8+15, 19).",
      "ataquesad": "Arco longo +11 (1d8+6, x3)."
    },
    "tracos": {
      "tamanho": "med",
      "resistencias": {
        "perda": {
          "value": 0,
          "base": 0,
          "bonus": [],
          "imunidade": false,
          "vulnerabilidade": false
        },
        "acido": {
          "value": 0,
          "base": 0,
          "bonus": [],
          "imunidade": false,
          "vulnerabilidade": false
        },
        "corte": {
          "value": 0,
          "base": 0,
          "bonus": [],
          "imunidade": false,
          "vulnerabilidade": false
        },
        "eletricidade": {
          "value": 0,
          "base": 0,
          "bonus": [],
          "imunidade": false,
          "vulnerabilidade": false
        },
        "essencia": {
          "value": 0,
          "base": 0,
          "bonus": [],
          "imunidade": false,
          "vulnerabilidade": false
        },
        "fogo": {
          "value": 0,
          "base": 0,
          "bonus": [],
          "imunidade": false,
          "vulnerabilidade": false
        },
        "frio": {
          "value": 0,
          "base": 0,
          "bonus": [],
          "imunidade": false,
          "vulnerabilidade": false
        },
        "impacto": {
          "value": 0,
          "base": 0,
          "bonus": [],
          "imunidade": false,
          "vulnerabilidade": false
        },
        "luz": {
          "value": 0,
          "base": 0,
          "bonus": [],
          "imunidade": false,
          "vulnerabilidade": false
        },
        "psiquico": {
          "value": 0,
          "base": 0,
          "bonus": [],
          "imunidade": false,
          "vulnerabilidade": false
        },
        "perfuracao": {
          "value": 0,
          "base": 0,
          "bonus": [],
          "imunidade": false,
          "vulnerabilidade": false
        },
        "trevas": {
          "value": 0,
          "base": 0,
          "bonus": [],
          "imunidade": false,
          "vulnerabilidade": false
        },
        "dano": {
          "value": 0,
          "imunidade": false,
          "vulnerabilidade": false
        }
      },
      "ic": {
        "value": [],
        "custom": ""
      },
      "idiomas": {
        "value": [
          "comum"
        ]
      }
    },
    "dinheiro": {
      "tl": 0,
      "to": 0,
      "tp": 0,
      "tc": 0
    },
    "resources": {
      "primary": {
        "value": 0,
        "max": 0,
        "label": ""
      },
      "secondary": {
        "value": 0,
        "max": 0,
        "label": ""
      },
      "tertiary": {
        "value": 0,
        "max": 0,
        "label": ""
      },
      "deathsave": {
        "value": 0,
        "max": 3,
        "label": ""
      },
      "shadow": {
        "value": 0,
        "max": 5,
        "label": ""
      },
      "catarse": {
        "value": 0,
        "max": 3,
        "label": ""
      }
    },
    "pericias": {
      "acro": {
        "value": 0,
        "atributo": "des",
        "outros": 0,
        "treinado": false,
        "st": false,
        "pda": false,
        "size": false,
        "condi": 0,
        "bonus": [],
        "custom": false,
        "label": "",
        "nome": ""
      },
      "ades": {
        "value": 0,
        "atributo": "car",
        "outros": 0,
        "treinado": false,
        "st": false,
        "pda": false,
        "size": false,
        "condi": 0,
        "bonus": [],
        "custom": false,
        "label": "",
        "nome": ""
      },
      "atle": {
        "value": 0,
        "atributo": "for",
        "outros": 0,
        "treinado": false,
        "st": false,
        "pda": false,
        "size": false,
        "condi": 0,
        "bonus": [],
        "custom": false,
        "label": "",
        "nome": ""
      },
      "atua": {
        "value": 0,
        "atributo": "car",
        "outros": 0,
        "treinado": false,
        "st": false,
        "pda": false,
        "size": false,
        "condi": 0,
        "bonus": [],
        "custom": false,
        "label": "",
        "nome": ""
      },
      "cava": {
        "value": 0,
        "atributo": "des",
        "outros": 0,
        "treinado": false,
        "st": false,
        "pda": false,
        "size": false,
        "condi": 0,
        "bonus": [],
        "custom": false,
        "label": "",
        "nome": ""
      },
      "conh": {
        "value": 0,
        "atributo": "int",
        "outros": 0,
        "treinado": false,
        "st": false,
        "pda": false,
        "size": false,
        "condi": 0,
        "bonus": [],
        "custom": false,
        "label": "",
        "nome": ""
      },
      "cura": {
        "value": 0,
        "atributo": "sab",
        "outros": 0,
        "treinado": false,
        "st": false,
        "pda": false,
        "size": false,
        "condi": 0,
        "bonus": [],
        "custom": false,
        "label": "",
        "nome": ""
      },
      "dipl": {
        "value": 0,
        "atributo": "car",
        "outros": 0,
        "treinado": false,
        "st": false,
        "pda": false,
        "size": false,
        "condi": 0,
        "bonus": [],
        "custom": false,
        "label": "",
        "nome": ""
      },
      "enga": {
        "value": 0,
        "atributo": "car",
        "outros": 0,
        "treinado": false,
        "st": false,
        "pda": false,
        "size": false,
        "condi": 0,
        "bonus": [],
        "custom": false,
        "label": "",
        "nome": ""
      },
      "fort": {
        "value": 12,
        "atributo": "con",
        "outros": 12,
        "treinado": false,
        "st": false,
        "pda": false,
        "size": false,
        "condi": 0,
        "bonus": [],
        "custom": false,
        "label": "",
        "nome": ""
      },
      "furt": {
        "value": 0,
        "atributo": "des",
        "outros": 0,
        "treinado": false,
        "st": false,
        "pda": false,
        "size": false,
        "condi": 0,
        "bonus": [],
        "custom": false,
        "label": "",
        "nome": ""
      },
      "guer": {
        "value": 0,
        "atributo": "int",
        "outros": 0,
        "treinado": false,
        "st": false,
        "pda": false,
        "size": false,
        "condi": 0,
        "bonus": [],
        "custom": false,
        "label": "",
        "nome": ""
      },
      "inic": {
        "value": 4,
        "atributo": "des",
        "outros": 1,
        "treinado": false,
        "st": false,
        "pda": false,
        "size": false,
        "condi": 0,
        "bonus": [],
        "custom": false,
        "label": "",
        "nome": ""
      },
      "inti": {
        "value": 0,
        "atributo": "car",
        "outros": 0,
        "treinado": false,
        "st": false,
        "pda": false,
        "size": false,
        "condi": 0,
        "bonus": [],
        "custom": false,
        "label": "",
        "nome": ""
      },
      "intu": {
        "value": 0,
        "atributo": "sab",
        "outros": 0,
        "treinado": false,
        "label": "",
        "st": false,
        "pda": false,
        "bonus": [],
        "size": false,
        "condi": 0,
        "custom": false,
        "nome": ""
      },
      "inve": {
        "value": 0,
        "atributo": "int",
        "outros": 0,
        "treinado": false,
        "st": false,
        "pda": false,
        "size": false,
        "condi": 0,
        "bonus": [],
        "custom": false,
        "label": "",
        "nome": ""
      },
      "joga": {
        "value": 0,
        "atributo": "car",
        "outros": 0,
        "treinado": false,
        "st": false,
        "pda": false,
        "size": false,
        "condi": 0,
        "bonus": [],
        "custom": false,
        "label": "",
        "nome": ""
      },
      "ladi": {
        "value": 0,
        "atributo": "des",
        "outros": 0,
        "treinado": false,
        "st": false,
        "pda": false,
        "size": false,
        "condi": 0,
        "bonus": [],
        "custom": false,
        "label": "",
        "nome": ""
      },
      "luta": {
        "value": 0,
        "atributo": "for",
        "outros": 0,
        "treinado": false,
        "st": false,
        "pda": false,
        "size": false,
        "condi": 0,
        "bonus": [],
        "custom": false,
        "label": "",
        "nome": ""
      },
      "mist": {
        "value": 0,
        "atributo": "int",
        "outros": 0,
        "treinado": false,
        "st": false,
        "pda": false,
        "size": false,
        "condi": 0,
        "bonus": [],
        "custom": false,
        "label": "",
        "nome": ""
      },
      "nobr": {
        "value": 0,
        "atributo": "int",
        "outros": 0,
        "treinado": false,
        "st": false,
        "pda": false,
        "size": false,
        "condi": 0,
        "bonus": [],
        "custom": false,
        "label": "",
        "nome": ""
      },
      "ofi0": {
        "value": 0,
        "atributo": "int",
        "outros": 0,
        "treinado": false,
        "st": false,
        "pda": false,
        "size": false,
        "condi": 0,
        "bonus": [],
        "custom": false,
        "label": "",
        "nome": ""
      },
      "perc": {
        "value": 1,
        "atributo": "sab",
        "outros": 0,
        "treinado": false,
        "st": false,
        "pda": false,
        "size": false,
        "condi": 0,
        "bonus": [],
        "custom": false,
        "label": "",
        "nome": ""
      },
      "pilo": {
        "value": 0,
        "atributo": "des",
        "outros": 0,
        "treinado": false,
        "st": false,
        "pda": false,
        "size": false,
        "condi": 0,
        "bonus": [],
        "custom": false,
        "label": "",
        "nome": ""
      },
      "pont": {
        "value": 0,
        "atributo": "des",
        "outros": 0,
        "treinado": false,
        "st": false,
        "pda": false,
        "size": false,
        "condi": 0,
        "bonus": [],
        "custom": false,
        "label": "",
        "nome": ""
      },
      "refl": {
        "value": 7,
        "atributo": "des",
        "outros": 7,
        "treinado": false,
        "st": false,
        "pda": false,
        "size": false,
        "condi": 0,
        "bonus": [],
        "custom": false,
        "label": "",
        "nome": ""
      },
      "reli": {
        "value": 0,
        "atributo": "sab",
        "outros": 0,
        "treinado": false,
        "st": false,
        "pda": false,
        "size": false,
        "condi": 0,
        "bonus": [],
        "custom": false,
        "label": "",
        "nome": ""
      },
      "sobr": {
        "value": 0,
        "atributo": "sab",
        "outros": 0,
        "treinado": false,
        "st": false,
        "pda": false,
        "size": false,
        "condi": 0,
        "bonus": [],
        "custom": false,
        "label": "",
        "nome": ""
      },
      "vont": {
        "value": 3,
        "atributo": "sab",
        "outros": 3,
        "treinado": false,
        "st": false,
        "pda": false,
        "size": false,
        "condi": 0,
        "bonus": [],
        "custom": false,
        "label": "",
        "nome": ""
      },
      "_pc0": {
        "value": 0,
        "atributo": "for",
        "outros": 0,
        "treinado": false,
        "st": false,
        "pda": false,
        "size": false,
        "condi": 0,
        "bonus": [],
        "custom": false,
        "label": "",
        "nome": ""
      },
      "ofi1": {
        "treinado": false,
        "label": "Armeiro",
        "atributo": "int",
        "outros": 1,
        "condi": 0
      }
    },
    "modificadores": {
      "atributos": {
        "geral": [
          ""
        ],
        "fisicos": [
          ""
        ],
        "mentais": [
          ""
        ],
        "for": [
          ""
        ],
        "des": [
          ""
        ],
        "con": [
          ""
        ],
        "int": [
          ""
        ],
        "sab": [
          ""
        ],
        "car": [
          ""
        ]
      },
      "dano": {
        "geral": [
          ""
        ],
        "cac": [
          ""
        ],
        "ad": [
          ""
        ],
        "mag": [
          ""
        ],
        "alq": [
          ""
        ]
      },
      "custoPM": "0",
      "pericias": {
        "geral": [
          ""
        ],
        "semataque": [
          ""
        ],
        "ataque": [
          ""
        ],
        "resistencia": [
          ""
        ],
        "atr": {
          "for": [
            ""
          ],
          "des": [
            ""
          ],
          "con": [
            ""
          ],
          "int": [
            ""
          ],
          "sab": [
            ""
          ],
          "car": [
            ""
          ]
        }
      },
      "ataque": {
        "geral": [],
        "cac": [],
        "ad": []
      }
    },
    "builder": {
      "attributes": {
        "cr": "",
        "size": "",
        "attack": {
          "value": 0,
          "cr": ""
        },
        "damage": {
          "value": 0,
          "cr": ""
        },
        "defense": {
          "value": 0,
          "cr": ""
        },
        "fort": {
          "value": 0,
          "rank": 2,
          "cr": ""
        },
        "refl": {
          "value": 0,
          "rank": 1,
          "cr": ""
        },
        "vont": {
          "value": 0,
          "rank": 0,
          "cr": ""
        },
        "topsave": {
          "value": 0,
          "cr": ""
        },
        "midsave": {
          "value": 0,
          "cr": ""
        },
        "botsave": {
          "value": 0,
          "cr": ""
        },
        "hp": {
          "value": 0,
          "cr": ""
        },
        "mp": {
          "value": 0,
          "cr": ""
        },
        "dc": {
          "value": 0,
          "cr": ""
        }
      },
      "details": {
        "concept": "",
        "creatureType": "",
        "role": "",
        "treasure": ""
      }
    }
  },
  "ownership": {
    "default": 0
  },
  "prototypeToken": {
    "flags": {},
    "name": "Hobgoblin Soldado",
    "displayName": 50,
    "width": 1,
    "height": 1,
    "lockRotation": false,
    "rotation": 0,
    "actorLink": false,
    "disposition": -1,
    "displayBars": 0,
    "bar1": {
      "attribute": "attributes.pv"
    },
    "bar2": {
      "attribute": "attributes.pm"
    },
    "randomImg": false,
    "alpha": 1,
    "light": {
      "dim": 0,
      "bright": 0,
      "angle": 360,
      "color": null,
      "alpha": 1,
      "animation": {
        "speed": 5,
        "intensity": 5,
        "type": null,
        "reverse": false
      },
      "coloration": 1,
      "attenuation": 0.5,
      "luminosity": 0.5,
      "saturation": 0,
      "contrast": 0,
      "shadows": 0,
      "darkness": {
        "min": 0,
        "max": 1
      }
    },
    "texture": {
      "src": "systems/tormenta20/icons/ameacas/hobgoblin-soldado.png",
      "tint": null,
      "scaleX": 0.9,
      "scaleY": 0.9,
      "offsetX": 0,
      "offsetY": 0,
      "rotation": 0
    },
    "sight": {
      "angle": 360,
      "enabled": true,
      "range": 30,
      "brightness": 1,
      "visionMode": "basic",
      "color": null,
      "attenuation": 0.1,
      "saturation": 0,
      "contrast": 0
    },
    "detectionModes": [],
    "appendNumber": false,
    "prependAdjective": false
  },
  "_stats": {
    "systemId": "tormenta20",
    "systemVersion": "1.4.203d2",
    "coreVersion": "11.315",
    "createdTime": 1661997945958,
    "modifiedTime": 1700236485878,
    "lastModifiedBy": "5frcpPVF3cVfLwZA"
  },
  "_key": "!actors!Tgy5IZKg9Mt1zgmp"
}
