{
  "folder": null,
  "name": "ND 11",
  "sorting": "a",
  "type": "Actor",
  "_id": "0d8IrqlRvvJ4Haxe",
  "sort": 0,
  "flags": {},
  "_stats": {
    "systemId": null,
    "systemVersion": null,
    "coreVersion": null,
    "createdTime": null,
    "modifiedTime": null,
    "lastModifiedBy": null
  },
  "_key": "!folders!0d8IrqlRvvJ4Haxe"
}
