{
  "folder": null,
  "name": "ND  1/2",
  "sorting": "a",
  "type": "Actor",
  "_id": "bbSOxnmQYGjvlnqm",
  "sort": 0,
  "flags": {},
  "_stats": {
    "systemId": "tormenta20",
    "systemVersion": "1.4.200",
    "coreVersion": "11.299",
    "createdTime": null,
    "modifiedTime": 1685243329930,
    "lastModifiedBy": "ZWR5Tn3AhSIFqwp6"
  },
  "color": null,
  "_key": "!folders!bbSOxnmQYGjvlnqm"
}
