{
  "name": "Carruagem",
  "type": "tesouro",
  "img": "systems/tormenta20/icons/itens/gerais/carruagem.webp",
  "system": {
    "description": {
      "value": "<p>Ve&iacute;culo de quatro rodas, capaz de transportar at&eacute; quatro pessoas em uma cabine fechada, mais dois condutores do lado de fora. &Eacute; puxada&nbsp; por dois cavalos ou um trobo. Inclui os arreios necess&aacute;rios para controlar os animais. Tem as mesmas estat&iacute;sticas de uma carro&ccedil;a, mas fornece cobertura leve a seus passageiros.</p>",
      "chat": "",
      "unidentified": ""
    },
    "source": "T20, pg. 163 (JdA)",
    "equipado": false,
    "equipado2": {
      "slot": 0,
      "type": ""
    },
    "carregado": true,
    "peso": 0,
    "espacos": 0,
    "qtd": 1,
    "preco": 200,
    "pv": {
      "value": 0,
      "min": 0,
      "max": 0
    },
    "rd": 0,
    "container": false,
    "rolls": [],
    "origin": "",
    "chatFlavor": "",
    "tags": [],
    "chatGif": "",
    "ativacao": {
      "custo": 0,
      "condicao": "",
      "execucao": "",
      "qtd": "",
      "special": ""
    },
    "consume": {
      "amount": 0,
      "mpMultiplier": false,
      "target": "",
      "type": ""
    },
    "duracao": {
      "units": "",
      "value": 0,
      "special": ""
    },
    "range": {
      "units": "",
      "value": 0
    },
    "target": {
      "type": "",
      "value": 0,
      "width": 0
    },
    "alcance": "",
    "alvo": "",
    "area": "",
    "efeito": "",
    "resistencia": {
      "txt": "",
      "pericia": "",
      "atributo": "",
      "bonus": 0
    }
  },
  "effects": [],
  "flags": {
    "exportSource": {
      "world": "tormentaverse",
      "system": "tormenta20",
      "coreVersion": "10.286",
      "systemVersion": "1.4.006"
    }
  },
  "_stats": {
    "systemId": "tormenta20",
    "systemVersion": "1.4.116",
    "coreVersion": "11.298",
    "createdTime": null,
    "modifiedTime": 1684617216485,
    "lastModifiedBy": "ZWR5Tn3AhSIFqwp6"
  },
  "_id": "LhaPpB6EoYJAoor7",
  "folder": "hmV5qDTRHMohkjKb",
  "sort": 125000,
  "ownership": {
    "default": 0,
    "tIn9sSkrT3mDWirx": 3
  },
  "_key": "!items!LhaPpB6EoYJAoor7"
}
