{
  "_id": "mMPUi2VjdE3rNGkg",
  "name": "Instrumentos de Ofício",
  "type": "equipamento",
  "img": "systems/tormenta20/icons/itens/gerais/instrumentos-de-oficio.webp",
  "effects": [],
  "folder": "VqWdhvUwkVTlura5",
  "sort": 101563,
  "flags": {},
  "system": {
    "description": {
      "value": "<p>Existe uma vers&atilde;o deste item para cada per&iacute;cia de Of&iacute;cio. Por exemplo, martelo, pregos e serrote para Of&iacute;cio (carpinteiro), pergaminhos em branco, tinta e pena para Of&iacute;cio (escriba) e assim por diante. Um personagem sem os instrumentos de seu Of&iacute;cio sofre &ndash;5 nessa per&iacute;cia.</p>",
      "chat": "",
      "unidentified": ""
    },
    "source": "T20, pg. 158 (JdA)",
    "equipado": false,
    "equipado2": {
      "slot": 0,
      "type": "hand"
    },
    "carregado": true,
    "peso": 0,
    "espacos": 1,
    "qtd": 1,
    "preco": 30,
    "pv": {
      "value": 0,
      "min": 0,
      "max": 0
    },
    "rd": 0,
    "tipo": "ferramenta",
    "armadura": {
      "value": 0,
      "penalidade": 0,
      "maxAtr": 0
    },
    "origin": "",
    "tags": [],
    "chatFlavor": "",
    "chatGif": "",
    "rolls": [],
    "ativacao": {
      "custo": 0,
      "condicao": "",
      "execucao": "",
      "qtd": "",
      "special": ""
    },
    "upgrades": {
      "melhoria1": "",
      "melhoria2": "",
      "melhoria3": "",
      "melhoria4": "",
      "material": "",
      "encanto1": "",
      "encanto2": "",
      "encanto3": ""
    },
    "melhorias": {},
    "encantos": {}
  },
  "ownership": {
    "default": 0
  },
  "_stats": {
    "systemId": "tormenta20",
    "systemVersion": "1.4.116",
    "coreVersion": "11.298",
    "createdTime": 1667249835622,
    "modifiedTime": 1684809353177,
    "lastModifiedBy": "ZWR5Tn3AhSIFqwp6"
  },
  "_key": "!items!mMPUi2VjdE3rNGkg"
}
