{
  "name": "Luneta",
  "type": "equipamento",
  "img": "systems/tormenta20/icons/itens/gerais/luneta.webp",
  "system": {
    "description": {
      "value": "<p>Este instrumento valioso consiste de um cilindro met&aacute;lico com duas lentes. Fornece +5 em testes de Percep&ccedil;&atilde;o para observar coisas em alcance longo ou al&eacute;m.</p>",
      "chat": "",
      "unidentified": ""
    },
    "source": "T20, pg. 158 (JdA)",
    "equipado": false,
    "equipado2": {
      "slot": 0,
      "type": "hand"
    },
    "carregado": true,
    "peso": 0,
    "espacos": 1,
    "qtd": 1,
    "preco": 100,
    "pv": {
      "value": 0,
      "min": 0,
      "max": 0
    },
    "rd": 0,
    "tipo": "ferramenta",
    "armadura": {
      "value": 0,
      "penalidade": 0,
      "maxAtr": 0
    },
    "origin": "",
    "tags": [],
    "chatFlavor": "",
    "chatGif": "",
    "rolls": [],
    "ativacao": {
      "custo": 0,
      "condicao": "",
      "execucao": "",
      "qtd": "",
      "special": ""
    },
    "upgrades": {
      "melhoria1": "",
      "melhoria2": "",
      "melhoria3": "",
      "melhoria4": "",
      "material": "",
      "encanto1": "",
      "encanto2": "",
      "encanto3": ""
    },
    "melhorias": {},
    "encantos": {}
  },
  "effects": [],
  "flags": {},
  "_stats": {
    "systemId": "tormenta20",
    "systemVersion": "1.4.116",
    "coreVersion": "11.298",
    "createdTime": 1667249890126,
    "modifiedTime": 1684809353177,
    "lastModifiedBy": "ZWR5Tn3AhSIFqwp6"
  },
  "_id": "DIGKu51vzwEm60Rz",
  "folder": "VqWdhvUwkVTlura5",
  "sort": 100782,
  "ownership": {
    "default": 0,
    "tIn9sSkrT3mDWirx": 3
  },
  "_key": "!items!DIGKu51vzwEm60Rz"
}
