{
  "name": "Luva de Ferro",
  "type": "equipamento",
  "img": "systems/tormenta20/icons/itens/gerais/luva-de-ferro.webp",
  "effects": [
    {
      "label": "Luva de Ferro: Suas magias arcanas de alcance pessoal que concedem bônus na Defesa têm esse bônus aumentado em +1.",
      "icon": "icons/svg/upgrade.svg",
      "origin": "Item.FLmuXN3wg9KxC3BH",
      "tint": "#FFFFFF",
      "flags": {
        "tormenta20": {
          "onuse": true,
          "durationScene": false,
          "self": false,
          "attack": false,
          "skill": false,
          "ability": false,
          "power": false,
          "spell": true,
          "consumable": false,
          "items": "",
          "aumenta": false,
          "custo": ""
        }
      },
      "duration": {
        "startTime": null,
        "seconds": null,
        "combat": null,
        "rounds": null,
        "turns": null,
        "startRound": null,
        "startTurn": null
      },
      "disabled": true,
      "_id": "H6DQFuSF71NcRSIr",
      "changes": [
        {
          "key": "system.attributes.defesa.bonus",
          "mode": 2,
          "value": "1",
          "priority": 0
        }
      ],
      "transfer": true,
      "_key": "!items.effects!JcJuBJzPEoVuboMp.H6DQFuSF71NcRSIr"
    },
    {
      "label": "Luva de Ferro: Suas magias arcanas de alcance pessoal que concedem bônus nos testes de resistências têm esse bônus aumentado em +1.",
      "icon": "icons/svg/upgrade.svg",
      "origin": "Item.FLmuXN3wg9KxC3BH",
      "tint": "#FFFFFF",
      "flags": {
        "tormenta20": {
          "onuse": true,
          "durationScene": false,
          "self": false,
          "attack": false,
          "skill": false,
          "ability": false,
          "power": false,
          "spell": true,
          "consumable": false,
          "items": "",
          "aumenta": false,
          "custo": ""
        }
      },
      "duration": {
        "startTime": null,
        "seconds": null,
        "combat": null,
        "rounds": null,
        "turns": null,
        "startRound": null,
        "startTurn": null
      },
      "disabled": true,
      "_id": "MiyRanpGzHyIHOLO",
      "changes": [
        {
          "key": "system.pericias.fort.bonus",
          "mode": 2,
          "value": "1",
          "priority": 0
        },
        {
          "key": "system.pericias.refl.bonus",
          "mode": 2,
          "value": "1",
          "priority": 0
        },
        {
          "key": "system.pericias.vont.bonus",
          "mode": 2,
          "value": "1",
          "priority": 0
        }
      ],
      "transfer": true,
      "_key": "!items.effects!JcJuBJzPEoVuboMp.MiyRanpGzHyIHOLO"
    }
  ],
  "flags": {
    "core": {
      "sourceId": "Compendium.tormenta20.equipamentos-magicos.WAObGl5rjxba8J8s"
    }
  },
  "system": {
    "description": {
      "value": "<p style=\"text-align: justify;\">Um conjunto de dedais interligados por correntes. Suas magias arcanas pessoais que concedem b&ocirc;nus na Defesa ou em testes de resist&ecirc;ncias t&ecirc;m esse b&ocirc;nus aumentado em +1.</p>",
      "chat": "",
      "unidentified": ""
    },
    "source": "T20, pg. 160 (JdA)",
    "equipado": false,
    "equipado2": {
      "slot": 0,
      "type": "hand"
    },
    "carregado": true,
    "peso": 0,
    "espacos": 1,
    "qtd": 1,
    "preco": 150,
    "pv": {
      "value": 0,
      "min": 0,
      "max": 0
    },
    "rd": 0,
    "tipo": "esoterico",
    "armadura": {
      "value": 0,
      "penalidade": 0,
      "maxAtr": 0
    },
    "rolls": [],
    "origin": "",
    "tags": [],
    "chatFlavor": "",
    "ativacao": {
      "custo": null,
      "condicao": "",
      "execucao": "",
      "qtd": "",
      "special": ""
    },
    "chatGif": "",
    "upgrades": {
      "melhoria1": "",
      "melhoria2": "",
      "melhoria3": "",
      "melhoria4": "",
      "material": "",
      "encanto1": "",
      "encanto2": "",
      "encanto3": ""
    },
    "melhorias": {},
    "encantos": {}
  },
  "_stats": {
    "systemId": "tormenta20",
    "systemVersion": "1.4.116",
    "coreVersion": "11.298",
    "createdTime": 1663377681721,
    "modifiedTime": 1684809353177,
    "lastModifiedBy": "ZWR5Tn3AhSIFqwp6"
  },
  "_id": "JcJuBJzPEoVuboMp",
  "folder": "q5xr48fQpaZDdVTn",
  "sort": 106250,
  "ownership": {
    "default": 0,
    "tIn9sSkrT3mDWirx": 3
  },
  "_key": "!items!JcJuBJzPEoVuboMp"
}
