{
  "name": "Pó do Desaparecimento",
  "type": "consumivel",
  "img": "systems/tormenta20/icons/itens/gerais/po-do-desaparecimento.webp",
  "system": {
    "description": {
      "value": "<p>Uma criatura ou objeto coberto por este p&oacute; torna-se invis&iacute;vel (como em @UUID[Compendium.tormenta20.magias.A3RFvVgOvODWHtvc]{Invisibilidade}) por 2d6 rodadas. O usu&aacute;rio n&atilde;o sabe quando a invisibilidade vai terminar.</p>",
      "chat": "",
      "unidentified": ""
    },
    "source": "T20, pg. 160 (JdA)",
    "equipado": false,
    "equipado2": {
      "slot": 0,
      "type": ""
    },
    "carregado": true,
    "peso": 0,
    "espacos": 0.5,
    "qtd": 1,
    "preco": 100,
    "pv": {
      "value": 0,
      "min": 0,
      "max": 0
    },
    "rd": 0,
    "ativacao": {
      "execucao": "",
      "custo": 0,
      "qtd": "",
      "condicao": "",
      "special": ""
    },
    "duracao": {
      "value": 0,
      "units": "",
      "special": ""
    },
    "target": {
      "value": null,
      "width": null,
      "units": "",
      "type": ""
    },
    "range": {
      "value": null,
      "units": ""
    },
    "consume": {
      "type": "",
      "target": "",
      "amount": null,
      "mpMultiplier": false
    },
    "efeito": "",
    "alcance": "none",
    "alvo": "",
    "area": "",
    "resistencia": {
      "pericia": "",
      "atributo": "",
      "bonus": 0,
      "txt": ""
    },
    "rolls": [],
    "tipo": "alchemy",
    "uses": {
      "autoDestroy": false
    },
    "origin": "",
    "tags": [],
    "chatFlavor": "",
    "subtipo": "",
    "chatGif": "",
    "upgrades": {
      "melhoria1": "",
      "melhoria2": "",
      "melhoria3": "",
      "melhoria4": "",
      "material": "",
      "encanto1": "",
      "encanto2": "",
      "encanto3": ""
    },
    "melhorias": {},
    "encantos": {}
  },
  "effects": [],
  "flags": {},
  "_stats": {
    "systemId": "tormenta20",
    "systemVersion": "1.4.116",
    "coreVersion": "11.298",
    "createdTime": 1664981230646,
    "modifiedTime": 1684618203274,
    "lastModifiedBy": "ZWR5Tn3AhSIFqwp6"
  },
  "_id": "HDF3MD75NSn5MHic",
  "folder": "FUrcrKKV6smuHI1v",
  "sort": 800000,
  "ownership": {
    "default": 0,
    "tIn9sSkrT3mDWirx": 3
  },
  "_key": "!items!HDF3MD75NSn5MHic"
}
