{
  "_id": "SlLNgSGJaWZfiDtx",
  "name": "Tridente",
  "type": "arma",
  "img": "systems/tormenta20/icons/itens/equipamentos/tridente.webp",
  "effects": [],
  "folder": "HkeRANb2t5R9UKLQ",
  "sort": 1800000,
  "flags": {
    "core": {
      "sourceId": "Compendium.tormenta20.equipamentos.SlLNgSGJaWZfiDtx"
    }
  },
  "system": {
    "description": {
      "value": "<p style=\"text-align: justify;\">Uma lan&ccedil;a com tr&ecirc;s pontas, favorita de povos marinhos e gladiadores e pr&oacute;pria para prender as pernas do oponente. O tridente &eacute; uma arma <em>vers&aacute;til</em>, fornecendo +2 em testes para derrubar.</p>",
      "chat": "",
      "unidentified": ""
    },
    "source": "T20, pg. 150 (JdA)",
    "equipado": 0,
    "equipado2": {
      "slot": 0,
      "type": "hand"
    },
    "carregado": true,
    "peso": 2,
    "espacos": 1,
    "qtd": 1,
    "preco": 15,
    "pv": {
      "value": 0,
      "min": 0,
      "max": 0
    },
    "rd": 0,
    "rolls": [
      {
        "name": "Ataque",
        "key": "ataque0",
        "type": "ataque",
        "parts": [
          [
            "1d20",
            ""
          ],
          [
            "luta",
            ""
          ],
          [
            "0",
            ""
          ]
        ]
      },
      {
        "name": "Dano",
        "key": "dano1",
        "type": "dano",
        "parts": [
          [
            "1d8",
            "perfuracao"
          ],
          [
            "@for",
            ""
          ]
        ],
        "versatil": ""
      }
    ],
    "criticoM": 20,
    "criticoX": 2,
    "alcance": "short",
    "tipoUso": "sim",
    "propriedades": {
      "ada": false,
      "agi": false,
      "alo": false,
      "dup": false,
      "ver": true,
      "adaptavel": false,
      "agil": false,
      "alongada": false,
      "arremesso": false,
      "ataqueDistancia": false,
      "duasMaos": false,
      "dupla": false,
      "leve": false,
      "municao": false,
      "versatil": true,
      "des": false
    },
    "encantos": {
      "arremesso": false,
      "lancinante": false,
      "lancinating": false
    },
    "ativacao": {
      "custo": null,
      "condicao": "",
      "execucao": "",
      "qtd": "",
      "special": ""
    },
    "chatFlavor": "",
    "consume": {
      "type": "",
      "target": "",
      "amount": null,
      "mpMultiplier": false
    },
    "origin": "",
    "tags": [],
    "chatGif": "",
    "upgrades": {
      "melhoria1": "",
      "melhoria2": "",
      "melhoria3": "",
      "melhoria4": "",
      "material": "",
      "encanto1": "",
      "encanto2": "",
      "encanto3": ""
    },
    "melhorias": {},
    "ataques": 0,
    "proficiencia": "marcial",
    "proposito": "arremesso",
    "empunhadura": "uma",
    "size": "normal"
  },
  "ownership": {
    "default": 0
  },
  "_stats": {
    "systemId": "tormenta20",
    "systemVersion": "1.4.116",
    "coreVersion": "11.298",
    "createdTime": 1664312772404,
    "modifiedTime": 1684809353177,
    "lastModifiedBy": "ZWR5Tn3AhSIFqwp6"
  },
  "_key": "!items!SlLNgSGJaWZfiDtx"
}
