{
  "name": "Vestuários",
  "sorting": "a",
  "folder": null,
  "type": "Item",
  "_id": "3kNyXnAknru6qWyM",
  "sort": 0,
  "color": null,
  "flags": {},
  "_stats": {
    "systemId": "tormenta20",
    "systemVersion": "1.4.200",
    "coreVersion": "11.299",
    "createdTime": null,
    "modifiedTime": 1685245568383,
    "lastModifiedBy": "ZWR5Tn3AhSIFqwp6"
  },
  "_key": "!folders!3kNyXnAknru6qWyM"
}
