{
  "name": "Cavaleiro das Trevas",
  "type": "poder",
  "img": "systems/tormenta20/icons/poderes/distincao.webp",
  "system": {
    "description": {
      "value": "<blockquote>\n<p style=\"text-align: justify;\">Vigilantes mascarados se sentem mais &agrave; vontade na escurid&atilde;o</p>\n</blockquote>\n<p class=\"MsoNormal\" style=\"text-align: justify;\">Voc&ecirc; recebe vis&atilde;o no escuro. Quando desfere um acerto cr&iacute;tico ou ataque furtivo contra uma criatura, voc&ecirc; pode gastar 2 PM para ignorar a imunidade a acertos cr&iacute;ticos e/ou ataques furtivos do alvo. Por fim, suas rolagens de dano contra criaturas desprevenidas ou sob alguma condi&ccedil;&atilde;o de medo recebem +1d6. Esse dado adicional aumenta em um passo para cada dois outros poderes de vigilante mascarado que voc&ecirc; tenha.</p>\n<p class=\"MsoNormal\" style=\"text-align: justify;\">Pr&eacute;-requisitos: Ataque Furtivo, Traje das Sombras</p>",
      "chat": "",
      "unidentified": ""
    },
    "source": "Distinções, pg. 31-32",
    "ativacao": {
      "execucao": "",
      "custo": 2,
      "qtd": "",
      "condicao": "",
      "special": ""
    },
    "duracao": {
      "value": 0,
      "units": "",
      "special": ""
    },
    "target": {
      "value": null,
      "width": null,
      "units": "",
      "type": ""
    },
    "range": {
      "value": null,
      "units": ""
    },
    "consume": {
      "type": "",
      "target": "",
      "amount": null,
      "mpMultiplier": false
    },
    "efeito": "",
    "alcance": "none",
    "alvo": "",
    "area": "",
    "resistencia": {
      "pericia": "",
      "atributo": "",
      "bonus": 0,
      "txt": ""
    },
    "rolls": [
      {
        "name": "Dano",
        "key": "dano0",
        "type": "dano",
        "parts": [
          [
            "1d6",
            "",
            ""
          ]
        ],
        "versatil": ""
      }
    ],
    "tipo": "distincao",
    "subtipo": "Vigilante Mascarado",
    "origin": "",
    "tags": [
      "VigilanteMascarado"
    ],
    "chatFlavor": "",
    "chatGif": ""
  },
  "effects": [
    {
      "label": "Cavaleiro das Trevas",
      "icon": "systems/tormenta20/icons/poderes/distincao.webp",
      "origin": "Item.p7dkbrmgC74qMgpI",
      "tint": "#FFFFFF",
      "flags": {
        "tormenta20": {
          "onuse": false,
          "durationScene": false
        }
      },
      "duration": {
        "startTime": null,
        "seconds": null,
        "combat": null,
        "rounds": null,
        "turns": null,
        "startRound": null,
        "startTurn": null
      },
      "disabled": false,
      "_id": "VLi0QayqBczBqdyt",
      "changes": [
        {
          "key": "system.tracos.ic.value",
          "mode": 2,
          "value": "escuro",
          "priority": null
        }
      ],
      "transfer": true,
      "_key": "!items.effects!p7dkbrmgC74qMgpI.VLi0QayqBczBqdyt"
    }
  ],
  "flags": {},
  "_stats": {
    "systemId": "tormenta20",
    "systemVersion": "1.4.116",
    "coreVersion": "11.298",
    "createdTime": 1667083905345,
    "modifiedTime": 1684614605298,
    "lastModifiedBy": "ZWR5Tn3AhSIFqwp6"
  },
  "_id": "p7dkbrmgC74qMgpI",
  "folder": "NxFKO0AHIR0pQgBN",
  "sort": 0,
  "ownership": {
    "default": 0,
    "tIn9sSkrT3mDWirx": 3
  },
  "_key": "!items!p7dkbrmgC74qMgpI"
}
