{
  "name": "Destruir Aberração",
  "type": "poder",
  "img": "systems/tormenta20/icons/poderes/distincao.webp",
  "system": {
    "description": {
      "value": "<blockquote>\n<p>O poder da realidade pode ser canalizado para destruir tudo aquilo que &eacute; antinatural.</p>\n</blockquote>\n<p style=\"text-align: justify;\">Voc&ecirc; ignora a imunidade a acertos cr&iacute;ticos de seres extraplanares e soma seu modificador de Carisma em suas rolagens de dano contra estas criaturas. <em>Pr&eacute;-requisitos:</em> treinado em Luta ou Pontaria, Basti&atilde;o da Realidade.</p>",
      "chat": "",
      "unidentified": ""
    },
    "source": "Distinções, pg. 24",
    "ativacao": {
      "execucao": "free",
      "custo": 0,
      "qtd": "",
      "condicao": "",
      "special": ""
    },
    "duracao": {
      "value": 0,
      "units": "",
      "special": ""
    },
    "target": {
      "value": null,
      "width": null,
      "units": "",
      "type": ""
    },
    "range": {
      "value": null,
      "units": ""
    },
    "consume": {
      "type": "",
      "target": "",
      "amount": null,
      "mpMultiplier": false
    },
    "efeito": "",
    "alcance": "none",
    "alvo": "",
    "area": "",
    "resistencia": {
      "pericia": "",
      "atributo": "",
      "bonus": 0,
      "txt": ""
    },
    "rolls": [],
    "tipo": "distincao",
    "subtipo": "Guardião da Realidade",
    "chatFlavor": "",
    "origin": "",
    "tags": [
      "GuardiaodaRealidade"
    ],
    "chatGif": ""
  },
  "effects": [],
  "flags": {
    "exportSource": {
      "world": "tormentaverse",
      "system": "tormenta20",
      "coreVersion": "10.286",
      "systemVersion": "1.4.006"
    }
  },
  "_stats": {
    "systemId": "tormenta20",
    "systemVersion": "1.4.116",
    "coreVersion": "11.298",
    "createdTime": 1662563555796,
    "modifiedTime": 1684614605298,
    "lastModifiedBy": "ZWR5Tn3AhSIFqwp6"
  },
  "_id": "mswIRL5YGvi43z7e",
  "folder": "YXlTMaY22gwCu0fc",
  "sort": 0,
  "ownership": {
    "default": 0,
    "tIn9sSkrT3mDWirx": 3
  },
  "_key": "!items!mswIRL5YGvi43z7e"
}
