{
  "name": "Explorador do Horizonte",
  "type": "poder",
  "img": "systems/tormenta20/icons/poderes/distincao.webp",
  "system": {
    "description": {
      "value": "<blockquote>\n<p>O andarilho do horizonte aprende a combinar seu dom&iacute;nio sobre os mais variados terrenos com seu conhecimento de explorador do mundo natural.</p>\n</blockquote>\n<p style=\"text-align: justify;\">Quando est&aacute; em um terreno para o qual possua Dom&iacute;nio de Terreno e Explorador, o b&ocirc;nus fornecido por sua habilidade Explorador aumenta em +1 e o custo de sua habilidade Marca da Presa &eacute; reduzido em &ndash;1 PM. <em>Pr&eacute;-requisitos:</em> Dom&iacute;nio de Terreno, Explorador.</p>",
      "chat": "",
      "unidentified": ""
    },
    "source": "Distinções, pg. 13",
    "ativacao": {
      "execucao": "passive",
      "custo": 0,
      "qtd": "",
      "condicao": "",
      "special": ""
    },
    "duracao": {
      "value": 0,
      "units": "",
      "special": ""
    },
    "target": {
      "value": null,
      "width": null,
      "units": "",
      "type": ""
    },
    "range": {
      "value": null,
      "units": ""
    },
    "consume": {
      "type": "",
      "target": "",
      "amount": null,
      "mpMultiplier": false
    },
    "efeito": "",
    "alcance": "none",
    "alvo": "",
    "area": "",
    "resistencia": {
      "pericia": "",
      "atributo": "",
      "bonus": 0,
      "txt": ""
    },
    "rolls": [],
    "tipo": "distincao",
    "subtipo": "Andarilho do Horizonte",
    "origin": "",
    "tags": [
      "AndarilhodoHorizonte"
    ],
    "chatFlavor": "",
    "chatGif": ""
  },
  "effects": [],
  "flags": {},
  "_stats": {
    "systemId": "tormenta20",
    "systemVersion": "1.4.116",
    "coreVersion": "11.298",
    "createdTime": 1665850170299,
    "modifiedTime": 1684614605298,
    "lastModifiedBy": "ZWR5Tn3AhSIFqwp6"
  },
  "_id": "0BgK6fk4FO2jdJlB",
  "folder": "CivN4iqFKpA5ogfm",
  "sort": 0,
  "ownership": {
    "default": 0,
    "tIn9sSkrT3mDWirx": 3
  },
  "_key": "!items!0BgK6fk4FO2jdJlB"
}
